build/vcd/redux_v_base_TB.vcd
$date
	Mon Oct 28 15:56:22 2024
$end
$version
	Icarus Verilog
$end
$timescale
	1fs
$end
$scope module redux_v_TB $end
$var reg 1 ! clk $end
$var integer 32 " pc_cnt [31:0] $end
$scope module DUT $end
$var wire 1 ! clk $end
$var wire 8 # write_data_reg [7:0] $end
$var wire 2 $ write_address_reg [1:0] $end
$var wire 3 % ula_op [2:0] $end
$var wire 8 & sp [7:0] $end
$var wire 10 ' signals_s [9:0] $end
$var wire 10 ( signals_cu [9:0] $end
$var wire 10 ) signals [9:0] $end
$var wire 8 * sign_ext [7:0] $end
$var wire 8 + result_out_ula [7:0] $end
$var wire 8 , pc [7:0] $end
$var wire 8 - next_pc [7:0] $end
$var wire 8 . mux_rd [7:0] $end
$var wire 8 / mux_dm [7:0] $end
$var wire 8 0 instruction [7:0] $end
$var wire 8 1 data_out_dm [7:0] $end
$var wire 8 2 data_b_reg [7:0] $end
$var wire 8 3 data_a_reg [7:0] $end
$var wire 8 4 b_in_ula [7:0] $end
$var wire 8 5 address_dm [7:0] $end
$var wire 2 6 address_b_reg [1:0] $end
$var wire 2 7 address_a_reg [1:0] $end
$var reg 9 8 address_s [0:8] $end
$var reg 1 9 finish $end
$var reg 1 : start_up $end
$scope module CU $end
$var wire 4 ; op [3:0] $end
$var reg 10 < signals [9:0] $end
$var reg 3 = ula_op [2:0] $end
$upscope $end
$scope module DM $end
$var wire 8 > address [7:0] $end
$var wire 1 ! clk $end
$var wire 1 ? write_enable $end
$var wire 8 @ data_in [7:0] $end
$var reg 8 A data_out [7:0] $end
$upscope $end
$scope module IM $end
$var wire 1 ! clk $end
$var wire 8 B pc [7:0] $end
$var reg 8 C instruction [7:0] $end
$upscope $end
$scope module NEXT_PC $end
$var wire 1 D brzr_sel $end
$var wire 1 E jmp_sel $end
$var wire 8 F pc [7:0] $end
$var wire 8 G pc_jmp [7:0] $end
$var wire 8 H pc_brzr [7:0] $end
$var reg 8 I next_pc [7:0] $end
$upscope $end
$scope module PC $end
$var wire 1 ! clk $end
$var wire 8 J next_pc [7:0] $end
$var reg 8 K pc [7:0] $end
$upscope $end
$scope module RB $end
$var wire 2 L address_a [0:1] $end
$var wire 2 M address_b [0:1] $end
$var wire 1 ! clk $end
$var wire 2 N write_address [0:1] $end
$var wire 8 O write_data [7:0] $end
$var wire 1 P write_enable $end
$var reg 8 Q data_a [7:0] $end
$var reg 8 R data_b [7:0] $end
$upscope $end
$scope module SP $end
$var wire 1 ! clk $end
$var wire 1 S op $end
$var wire 1 T write_enable $end
$var reg 9 U reg_sp [8:0] $end
$var reg 8 V sp [7:0] $end
$upscope $end
$scope module ULA $end
$var wire 8 W a_in [7:0] $end
$var wire 8 X b_in [7:0] $end
$var wire 3 Y ula_op_in [2:0] $end
$var reg 8 Z result_out [7:0] $end
$upscope $end
$upscope $end
$upscope $end
$enddefinitions $end
#0
$dumpvars
b0 Z
bx Y
b0 X
bx W
b0 V
b0 U
0T
xS
bx R
bx Q
0P
b0 O
b11 N
b0 M
b0 L
b0 K
b0 J
b0 I
bx H
b0 G
b0 F
0E
0D
bx C
b0 B
b0 A
bx @
1?
b11111111 >
bx =
bx <
bx ;
1:
09
b111111111 8
b0 7
b0 6
b11111111 5
b0 4
bx 3
bx 2
b0 1
bx 0
b0 /
b0 .
b0 -
b0 ,
b0 +
b0 *
b1000 )
bx (
b1000 '
b0 &
bx %
b11 $
b0 #
b0 "
0!
$end
#4
1P
bx +
bx Z
b1100 )
b0 5
b0 >
b0 $
b0 N
b11 %
b11 =
b11 Y
b101 (
b101 <
b1100 '
b1011 ;
1S
b10110000 0
b10110000 C
b0 8
b1 "
1!
#8
0!
#12
b1 5
b1 >
b1 $
b1 N
b0 +
b0 Z
b0 2
b0 H
b0 R
b0 3
b0 @
b0 Q
b0 W
b1 8
b10 "
1!
#16
0!
#20
b10 5
b10 >
b10 $
b10 N
b10 8
b11 "
1!
#24
0!
#28
b11 5
b11 >
b11 $
b11 N
b11 8
b100 "
1!
#32
0!
#36
b100 5
b100 >
b0 $
b0 N
b100 8
b101 "
1!
#40
0!
#44
b101 5
b101 >
b1 $
b1 N
b101 8
b110 "
1!
#48
0!
#52
b110 5
b110 >
b10 $
b10 N
b110 8
b111 "
1!
#56
0!
#60
b111 5
b111 >
b11 $
b11 N
b111 8
b1000 "
1!
#64
0!
#68
b1000 5
b1000 >
b0 $
b0 N
b1000 8
b1001 "
1!
#72
0!
#76
0P
b1000 )
b1001 5
b1001 >
b1 $
b1 N
b1000 '
b1001 8
b1010 "
1!
#80
0!
#84
b1010 5
b1010 >
b10 $
b10 N
b1010 8
b1011 "
1!
#88
0!
#92
b1011 5
b1011 >
b11 $
b11 N
b1011 8
b1100 "
1!
#96
0!
#100
b1100 5
b1100 >
b0 $
b0 N
b1100 8
b1101 "
1!
#104
0!
#108
b1101 5
b1101 >
b1 $
b1 N
b1101 8
b1110 "
1!
#112
0!
#116
b1110 5
b1110 >
b10 $
b10 N
b1110 8
b1111 "
1!
#120
0!
#124
b1111 5
b1111 >
b11 $
b11 N
b1111 8
b10000 "
1!
#128
0!
#132
b10000 5
b10000 >
b0 $
b0 N
b10000 8
b10001 "
1!
#136
0!
#140
b10001 5
b10001 >
b1 $
b1 N
b10001 8
b10010 "
1!
#144
0!
#148
b10010 5
b10010 >
b10 $
b10 N
b10010 8
b10011 "
1!
#152
0!
#156
b10011 5
b10011 >
b11 $
b11 N
b10011 8
b10100 "
1!
#160
0!
#164
b10100 5
b10100 >
b0 $
b0 N
b10100 8
b10101 "
1!
#168
0!
#172
b10101 5
b10101 >
b1 $
b1 N
b10101 8
b10110 "
1!
#176
0!
#180
b10110 5
b10110 >
b10 $
b10 N
b10110 8
b10111 "
1!
#184
0!
#188
b10111 5
b10111 >
b11 $
b11 N
b10111 8
b11000 "
1!
#192
0!
#196
b11000 5
b11000 >
b0 $
b0 N
b11000 8
b11001 "
1!
#200
0!
#204
b11001 5
b11001 >
b1 $
b1 N
b11001 8
b11010 "
1!
#208
0!
#212
b11010 5
b11010 >
b10 $
b10 N
b11010 8
b11011 "
1!
#216
0!
#220
b11011 5
b11011 >
b11 $
b11 N
b11011 8
b11100 "
1!
#224
0!
#228
b11100 5
b11100 >
b0 $
b0 N
b11100 8
b11101 "
1!
#232
0!
#236
b11101 5
b11101 >
b1 $
b1 N
b11101 8
b11110 "
1!
#240
0!
#244
b11110 5
b11110 >
b10 $
b10 N
b11110 8
b11111 "
1!
#248
0!
#252
b11111 5
b11111 >
b11 $
b11 N
b11111 8
b100000 "
1!
#256
0!
#260
b100000 5
b100000 >
b0 $
b0 N
b100000 8
b100001 "
1!
#264
0!
#268
b100001 5
b100001 >
b1 $
b1 N
b100001 8
b100010 "
1!
#272
0!
#276
b100010 5
b100010 >
b10 $
b10 N
b100010 8
b100011 "
1!
#280
0!
#284
b100011 5
b100011 >
b11 $
b11 N
b100011 8
b100100 "
1!
#288
0!
#292
b100100 5
b100100 >
b0 $
b0 N
b100100 8
b100101 "
1!
#296
0!
#300
b100101 5
b100101 >
b1 $
b1 N
b100101 8
b100110 "
1!
#304
0!
#308
b100110 5
b100110 >
b10 $
b10 N
b100110 8
b100111 "
1!
#312
0!
#316
b100111 5
b100111 >
b11 $
b11 N
b100111 8
b101000 "
1!
#320
0!
#324
b101000 5
b101000 >
b0 $
b0 N
b101000 8
b101001 "
1!
#328
0!
#332
b101001 5
b101001 >
b1 $
b1 N
b101001 8
b101010 "
1!
#336
0!
#340
b101010 5
b101010 >
b10 $
b10 N
b101010 8
b101011 "
1!
#344
0!
#348
b101011 5
b101011 >
b11 $
b11 N
b101011 8
b101100 "
1!
#352
0!
#356
b101100 5
b101100 >
b0 $
b0 N
b101100 8
b101101 "
1!
#360
0!
#364
b101101 5
b101101 >
b1 $
b1 N
b101101 8
b101110 "
1!
#368
0!
#372
b101110 5
b101110 >
b10 $
b10 N
b101110 8
b101111 "
1!
#376
0!
#380
b101111 5
b101111 >
b11 $
b11 N
b101111 8
b110000 "
1!
#384
0!
#388
b110000 5
b110000 >
b0 $
b0 N
b110000 8
b110001 "
1!
#392
0!
#396
b110001 5
b110001 >
b1 $
b1 N
b110001 8
b110010 "
1!
#400
0!
#404
b110010 5
b110010 >
b10 $
b10 N
b110010 8
b110011 "
1!
#408
0!
#412
b110011 5
b110011 >
b11 $
b11 N
b110011 8
b110100 "
1!
#416
0!
#420
b110100 5
b110100 >
b0 $
b0 N
b110100 8
b110101 "
1!
#424
0!
#428
b110101 5
b110101 >
b1 $
b1 N
b110101 8
b110110 "
1!
#432
0!
#436
b110110 5
b110110 >
b10 $
b10 N
b110110 8
b110111 "
1!
#440
0!
#444
b110111 5
b110111 >
b11 $
b11 N
b110111 8
b111000 "
1!
#448
0!
#452
b111000 5
b111000 >
b0 $
b0 N
b111000 8
b111001 "
1!
#456
0!
#460
b111001 5
b111001 >
b1 $
b1 N
b111001 8
b111010 "
1!
#464
0!
#468
b111010 5
b111010 >
b10 $
b10 N
b111010 8
b111011 "
1!
#472
0!
#476
b111011 5
b111011 >
b11 $
b11 N
b111011 8
b111100 "
1!
#480
0!
#484
b111100 5
b111100 >
b0 $
b0 N
b111100 8
b111101 "
1!
#488
0!
#492
b111101 5
b111101 >
b1 $
b1 N
b111101 8
b111110 "
1!
#496
0!
#500
b111110 5
b111110 >
b10 $
b10 N
b111110 8
b111111 "
1!
#504
0!
#508
b111111 5
b111111 >
b11 $
b11 N
b111111 8
b1000000 "
1!
#512
0!
#516
b1000000 5
b1000000 >
b0 $
b0 N
b1000000 8
b1000001 "
1!
#520
0!
#524
b1000001 5
b1000001 >
b1 $
b1 N
b1000001 8
b1000010 "
1!
#528
0!
#532
b1000010 5
b1000010 >
b10 $
b10 N
b1000010 8
b1000011 "
1!
#536
0!
#540
b1000011 5
b1000011 >
b11 $
b11 N
b1000011 8
b1000100 "
1!
#544
0!
#548
b1000100 5
b1000100 >
b0 $
b0 N
b1000100 8
b1000101 "
1!
#552
0!
#556
b1000101 5
b1000101 >
b1 $
b1 N
b1000101 8
b1000110 "
1!
#560
0!
#564
b1000110 5
b1000110 >
b10 $
b10 N
b1000110 8
b1000111 "
1!
#568
0!
#572
b1000111 5
b1000111 >
b11 $
b11 N
b1000111 8
b1001000 "
1!
#576
0!
#580
b1001000 5
b1001000 >
b0 $
b0 N
b1001000 8
b1001001 "
1!
#584
0!
#588
b1001001 5
b1001001 >
b1 $
b1 N
b1001001 8
b1001010 "
1!
#592
0!
#596
b1001010 5
b1001010 >
b10 $
b10 N
b1001010 8
b1001011 "
1!
#600
0!
#604
b1001011 5
b1001011 >
b11 $
b11 N
b1001011 8
b1001100 "
1!
#608
0!
#612
b1001100 5
b1001100 >
b0 $
b0 N
b1001100 8
b1001101 "
1!
#616
0!
#620
b1001101 5
b1001101 >
b1 $
b1 N
b1001101 8
b1001110 "
1!
#624
0!
#628
b1001110 5
b1001110 >
b10 $
b10 N
b1001110 8
b1001111 "
1!
#632
0!
#636
b1001111 5
b1001111 >
b11 $
b11 N
b1001111 8
b1010000 "
1!
#640
0!
#644
b1010000 5
b1010000 >
b0 $
b0 N
b1010000 8
b1010001 "
1!
#648
0!
#652
b1010001 5
b1010001 >
b1 $
b1 N
b1010001 8
b1010010 "
1!
#656
0!
#660
b1010010 5
b1010010 >
b10 $
b10 N
b1010010 8
b1010011 "
1!
#664
0!
#668
b1010011 5
b1010011 >
b11 $
b11 N
b1010011 8
b1010100 "
1!
#672
0!
#676
b1010100 5
b1010100 >
b0 $
b0 N
b1010100 8
b1010101 "
1!
#680
0!
#684
b1010101 5
b1010101 >
b1 $
b1 N
b1010101 8
b1010110 "
1!
#688
0!
#692
b1010110 5
b1010110 >
b10 $
b10 N
b1010110 8
b1010111 "
1!
#696
0!
#700
b1010111 5
b1010111 >
b11 $
b11 N
b1010111 8
b1011000 "
1!
#704
0!
#708
b1011000 5
b1011000 >
b0 $
b0 N
b1011000 8
b1011001 "
1!
#712
0!
#716
b1011001 5
b1011001 >
b1 $
b1 N
b1011001 8
b1011010 "
1!
#720
0!
#724
b1011010 5
b1011010 >
b10 $
b10 N
b1011010 8
b1011011 "
1!
#728
0!
#732
b1011011 5
b1011011 >
b11 $
b11 N
b1011011 8
b1011100 "
1!
#736
0!
#740
b1011100 5
b1011100 >
b0 $
b0 N
b1011100 8
b1011101 "
1!
#744
0!
#748
b1011101 5
b1011101 >
b1 $
b1 N
b1011101 8
b1011110 "
1!
#752
0!
#756
b1011110 5
b1011110 >
b10 $
b10 N
b1011110 8
b1011111 "
1!
#760
0!
#764
b1011111 5
b1011111 >
b11 $
b11 N
b1011111 8
b1100000 "
1!
#768
0!
#772
b1100000 5
b1100000 >
b0 $
b0 N
b1100000 8
b1100001 "
1!
#776
0!
#780
b1100001 5
b1100001 >
b1 $
b1 N
b1100001 8
b1100010 "
1!
#784
0!
#788
b1100010 5
b1100010 >
b10 $
b10 N
b1100010 8
b1100011 "
1!
#792
0!
#796
b1100011 5
b1100011 >
b11 $
b11 N
b1100011 8
b1100100 "
1!
#800
0!
#804
b1100100 5
b1100100 >
b0 $
b0 N
b1100100 8
b1100101 "
1!
#808
0!
#812
b1100101 5
b1100101 >
b1 $
b1 N
b1100101 8
b1100110 "
1!
#816
0!
#820
b1100110 5
b1100110 >
b10 $
b10 N
b1100110 8
b1100111 "
1!
#824
0!
#828
b1100111 5
b1100111 >
b11 $
b11 N
b1100111 8
b1101000 "
1!
#832
0!
#836
b1101000 5
b1101000 >
b0 $
b0 N
b1101000 8
b1101001 "
1!
#840
0!
#844
b1101001 5
b1101001 >
b1 $
b1 N
b1101001 8
b1101010 "
1!
#848
0!
#852
b1101010 5
b1101010 >
b10 $
b10 N
b1101010 8
b1101011 "
1!
#856
0!
#860
b1101011 5
b1101011 >
b11 $
b11 N
b1101011 8
b1101100 "
1!
#864
0!
#868
b1101100 5
b1101100 >
b0 $
b0 N
b1101100 8
b1101101 "
1!
#872
0!
#876
b1101101 5
b1101101 >
b1 $
b1 N
b1101101 8
b1101110 "
1!
#880
0!
#884
b1101110 5
b1101110 >
b10 $
b10 N
b1101110 8
b1101111 "
1!
#888
0!
#892
b1101111 5
b1101111 >
b11 $
b11 N
b1101111 8
b1110000 "
1!
#896
0!
#900
b1110000 5
b1110000 >
b0 $
b0 N
b1110000 8
b1110001 "
1!
#904
0!
#908
b1110001 5
b1110001 >
b1 $
b1 N
b1110001 8
b1110010 "
1!
#912
0!
#916
b1110010 5
b1110010 >
b10 $
b10 N
b1110010 8
b1110011 "
1!
#920
0!
#924
b1110011 5
b1110011 >
b11 $
b11 N
b1110011 8
b1110100 "
1!
#928
0!
#932
b1110100 5
b1110100 >
b0 $
b0 N
b1110100 8
b1110101 "
1!
#936
0!
#940
b1110101 5
b1110101 >
b1 $
b1 N
b1110101 8
b1110110 "
1!
#944
0!
#948
b1110110 5
b1110110 >
b10 $
b10 N
b1110110 8
b1110111 "
1!
#952
0!
#956
b1110111 5
b1110111 >
b11 $
b11 N
b1110111 8
b1111000 "
1!
#960
0!
#964
b1111000 5
b1111000 >
b0 $
b0 N
b1111000 8
b1111001 "
1!
#968
0!
#972
b1111001 5
b1111001 >
b1 $
b1 N
b1111001 8
b1111010 "
1!
#976
0!
#980
b1111010 5
b1111010 >
b10 $
b10 N
b1111010 8
b1111011 "
1!
#984
0!
#988
b1111011 5
b1111011 >
b11 $
b11 N
b1111011 8
b1111100 "
1!
#992
0!
#996
b1111100 5
b1111100 >
b0 $
b0 N
b1111100 8
b1111101 "
1!
#1000
0!
#1004
b1111101 5
b1111101 >
b1 $
b1 N
b1111101 8
b1111110 "
1!
#1008
0!
#1012
b1111110 5
b1111110 >
b10 $
b10 N
b1111110 8
b1111111 "
1!
#1016
0!
#1020
b1111111 5
b1111111 >
b11 $
b11 N
b1111111 8
b10000000 "
1!
#1024
0!
#1028
b10000000 5
b10000000 >
b0 $
b0 N
b10000000 8
b10000001 "
1!
#1032
0!
#1036
b10000001 5
b10000001 >
b1 $
b1 N
b10000001 8
b10000010 "
1!
#1040
0!
#1044
b10000010 5
b10000010 >
b10 $
b10 N
b10000010 8
b10000011 "
1!
#1048
0!
#1052
b10000011 5
b10000011 >
b11 $
b11 N
b10000011 8
b10000100 "
1!
#1056
0!
#1060
b10000100 5
b10000100 >
b0 $
b0 N
b10000100 8
b10000101 "
1!
#1064
0!
#1068
b10000101 5
b10000101 >
b1 $
b1 N
b10000101 8
b10000110 "
1!
#1072
0!
#1076
b10000110 5
b10000110 >
b10 $
b10 N
b10000110 8
b10000111 "
1!
#1080
0!
#1084
b10000111 5
b10000111 >
b11 $
b11 N
b10000111 8
b10001000 "
1!
#1088
0!
#1092
b10001000 5
b10001000 >
b0 $
b0 N
b10001000 8
b10001001 "
1!
#1096
0!
#1100
b10001001 5
b10001001 >
b1 $
b1 N
b10001001 8
b10001010 "
1!
#1104
0!
#1108
b10001010 5
b10001010 >
b10 $
b10 N
b10001010 8
b10001011 "
1!
#1112
0!
#1116
b10001011 5
b10001011 >
b11 $
b11 N
b10001011 8
b10001100 "
1!
#1120
0!
#1124
b10001100 5
b10001100 >
b0 $
b0 N
b10001100 8
b10001101 "
1!
#1128
0!
#1132
b10001101 5
b10001101 >
b1 $
b1 N
b10001101 8
b10001110 "
1!
#1136
0!
#1140
b10001110 5
b10001110 >
b10 $
b10 N
b10001110 8
b10001111 "
1!
#1144
0!
#1148
b10001111 5
b10001111 >
b11 $
b11 N
b10001111 8
b10010000 "
1!
#1152
0!
#1156
b10010000 5
b10010000 >
b0 $
b0 N
b10010000 8
b10010001 "
1!
#1160
0!
#1164
b10010001 5
b10010001 >
b1 $
b1 N
b10010001 8
b10010010 "
1!
#1168
0!
#1172
b10010010 5
b10010010 >
b10 $
b10 N
b10010010 8
b10010011 "
1!
#1176
0!
#1180
b10010011 5
b10010011 >
b11 $
b11 N
b10010011 8
b10010100 "
1!
#1184
0!
#1188
b10010100 5
b10010100 >
b0 $
b0 N
b10010100 8
b10010101 "
1!
#1192
0!
#1196
b10010101 5
b10010101 >
b1 $
b1 N
b10010101 8
b10010110 "
1!
#1200
0!
#1204
b10010110 5
b10010110 >
b10 $
b10 N
b10010110 8
b10010111 "
1!
#1208
0!
#1212
b10010111 5
b10010111 >
b11 $
b11 N
b10010111 8
b10011000 "
1!
#1216
0!
#1220
b10011000 5
b10011000 >
b0 $
b0 N
b10011000 8
b10011001 "
1!
#1224
0!
#1228
b10011001 5
b10011001 >
b1 $
b1 N
b10011001 8
b10011010 "
1!
#1232
0!
#1236
b10011010 5
b10011010 >
b10 $
b10 N
b10011010 8
b10011011 "
1!
#1240
0!
#1244
b10011011 5
b10011011 >
b11 $
b11 N
b10011011 8
b10011100 "
1!
#1248
0!
#1252
b10011100 5
b10011100 >
b0 $
b0 N
b10011100 8
b10011101 "
1!
#1256
0!
#1260
b10011101 5
b10011101 >
b1 $
b1 N
b10011101 8
b10011110 "
1!
#1264
0!
#1268
b10011110 5
b10011110 >
b10 $
b10 N
b10011110 8
b10011111 "
1!
#1272
0!
#1276
b10011111 5
b10011111 >
b11 $
b11 N
b10011111 8
b10100000 "
1!
#1280
0!
#1284
b10100000 5
b10100000 >
b0 $
b0 N
b10100000 8
b10100001 "
1!
#1288
0!
#1292
b10100001 5
b10100001 >
b1 $
b1 N
b10100001 8
b10100010 "
1!
#1296
0!
#1300
b10100010 5
b10100010 >
b10 $
b10 N
b10100010 8
b10100011 "
1!
#1304
0!
#1308
b10100011 5
b10100011 >
b11 $
b11 N
b10100011 8
b10100100 "
1!
#1312
0!
#1316
b10100100 5
b10100100 >
b0 $
b0 N
b10100100 8
b10100101 "
1!
#1320
0!
#1324
b10100101 5
b10100101 >
b1 $
b1 N
b10100101 8
b10100110 "
1!
#1328
0!
#1332
b10100110 5
b10100110 >
b10 $
b10 N
b10100110 8
b10100111 "
1!
#1336
0!
#1340
b10100111 5
b10100111 >
b11 $
b11 N
b10100111 8
b10101000 "
1!
#1344
0!
#1348
b10101000 5
b10101000 >
b0 $
b0 N
b10101000 8
b10101001 "
1!
#1352
0!
#1356
b10101001 5
b10101001 >
b1 $
b1 N
b10101001 8
b10101010 "
1!
#1360
0!
#1364
b10101010 5
b10101010 >
b10 $
b10 N
b10101010 8
b10101011 "
1!
#1368
0!
#1372
b10101011 5
b10101011 >
b11 $
b11 N
b10101011 8
b10101100 "
1!
#1376
0!
#1380
b10101100 5
b10101100 >
b0 $
b0 N
b10101100 8
b10101101 "
1!
#1384
0!
#1388
b10101101 5
b10101101 >
b1 $
b1 N
b10101101 8
b10101110 "
1!
#1392
0!
#1396
b10101110 5
b10101110 >
b10 $
b10 N
b10101110 8
b10101111 "
1!
#1400
0!
#1404
b10101111 5
b10101111 >
b11 $
b11 N
b10101111 8
b10110000 "
1!
#1408
0!
#1412
b10110000 5
b10110000 >
b0 $
b0 N
b10110000 8
b10110001 "
1!
#1416
0!
#1420
b10110001 5
b10110001 >
b1 $
b1 N
b10110001 8
b10110010 "
1!
#1424
0!
#1428
b10110010 5
b10110010 >
b10 $
b10 N
b10110010 8
b10110011 "
1!
#1432
0!
#1436
b10110011 5
b10110011 >
b11 $
b11 N
b10110011 8
b10110100 "
1!
#1440
0!
#1444
b10110100 5
b10110100 >
b0 $
b0 N
b10110100 8
b10110101 "
1!
#1448
0!
#1452
b10110101 5
b10110101 >
b1 $
b1 N
b10110101 8
b10110110 "
1!
#1456
0!
#1460
b10110110 5
b10110110 >
b10 $
b10 N
b10110110 8
b10110111 "
1!
#1464
0!
#1468
b10110111 5
b10110111 >
b11 $
b11 N
b10110111 8
b10111000 "
1!
#1472
0!
#1476
b10111000 5
b10111000 >
b0 $
b0 N
b10111000 8
b10111001 "
1!
#1480
0!
#1484
b10111001 5
b10111001 >
b1 $
b1 N
b10111001 8
b10111010 "
1!
#1488
0!
#1492
b10111010 5
b10111010 >
b10 $
b10 N
b10111010 8
b10111011 "
1!
#1496
0!
#1500
b10111011 5
b10111011 >
b11 $
b11 N
b10111011 8
b10111100 "
1!
#1504
0!
#1508
b10111100 5
b10111100 >
b0 $
b0 N
b10111100 8
b10111101 "
1!
#1512
0!
#1516
b10111101 5
b10111101 >
b1 $
b1 N
b10111101 8
b10111110 "
1!
#1520
0!
#1524
b10111110 5
b10111110 >
b10 $
b10 N
b10111110 8
b10111111 "
1!
#1528
0!
#1532
b10111111 5
b10111111 >
b11 $
b11 N
b10111111 8
b11000000 "
1!
#1536
0!
#1540
b11000000 5
b11000000 >
b0 $
b0 N
b11000000 8
b11000001 "
1!
#1544
0!
#1548
b11000001 5
b11000001 >
b1 $
b1 N
b11000001 8
b11000010 "
1!
#1552
0!
#1556
b11000010 5
b11000010 >
b10 $
b10 N
b11000010 8
b11000011 "
1!
#1560
0!
#1564
b11000011 5
b11000011 >
b11 $
b11 N
b11000011 8
b11000100 "
1!
#1568
0!
#1572
b11000100 5
b11000100 >
b0 $
b0 N
b11000100 8
b11000101 "
1!
#1576
0!
#1580
b11000101 5
b11000101 >
b1 $
b1 N
b11000101 8
b11000110 "
1!
#1584
0!
#1588
b11000110 5
b11000110 >
b10 $
b10 N
b11000110 8
b11000111 "
1!
#1592
0!
#1596
b11000111 5
b11000111 >
b11 $
b11 N
b11000111 8
b11001000 "
1!
#1600
0!
#1604
b11001000 5
b11001000 >
b0 $
b0 N
b11001000 8
b11001001 "
1!
#1608
0!
#1612
b11001001 5
b11001001 >
b1 $
b1 N
b11001001 8
b11001010 "
1!
#1616
0!
#1620
b11001010 5
b11001010 >
b10 $
b10 N
b11001010 8
b11001011 "
1!
#1624
0!
#1628
b11001011 5
b11001011 >
b11 $
b11 N
b11001011 8
b11001100 "
1!
#1632
0!
#1636
b11001100 5
b11001100 >
b0 $
b0 N
b11001100 8
b11001101 "
1!
#1640
0!
#1644
b11001101 5
b11001101 >
b1 $
b1 N
b11001101 8
b11001110 "
1!
#1648
0!
#1652
b11001110 5
b11001110 >
b10 $
b10 N
b11001110 8
b11001111 "
1!
#1656
0!
#1660
b11001111 5
b11001111 >
b11 $
b11 N
b11001111 8
b11010000 "
1!
#1664
0!
#1668
b11010000 5
b11010000 >
b0 $
b0 N
b11010000 8
b11010001 "
1!
#1672
0!
#1676
b11010001 5
b11010001 >
b1 $
b1 N
b11010001 8
b11010010 "
1!
#1680
0!
#1684
b11010010 5
b11010010 >
b10 $
b10 N
b11010010 8
b11010011 "
1!
#1688
0!
#1692
b11010011 5
b11010011 >
b11 $
b11 N
b11010011 8
b11010100 "
1!
#1696
0!
#1700
b11010100 5
b11010100 >
b0 $
b0 N
b11010100 8
b11010101 "
1!
#1704
0!
#1708
b11010101 5
b11010101 >
b1 $
b1 N
b11010101 8
b11010110 "
1!
#1712
0!
#1716
b11010110 5
b11010110 >
b10 $
b10 N
b11010110 8
b11010111 "
1!
#1720
0!
#1724
b11010111 5
b11010111 >
b11 $
b11 N
b11010111 8
b11011000 "
1!
#1728
0!
#1732
b11011000 5
b11011000 >
b0 $
b0 N
b11011000 8
b11011001 "
1!
#1736
0!
#1740
b11011001 5
b11011001 >
b1 $
b1 N
b11011001 8
b11011010 "
1!
#1744
0!
#1748
b11011010 5
b11011010 >
b10 $
b10 N
b11011010 8
b11011011 "
1!
#1752
0!
#1756
b11011011 5
b11011011 >
b11 $
b11 N
b11011011 8
b11011100 "
1!
#1760
0!
#1764
b11011100 5
b11011100 >
b0 $
b0 N
b11011100 8
b11011101 "
1!
#1768
0!
#1772
b11011101 5
b11011101 >
b1 $
b1 N
b11011101 8
b11011110 "
1!
#1776
0!
#1780
b11011110 5
b11011110 >
b10 $
b10 N
b11011110 8
b11011111 "
1!
#1784
0!
#1788
b11011111 5
b11011111 >
b11 $
b11 N
b11011111 8
b11100000 "
1!
#1792
0!
#1796
b11100000 5
b11100000 >
b0 $
b0 N
b11100000 8
b11100001 "
1!
#1800
0!
#1804
b11100001 5
b11100001 >
b1 $
b1 N
b11100001 8
b11100010 "
1!
#1808
0!
#1812
b11100010 5
b11100010 >
b10 $
b10 N
b11100010 8
b11100011 "
1!
#1816
0!
#1820
b11100011 5
b11100011 >
b11 $
b11 N
b11100011 8
b11100100 "
1!
#1824
0!
#1828
b11100100 5
b11100100 >
b0 $
b0 N
b11100100 8
b11100101 "
1!
#1832
0!
#1836
b11100101 5
b11100101 >
b1 $
b1 N
b11100101 8
b11100110 "
1!
#1840
0!
#1844
b11100110 5
b11100110 >
b10 $
b10 N
b11100110 8
b11100111 "
1!
#1848
0!
#1852
b11100111 5
b11100111 >
b11 $
b11 N
b11100111 8
b11101000 "
1!
#1856
0!
#1860
b11101000 5
b11101000 >
b0 $
b0 N
b11101000 8
b11101001 "
1!
#1864
0!
#1868
b11101001 5
b11101001 >
b1 $
b1 N
b11101001 8
b11101010 "
1!
#1872
0!
#1876
b11101010 5
b11101010 >
b10 $
b10 N
b11101010 8
b11101011 "
1!
#1880
0!
#1884
b11101011 5
b11101011 >
b11 $
b11 N
b11101011 8
b11101100 "
1!
#1888
0!
#1892
b11101100 5
b11101100 >
b0 $
b0 N
b11101100 8
b11101101 "
1!
#1896
0!
#1900
b11101101 5
b11101101 >
b1 $
b1 N
b11101101 8
b11101110 "
1!
#1904
0!
#1908
b11101110 5
b11101110 >
b10 $
b10 N
b11101110 8
b11101111 "
1!
#1912
0!
#1916
b11101111 5
b11101111 >
b11 $
b11 N
b11101111 8
b11110000 "
1!
#1920
0!
#1924
b11110000 5
b11110000 >
b0 $
b0 N
b11110000 8
b11110001 "
1!
#1928
0!
#1932
b11110001 5
b11110001 >
b1 $
b1 N
b11110001 8
b11110010 "
1!
#1936
0!
#1940
b11110010 5
b11110010 >
b10 $
b10 N
b11110010 8
b11110011 "
1!
#1944
0!
#1948
b11110011 5
b11110011 >
b11 $
b11 N
b11110011 8
b11110100 "
1!
#1952
0!
#1956
b11110100 5
b11110100 >
b0 $
b0 N
b11110100 8
b11110101 "
1!
#1960
0!
#1964
b11110101 5
b11110101 >
b1 $
b1 N
b11110101 8
b11110110 "
1!
#1968
0!
#1972
b11110110 5
b11110110 >
b10 $
b10 N
b11110110 8
b11110111 "
1!
#1976
0!
#1980
b11110111 5
b11110111 >
b11 $
b11 N
b11110111 8
b11111000 "
1!
#1984
0!
#1988
b11111000 5
b11111000 >
b0 $
b0 N
b11111000 8
b11111001 "
1!
#1992
0!
#1996
b11111001 5
b11111001 >
b1 $
b1 N
b11111001 8
b11111010 "
1!
#2000
0!
#2004
b11111010 5
b11111010 >
b10 $
b10 N
b11111010 8
b11111011 "
1!
#2008
0!
#2012
b11111011 5
b11111011 >
b11 $
b11 N
b11111011 8
b11111100 "
1!
#2016
0!
#2020
b11111100 5
b11111100 >
b0 $
b0 N
b11111100 8
b11111101 "
1!
#2024
0!
#2028
b11111101 5
b11111101 >
b1 $
b1 N
b11111101 8
b11111110 "
1!
#2032
0!
#2036
b11111110 5
b11111110 >
b10 $
b10 N
b11111110 8
b11111111 "
1!
#2040
0!
#2044
b11111111 5
b11111111 >
b11 $
b11 N
b11111111 8
b100000000 "
1!
#2048
0!
#2052
0?
b0 5
b0 >
b0 $
b0 N
b0 )
b0 '
19
b100000000 8
b100000001 "
1!
#2056
0!
#2060
b0 8
b100000010 "
1!
#2064
0!
#2068
b1 5
b1 >
b1 $
b1 N
b1 8
b100000011 "
1!
#2072
0!
#2076
b10 5
b10 >
b10 $
b10 N
b10 8
b100000100 "
1!
#2080
0!
#2084
b11 5
b11 >
b11 $
b11 N
b11 8
b100000101 "
1!
#2088
0!
#2092
b100 5
b100 >
b0 $
b0 N
b100 8
b100000110 "
1!
#2096
0!
#2100
b101 5
b101 >
b1 $
b1 N
b101 8
b100000111 "
1!
#2104
0!
