build/vcd/reg_bank.vcd
$date
	Mon Oct 28 15:56:18 2024
$end
$version
	Icarus Verilog
$end
$timescale
	1fs
$end
$scope module reg_bank_TB $end
$var wire 8 ! data_b [7:0] $end
$var wire 8 " data_a [7:0] $end
$var reg 2 # address_a [1:0] $end
$var reg 2 $ address_b [1:0] $end
$var reg 1 % clk $end
$var reg 8 & expected_a [7:0] $end
$var reg 8 ' expected_b [7:0] $end
$var reg 2 ( write_address [1:0] $end
$var reg 8 ) write_data [7:0] $end
$var reg 1 * write_enable $end
$scope module DUT $end
$var wire 2 + address_a [0:1] $end
$var wire 2 , address_b [0:1] $end
$var wire 1 % clk $end
$var wire 2 - write_address [0:1] $end
$var wire 8 . write_data [7:0] $end
$var wire 1 * write_enable $end
$var reg 8 / data_a [7:0] $end
$var reg 8 0 data_b [7:0] $end
$upscope $end
$upscope $end
$enddefinitions $end
#0
$dumpvars
bx 0
bx /
b0 .
b0 -
b11 ,
b0 +
1*
b0 )
b0 (
bx '
b0 &
0%
b11 $
b0 #
bx "
bx !
$end
#4
b0 "
b0 /
1%
#8
0*
b1 (
b1 -
0%
#12
1%
#16
1*
0%
#20
1%
#24
b0 !
b0 0
0*
b0 '
b0 $
b0 ,
b1 #
b1 +
b10 (
b10 -
0%
#28
1%
#32
1*
0%
#36
1%
#40
0*
b1 $
b1 ,
b10 #
b10 +
b11 (
b11 -
0%
#44
1%
#48
1*
0%
#52
1%
#56
0*
b1 )
b1 .
b10 $
b10 ,
b11 #
b11 +
b0 (
b0 -
0%
#60
1%
#64
1*
b1 &
0%
#68
1%
#72
b1 "
b1 /
0*
b11 $
b11 ,
b0 #
b0 +
b1 (
b1 -
0%
#76
1%
#80
1*
0%
#84
1%
#88
b1 !
b1 0
0*
b1 '
b0 $
b0 ,
b1 #
b1 +
b10 (
b10 -
0%
#92
1%
#96
1*
0%
#100
1%
#104
0*
b1 $
b1 ,
b10 #
b10 +
b11 (
b11 -
0%
#108
1%
#112
1*
0%
#116
1%
#120
0*
b10 )
b10 .
b10 $
b10 ,
b11 #
b11 +
b0 (
b0 -
0%
#124
1%
#128
1*
b10 &
0%
#132
1%
#136
b10 "
b10 /
0*
b11 $
b11 ,
b0 #
b0 +
b1 (
b1 -
0%
#140
1%
#144
1*
0%
#148
1%
#152
b10 !
b10 0
0*
b10 '
b0 $
b0 ,
b1 #
b1 +
b10 (
b10 -
0%
#156
1%
#160
1*
0%
#164
1%
#168
0*
b1 $
b1 ,
b10 #
b10 +
b11 (
b11 -
0%
#172
1%
#176
1*
0%
#180
1%
#184
0*
b11 )
b11 .
b10 $
b10 ,
b11 #
b11 +
b0 (
b0 -
0%
#188
1%
#192
1*
b11 &
0%
#196
1%
#200
b11 "
b11 /
0*
b11 $
b11 ,
b0 #
b0 +
b1 (
b1 -
0%
#204
1%
#208
1*
0%
#212
1%
#216
b11 !
b11 0
0*
b11 '
b0 $
b0 ,
b1 #
b1 +
b10 (
b10 -
0%
#220
1%
#224
1*
0%
#228
1%
#232
0*
b1 $
b1 ,
b10 #
b10 +
b11 (
b11 -
0%
#236
1%
#240
1*
0%
#244
1%
#248
0*
b100 )
b100 .
b10 $
b10 ,
b11 #
b11 +
b0 (
b0 -
0%
#252
1%
#256
1*
b100 &
0%
#260
1%
#264
b100 "
b100 /
0*
b11 $
b11 ,
b0 #
b0 +
b1 (
b1 -
0%
#268
1%
#272
1*
0%
#276
1%
#280
b100 !
b100 0
0*
b100 '
b0 $
b0 ,
b1 #
b1 +
b10 (
b10 -
0%
#284
1%
#288
1*
0%
#292
1%
#296
0*
b1 $
b1 ,
b10 #
b10 +
b11 (
b11 -
0%
#300
1%
#304
1*
0%
#308
1%
#312
0*
b101 )
b101 .
b10 $
b10 ,
b11 #
b11 +
b0 (
b0 -
0%
#316
1%
#320
1*
b101 &
0%
#324
1%
#328
b101 "
b101 /
0*
b11 $
b11 ,
b0 #
b0 +
b1 (
b1 -
0%
#332
1%
#336
1*
0%
#340
1%
#344
b101 !
b101 0
0*
b101 '
b0 $
b0 ,
b1 #
b1 +
b10 (
b10 -
0%
#348
1%
#352
1*
0%
#356
1%
#360
0*
b1 $
b1 ,
b10 #
b10 +
b11 (
b11 -
0%
#364
1%
#368
1*
0%
#372
1%
#376
0*
b110 )
b110 .
b10 $
b10 ,
b11 #
b11 +
b0 (
b0 -
0%
#380
1%
#384
1*
b110 &
0%
#388
1%
#392
b110 "
b110 /
0*
b11 $
b11 ,
b0 #
b0 +
b1 (
b1 -
0%
#396
1%
#400
1*
0%
#404
1%
#408
b110 !
b110 0
0*
b110 '
b0 $
b0 ,
b1 #
b1 +
b10 (
b10 -
0%
#412
1%
#416
1*
0%
#420
1%
#424
0*
b1 $
b1 ,
b10 #
b10 +
b11 (
b11 -
0%
#428
1%
#432
1*
0%
#436
1%
#440
0*
b111 )
b111 .
b10 $
b10 ,
b11 #
b11 +
b0 (
b0 -
0%
#444
1%
#448
1*
b111 &
0%
#452
1%
#456
b111 "
b111 /
0*
b11 $
b11 ,
b0 #
b0 +
b1 (
b1 -
0%
#460
1%
#464
1*
0%
#468
1%
#472
b111 !
b111 0
0*
b111 '
b0 $
b0 ,
b1 #
b1 +
b10 (
b10 -
0%
#476
1%
#480
1*
0%
#484
1%
#488
0*
b1 $
b1 ,
b10 #
b10 +
b11 (
b11 -
0%
#492
1%
#496
1*
0%
#500
1%
#504
0*
b1000 )
b1000 .
b10 $
b10 ,
b11 #
b11 +
b0 (
b0 -
0%
#508
1%
#512
1*
b1000 &
0%
#516
1%
#520
b1000 "
b1000 /
0*
b11 $
b11 ,
b0 #
b0 +
b1 (
b1 -
0%
#524
1%
#528
1*
0%
#532
1%
#536
b1000 !
b1000 0
0*
b1000 '
b0 $
b0 ,
b1 #
b1 +
b10 (
b10 -
0%
#540
1%
#544
1*
0%
#548
1%
#552
0*
b1 $
b1 ,
b10 #
b10 +
b11 (
b11 -
0%
#556
1%
#560
1*
0%
#564
1%
#568
0*
b1001 )
b1001 .
b10 $
b10 ,
b11 #
b11 +
b0 (
b0 -
0%
#572
1%
#576
1*
b1001 &
0%
#580
1%
#584
b1001 "
b1001 /
0*
b11 $
b11 ,
b0 #
b0 +
b1 (
b1 -
0%
#588
1%
#592
1*
0%
#596
1%
#600
b1001 !
b1001 0
0*
b1001 '
b0 $
b0 ,
b1 #
b1 +
b10 (
b10 -
0%
#604
1%
#608
1*
0%
#612
1%
#616
0*
b1 $
b1 ,
b10 #
b10 +
b11 (
b11 -
0%
#620
1%
#624
1*
0%
#628
1%
#632
0*
b1010 )
b1010 .
b10 $
b10 ,
b11 #
b11 +
b0 (
b0 -
0%
#636
1%
#640
1*
b1010 &
0%
#644
1%
#648
b1010 "
b1010 /
0*
b11 $
b11 ,
b0 #
b0 +
b1 (
b1 -
0%
#652
1%
#656
1*
0%
#660
1%
#664
b1010 !
b1010 0
0*
b1010 '
b0 $
b0 ,
b1 #
b1 +
b10 (
b10 -
0%
#668
1%
#672
1*
0%
#676
1%
#680
0*
b1 $
b1 ,
b10 #
b10 +
b11 (
b11 -
0%
#684
1%
#688
1*
0%
#692
1%
#696
0*
b1011 )
b1011 .
b10 $
b10 ,
b11 #
b11 +
b0 (
b0 -
0%
#700
1%
#704
1*
b1011 &
0%
#708
1%
#712
b1011 "
b1011 /
0*
b11 $
b11 ,
b0 #
b0 +
b1 (
b1 -
0%
#716
1%
#720
1*
0%
#724
1%
#728
b1011 !
b1011 0
0*
b1011 '
b0 $
b0 ,
b1 #
b1 +
b10 (
b10 -
0%
#732
1%
#736
1*
0%
#740
1%
#744
0*
b1 $
b1 ,
b10 #
b10 +
b11 (
b11 -
0%
#748
1%
#752
1*
0%
#756
1%
#760
0*
b1100 )
b1100 .
b10 $
b10 ,
b11 #
b11 +
b0 (
b0 -
0%
#764
1%
#768
1*
b1100 &
0%
#772
1%
#776
b1100 "
b1100 /
0*
b11 $
b11 ,
b0 #
b0 +
b1 (
b1 -
0%
#780
1%
#784
1*
0%
#788
1%
#792
b1100 !
b1100 0
0*
b1100 '
b0 $
b0 ,
b1 #
b1 +
b10 (
b10 -
0%
#796
1%
#800
1*
0%
#804
1%
#808
0*
b1 $
b1 ,
b10 #
b10 +
b11 (
b11 -
0%
#812
1%
#816
1*
0%
#820
1%
#824
0*
b1101 )
b1101 .
b10 $
b10 ,
b11 #
b11 +
b0 (
b0 -
0%
#828
1%
#832
1*
b1101 &
0%
#836
1%
#840
b1101 "
b1101 /
0*
b11 $
b11 ,
b0 #
b0 +
b1 (
b1 -
0%
#844
1%
#848
1*
0%
#852
1%
#856
b1101 !
b1101 0
0*
b1101 '
b0 $
b0 ,
b1 #
b1 +
b10 (
b10 -
0%
#860
1%
#864
1*
0%
#868
1%
#872
0*
b1 $
b1 ,
b10 #
b10 +
b11 (
b11 -
0%
#876
1%
#880
1*
0%
#884
1%
#888
0*
b1110 )
b1110 .
b10 $
b10 ,
b11 #
b11 +
b0 (
b0 -
0%
#892
1%
#896
1*
b1110 &
0%
#900
1%
#904
b1110 "
b1110 /
0*
b11 $
b11 ,
b0 #
b0 +
b1 (
b1 -
0%
#908
1%
#912
1*
0%
#916
1%
#920
b1110 !
b1110 0
0*
b1110 '
b0 $
b0 ,
b1 #
b1 +
b10 (
b10 -
0%
#924
1%
#928
1*
0%
#932
1%
#936
0*
b1 $
b1 ,
b10 #
b10 +
b11 (
b11 -
0%
#940
1%
#944
1*
0%
#948
1%
#952
0*
b1111 )
b1111 .
b10 $
b10 ,
b11 #
b11 +
b0 (
b0 -
0%
#956
1%
#960
1*
b1111 &
0%
#964
1%
#968
b1111 "
b1111 /
0*
b11 $
b11 ,
b0 #
b0 +
b1 (
b1 -
0%
#972
1%
#976
1*
0%
#980
1%
#984
b1111 !
b1111 0
0*
b1111 '
b0 $
b0 ,
b1 #
b1 +
b10 (
b10 -
0%
#988
1%
#992
1*
0%
#996
1%
#1000
0*
b1 $
b1 ,
b10 #
b10 +
b11 (
b11 -
0%
#1004
1%
#1008
1*
0%
#1012
1%
#1016
0*
b10000 )
b10000 .
b10 $
b10 ,
b11 #
b11 +
b0 (
b0 -
0%
#1020
1%
#1024
1*
b10000 &
0%
#1028
1%
#1032
b10000 "
b10000 /
0*
b11 $
b11 ,
b0 #
b0 +
b1 (
b1 -
0%
#1036
1%
#1040
1*
0%
#1044
1%
#1048
b10000 !
b10000 0
0*
b10000 '
b0 $
b0 ,
b1 #
b1 +
b10 (
b10 -
0%
#1052
1%
#1056
1*
0%
#1060
1%
#1064
0*
b1 $
b1 ,
b10 #
b10 +
b11 (
b11 -
0%
#1068
1%
#1072
1*
0%
#1076
1%
#1080
0*
b10001 )
b10001 .
b10 $
b10 ,
b11 #
b11 +
b0 (
b0 -
0%
#1084
1%
#1088
1*
b10001 &
0%
#1092
1%
#1096
b10001 "
b10001 /
0*
b11 $
b11 ,
b0 #
b0 +
b1 (
b1 -
0%
#1100
1%
#1104
1*
0%
#1108
1%
#1112
b10001 !
b10001 0
0*
b10001 '
b0 $
b0 ,
b1 #
b1 +
b10 (
b10 -
0%
#1116
1%
#1120
1*
0%
#1124
1%
#1128
0*
b1 $
b1 ,
b10 #
b10 +
b11 (
b11 -
0%
#1132
1%
#1136
1*
0%
#1140
1%
#1144
0*
b10010 )
b10010 .
b10 $
b10 ,
b11 #
b11 +
b0 (
b0 -
0%
#1148
1%
#1152
1*
b10010 &
0%
#1156
1%
#1160
b10010 "
b10010 /
0*
b11 $
b11 ,
b0 #
b0 +
b1 (
b1 -
0%
#1164
1%
#1168
1*
0%
#1172
1%
#1176
b10010 !
b10010 0
0*
b10010 '
b0 $
b0 ,
b1 #
b1 +
b10 (
b10 -
0%
#1180
1%
#1184
1*
0%
#1188
1%
#1192
0*
b1 $
b1 ,
b10 #
b10 +
b11 (
b11 -
0%
#1196
1%
#1200
1*
0%
#1204
1%
#1208
0*
b10011 )
b10011 .
b10 $
b10 ,
b11 #
b11 +
b0 (
b0 -
0%
#1212
1%
#1216
1*
b10011 &
0%
#1220
1%
#1224
b10011 "
b10011 /
0*
b11 $
b11 ,
b0 #
b0 +
b1 (
b1 -
0%
#1228
1%
#1232
1*
0%
#1236
1%
#1240
b10011 !
b10011 0
0*
b10011 '
b0 $
b0 ,
b1 #
b1 +
b10 (
b10 -
0%
#1244
1%
#1248
1*
0%
#1252
1%
#1256
0*
b1 $
b1 ,
b10 #
b10 +
b11 (
b11 -
0%
#1260
1%
#1264
1*
0%
#1268
1%
#1272
0*
b10100 )
b10100 .
b10 $
b10 ,
b11 #
b11 +
b0 (
b0 -
0%
#1276
1%
#1280
1*
b10100 &
0%
#1284
1%
#1288
b10100 "
b10100 /
0*
b11 $
b11 ,
b0 #
b0 +
b1 (
b1 -
0%
#1292
1%
#1296
1*
0%
#1300
1%
#1304
b10100 !
b10100 0
0*
b10100 '
b0 $
b0 ,
b1 #
b1 +
b10 (
b10 -
0%
#1308
1%
#1312
1*
0%
#1316
1%
#1320
0*
b1 $
b1 ,
b10 #
b10 +
b11 (
b11 -
0%
#1324
1%
#1328
1*
0%
#1332
1%
#1336
0*
b10101 )
b10101 .
b10 $
b10 ,
b11 #
b11 +
b0 (
b0 -
0%
#1340
1%
#1344
1*
b10101 &
0%
#1348
1%
#1352
b10101 "
b10101 /
0*
b11 $
b11 ,
b0 #
b0 +
b1 (
b1 -
0%
#1356
1%
#1360
1*
0%
#1364
1%
#1368
b10101 !
b10101 0
0*
b10101 '
b0 $
b0 ,
b1 #
b1 +
b10 (
b10 -
0%
#1372
1%
#1376
1*
0%
#1380
1%
#1384
0*
b1 $
b1 ,
b10 #
b10 +
b11 (
b11 -
0%
#1388
1%
#1392
1*
0%
#1396
1%
#1400
0*
b10110 )
b10110 .
b10 $
b10 ,
b11 #
b11 +
b0 (
b0 -
0%
#1404
1%
#1408
1*
b10110 &
0%
#1412
1%
#1416
b10110 "
b10110 /
0*
b11 $
b11 ,
b0 #
b0 +
b1 (
b1 -
0%
#1420
1%
#1424
1*
0%
#1428
1%
#1432
b10110 !
b10110 0
0*
b10110 '
b0 $
b0 ,
b1 #
b1 +
b10 (
b10 -
0%
#1436
1%
#1440
1*
0%
#1444
1%
#1448
0*
b1 $
b1 ,
b10 #
b10 +
b11 (
b11 -
0%
#1452
1%
#1456
1*
0%
#1460
1%
#1464
0*
b10111 )
b10111 .
b10 $
b10 ,
b11 #
b11 +
b0 (
b0 -
0%
#1468
1%
#1472
1*
b10111 &
0%
#1476
1%
#1480
b10111 "
b10111 /
0*
b11 $
b11 ,
b0 #
b0 +
b1 (
b1 -
0%
#1484
1%
#1488
1*
0%
#1492
1%
#1496
b10111 !
b10111 0
0*
b10111 '
b0 $
b0 ,
b1 #
b1 +
b10 (
b10 -
0%
#1500
1%
#1504
1*
0%
#1508
1%
#1512
0*
b1 $
b1 ,
b10 #
b10 +
b11 (
b11 -
0%
#1516
1%
#1520
1*
0%
#1524
1%
#1528
0*
b11000 )
b11000 .
b10 $
b10 ,
b11 #
b11 +
b0 (
b0 -
0%
#1532
1%
#1536
1*
b11000 &
0%
#1540
1%
#1544
b11000 "
b11000 /
0*
b11 $
b11 ,
b0 #
b0 +
b1 (
b1 -
0%
#1548
1%
#1552
1*
0%
#1556
1%
#1560
b11000 !
b11000 0
0*
b11000 '
b0 $
b0 ,
b1 #
b1 +
b10 (
b10 -
0%
#1564
1%
#1568
1*
0%
#1572
1%
#1576
0*
b1 $
b1 ,
b10 #
b10 +
b11 (
b11 -
0%
#1580
1%
#1584
1*
0%
#1588
1%
#1592
0*
b11001 )
b11001 .
b10 $
b10 ,
b11 #
b11 +
b0 (
b0 -
0%
#1596
1%
#1600
1*
b11001 &
0%
#1604
1%
#1608
b11001 "
b11001 /
0*
b11 $
b11 ,
b0 #
b0 +
b1 (
b1 -
0%
#1612
1%
#1616
1*
0%
#1620
1%
#1624
b11001 !
b11001 0
0*
b11001 '
b0 $
b0 ,
b1 #
b1 +
b10 (
b10 -
0%
#1628
1%
#1632
1*
0%
#1636
1%
#1640
0*
b1 $
b1 ,
b10 #
b10 +
b11 (
b11 -
0%
#1644
1%
#1648
1*
0%
#1652
1%
#1656
0*
b11010 )
b11010 .
b10 $
b10 ,
b11 #
b11 +
b0 (
b0 -
0%
#1660
1%
#1664
1*
b11010 &
0%
#1668
1%
#1672
b11010 "
b11010 /
0*
b11 $
b11 ,
b0 #
b0 +
b1 (
b1 -
0%
#1676
1%
#1680
1*
0%
#1684
1%
#1688
b11010 !
b11010 0
0*
b11010 '
b0 $
b0 ,
b1 #
b1 +
b10 (
b10 -
0%
#1692
1%
#1696
1*
0%
#1700
1%
#1704
0*
b1 $
b1 ,
b10 #
b10 +
b11 (
b11 -
0%
#1708
1%
#1712
1*
0%
#1716
1%
#1720
0*
b11011 )
b11011 .
b10 $
b10 ,
b11 #
b11 +
b0 (
b0 -
0%
#1724
1%
#1728
1*
b11011 &
0%
#1732
1%
#1736
b11011 "
b11011 /
0*
b11 $
b11 ,
b0 #
b0 +
b1 (
b1 -
0%
#1740
1%
#1744
1*
0%
#1748
1%
#1752
b11011 !
b11011 0
0*
b11011 '
b0 $
b0 ,
b1 #
b1 +
b10 (
b10 -
0%
#1756
1%
#1760
1*
0%
#1764
1%
#1768
0*
b1 $
b1 ,
b10 #
b10 +
b11 (
b11 -
0%
#1772
1%
#1776
1*
0%
#1780
1%
#1784
0*
b11100 )
b11100 .
b10 $
b10 ,
b11 #
b11 +
b0 (
b0 -
0%
#1788
1%
#1792
1*
b11100 &
0%
#1796
1%
#1800
b11100 "
b11100 /
0*
b11 $
b11 ,
b0 #
b0 +
b1 (
b1 -
0%
#1804
1%
#1808
1*
0%
#1812
1%
#1816
b11100 !
b11100 0
0*
b11100 '
b0 $
b0 ,
b1 #
b1 +
b10 (
b10 -
0%
#1820
1%
#1824
1*
0%
#1828
1%
#1832
0*
b1 $
b1 ,
b10 #
b10 +
b11 (
b11 -
0%
#1836
1%
#1840
1*
0%
#1844
1%
#1848
0*
b11101 )
b11101 .
b10 $
b10 ,
b11 #
b11 +
b0 (
b0 -
0%
#1852
1%
#1856
1*
b11101 &
0%
#1860
1%
#1864
b11101 "
b11101 /
0*
b11 $
b11 ,
b0 #
b0 +
b1 (
b1 -
0%
#1868
1%
#1872
1*
0%
#1876
1%
#1880
b11101 !
b11101 0
0*
b11101 '
b0 $
b0 ,
b1 #
b1 +
b10 (
b10 -
0%
#1884
1%
#1888
1*
0%
#1892
1%
#1896
0*
b1 $
b1 ,
b10 #
b10 +
b11 (
b11 -
0%
#1900
1%
#1904
1*
0%
#1908
1%
#1912
0*
b11110 )
b11110 .
b10 $
b10 ,
b11 #
b11 +
b0 (
b0 -
0%
#1916
1%
#1920
1*
b11110 &
0%
#1924
1%
#1928
b11110 "
b11110 /
0*
b11 $
b11 ,
b0 #
b0 +
b1 (
b1 -
0%
#1932
1%
#1936
1*
0%
#1940
1%
#1944
b11110 !
b11110 0
0*
b11110 '
b0 $
b0 ,
b1 #
b1 +
b10 (
b10 -
0%
#1948
1%
#1952
1*
0%
#1956
1%
#1960
0*
b1 $
b1 ,
b10 #
b10 +
b11 (
b11 -
0%
#1964
1%
#1968
1*
0%
#1972
1%
#1976
0*
b11111 )
b11111 .
b10 $
b10 ,
b11 #
b11 +
b0 (
b0 -
0%
#1980
1%
#1984
1*
b11111 &
0%
#1988
1%
#1992
b11111 "
b11111 /
0*
b11 $
b11 ,
b0 #
b0 +
b1 (
b1 -
0%
#1996
1%
#2000
1*
0%
#2004
1%
#2008
b11111 !
b11111 0
0*
b11111 '
b0 $
b0 ,
b1 #
b1 +
b10 (
b10 -
0%
#2012
1%
#2016
1*
0%
#2020
1%
#2024
0*
b1 $
b1 ,
b10 #
b10 +
b11 (
b11 -
0%
#2028
1%
#2032
1*
0%
#2036
1%
#2040
0*
b100000 )
b100000 .
b10 $
b10 ,
b11 #
b11 +
b0 (
b0 -
0%
#2044
1%
#2048
1*
b100000 &
0%
#2052
1%
#2056
b100000 "
b100000 /
0*
b11 $
b11 ,
b0 #
b0 +
b1 (
b1 -
0%
#2060
1%
#2064
1*
0%
#2068
1%
#2072
b100000 !
b100000 0
0*
b100000 '
b0 $
b0 ,
b1 #
b1 +
b10 (
b10 -
0%
#2076
1%
#2080
1*
0%
#2084
1%
#2088
0*
b1 $
b1 ,
b10 #
b10 +
b11 (
b11 -
0%
#2092
1%
#2096
1*
0%
#2100
1%
#2104
0*
b100001 )
b100001 .
b10 $
b10 ,
b11 #
b11 +
b0 (
b0 -
0%
#2108
1%
#2112
1*
b100001 &
0%
#2116
1%
#2120
b100001 "
b100001 /
0*
b11 $
b11 ,
b0 #
b0 +
b1 (
b1 -
0%
#2124
1%
#2128
1*
0%
#2132
1%
#2136
b100001 !
b100001 0
0*
b100001 '
b0 $
b0 ,
b1 #
b1 +
b10 (
b10 -
0%
#2140
1%
#2144
1*
0%
#2148
1%
#2152
0*
b1 $
b1 ,
b10 #
b10 +
b11 (
b11 -
0%
#2156
1%
#2160
1*
0%
#2164
1%
#2168
0*
b100010 )
b100010 .
b10 $
b10 ,
b11 #
b11 +
b0 (
b0 -
0%
#2172
1%
#2176
1*
b100010 &
0%
#2180
1%
#2184
b100010 "
b100010 /
0*
b11 $
b11 ,
b0 #
b0 +
b1 (
b1 -
0%
#2188
1%
#2192
1*
0%
#2196
1%
#2200
b100010 !
b100010 0
0*
b100010 '
b0 $
b0 ,
b1 #
b1 +
b10 (
b10 -
0%
#2204
1%
#2208
1*
0%
#2212
1%
#2216
0*
b1 $
b1 ,
b10 #
b10 +
b11 (
b11 -
0%
#2220
1%
#2224
1*
0%
#2228
1%
#2232
0*
b100011 )
b100011 .
b10 $
b10 ,
b11 #
b11 +
b0 (
b0 -
0%
#2236
1%
#2240
1*
b100011 &
0%
#2244
1%
#2248
b100011 "
b100011 /
0*
b11 $
b11 ,
b0 #
b0 +
b1 (
b1 -
0%
#2252
1%
#2256
1*
0%
#2260
1%
#2264
b100011 !
b100011 0
0*
b100011 '
b0 $
b0 ,
b1 #
b1 +
b10 (
b10 -
0%
#2268
1%
#2272
1*
0%
#2276
1%
#2280
0*
b1 $
b1 ,
b10 #
b10 +
b11 (
b11 -
0%
#2284
1%
#2288
1*
0%
#2292
1%
#2296
0*
b100100 )
b100100 .
b10 $
b10 ,
b11 #
b11 +
b0 (
b0 -
0%
#2300
1%
#2304
1*
b100100 &
0%
#2308
1%
#2312
b100100 "
b100100 /
0*
b11 $
b11 ,
b0 #
b0 +
b1 (
b1 -
0%
#2316
1%
#2320
1*
0%
#2324
1%
#2328
b100100 !
b100100 0
0*
b100100 '
b0 $
b0 ,
b1 #
b1 +
b10 (
b10 -
0%
#2332
1%
#2336
1*
0%
#2340
1%
#2344
0*
b1 $
b1 ,
b10 #
b10 +
b11 (
b11 -
0%
#2348
1%
#2352
1*
0%
#2356
1%
#2360
0*
b100101 )
b100101 .
b10 $
b10 ,
b11 #
b11 +
b0 (
b0 -
0%
#2364
1%
#2368
1*
b100101 &
0%
#2372
1%
#2376
b100101 "
b100101 /
0*
b11 $
b11 ,
b0 #
b0 +
b1 (
b1 -
0%
#2380
1%
#2384
1*
0%
#2388
1%
#2392
b100101 !
b100101 0
0*
b100101 '
b0 $
b0 ,
b1 #
b1 +
b10 (
b10 -
0%
#2396
1%
#2400
1*
0%
#2404
1%
#2408
0*
b1 $
b1 ,
b10 #
b10 +
b11 (
b11 -
0%
#2412
1%
#2416
1*
0%
#2420
1%
#2424
0*
b100110 )
b100110 .
b10 $
b10 ,
b11 #
b11 +
b0 (
b0 -
0%
#2428
1%
#2432
1*
b100110 &
0%
#2436
1%
#2440
b100110 "
b100110 /
0*
b11 $
b11 ,
b0 #
b0 +
b1 (
b1 -
0%
#2444
1%
#2448
1*
0%
#2452
1%
#2456
b100110 !
b100110 0
0*
b100110 '
b0 $
b0 ,
b1 #
b1 +
b10 (
b10 -
0%
#2460
1%
#2464
1*
0%
#2468
1%
#2472
0*
b1 $
b1 ,
b10 #
b10 +
b11 (
b11 -
0%
#2476
1%
#2480
1*
0%
#2484
1%
#2488
0*
b100111 )
b100111 .
b10 $
b10 ,
b11 #
b11 +
b0 (
b0 -
0%
#2492
1%
#2496
1*
b100111 &
0%
#2500
1%
#2504
b100111 "
b100111 /
0*
b11 $
b11 ,
b0 #
b0 +
b1 (
b1 -
0%
#2508
1%
#2512
1*
0%
#2516
1%
#2520
b100111 !
b100111 0
0*
b100111 '
b0 $
b0 ,
b1 #
b1 +
b10 (
b10 -
0%
#2524
1%
#2528
1*
0%
#2532
1%
#2536
0*
b1 $
b1 ,
b10 #
b10 +
b11 (
b11 -
0%
#2540
1%
#2544
1*
0%
#2548
1%
#2552
0*
b101000 )
b101000 .
b10 $
b10 ,
b11 #
b11 +
b0 (
b0 -
0%
#2556
1%
#2560
1*
b101000 &
0%
#2564
1%
#2568
b101000 "
b101000 /
0*
b11 $
b11 ,
b0 #
b0 +
b1 (
b1 -
0%
#2572
1%
#2576
1*
0%
#2580
1%
#2584
b101000 !
b101000 0
0*
b101000 '
b0 $
b0 ,
b1 #
b1 +
b10 (
b10 -
0%
#2588
1%
#2592
1*
0%
#2596
1%
#2600
0*
b1 $
b1 ,
b10 #
b10 +
b11 (
b11 -
0%
#2604
1%
#2608
1*
0%
#2612
1%
#2616
0*
b101001 )
b101001 .
b10 $
b10 ,
b11 #
b11 +
b0 (
b0 -
0%
#2620
1%
#2624
1*
b101001 &
0%
#2628
1%
#2632
b101001 "
b101001 /
0*
b11 $
b11 ,
b0 #
b0 +
b1 (
b1 -
0%
#2636
1%
#2640
1*
0%
#2644
1%
#2648
b101001 !
b101001 0
0*
b101001 '
b0 $
b0 ,
b1 #
b1 +
b10 (
b10 -
0%
#2652
1%
#2656
1*
0%
#2660
1%
#2664
0*
b1 $
b1 ,
b10 #
b10 +
b11 (
b11 -
0%
#2668
1%
#2672
1*
0%
#2676
1%
#2680
0*
b101010 )
b101010 .
b10 $
b10 ,
b11 #
b11 +
b0 (
b0 -
0%
#2684
1%
#2688
1*
b101010 &
0%
#2692
1%
#2696
b101010 "
b101010 /
0*
b11 $
b11 ,
b0 #
b0 +
b1 (
b1 -
0%
#2700
1%
#2704
1*
0%
#2708
1%
#2712
b101010 !
b101010 0
0*
b101010 '
b0 $
b0 ,
b1 #
b1 +
b10 (
b10 -
0%
#2716
1%
#2720
1*
0%
#2724
1%
#2728
0*
b1 $
b1 ,
b10 #
b10 +
b11 (
b11 -
0%
#2732
1%
#2736
1*
0%
#2740
1%
#2744
0*
b101011 )
b101011 .
b10 $
b10 ,
b11 #
b11 +
b0 (
b0 -
0%
#2748
1%
#2752
1*
b101011 &
0%
#2756
1%
#2760
b101011 "
b101011 /
0*
b11 $
b11 ,
b0 #
b0 +
b1 (
b1 -
0%
#2764
1%
#2768
1*
0%
#2772
1%
#2776
b101011 !
b101011 0
0*
b101011 '
b0 $
b0 ,
b1 #
b1 +
b10 (
b10 -
0%
#2780
1%
#2784
1*
0%
#2788
1%
#2792
0*
b1 $
b1 ,
b10 #
b10 +
b11 (
b11 -
0%
#2796
1%
#2800
1*
0%
#2804
1%
#2808
0*
b101100 )
b101100 .
b10 $
b10 ,
b11 #
b11 +
b0 (
b0 -
0%
#2812
1%
#2816
1*
b101100 &
0%
#2820
1%
#2824
b101100 "
b101100 /
0*
b11 $
b11 ,
b0 #
b0 +
b1 (
b1 -
0%
#2828
1%
#2832
1*
0%
#2836
1%
#2840
b101100 !
b101100 0
0*
b101100 '
b0 $
b0 ,
b1 #
b1 +
b10 (
b10 -
0%
#2844
1%
#2848
1*
0%
#2852
1%
#2856
0*
b1 $
b1 ,
b10 #
b10 +
b11 (
b11 -
0%
#2860
1%
#2864
1*
0%
#2868
1%
#2872
0*
b101101 )
b101101 .
b10 $
b10 ,
b11 #
b11 +
b0 (
b0 -
0%
#2876
1%
#2880
1*
b101101 &
0%
#2884
1%
#2888
b101101 "
b101101 /
0*
b11 $
b11 ,
b0 #
b0 +
b1 (
b1 -
0%
#2892
1%
#2896
1*
0%
#2900
1%
#2904
b101101 !
b101101 0
0*
b101101 '
b0 $
b0 ,
b1 #
b1 +
b10 (
b10 -
0%
#2908
1%
#2912
1*
0%
#2916
1%
#2920
0*
b1 $
b1 ,
b10 #
b10 +
b11 (
b11 -
0%
#2924
1%
#2928
1*
0%
#2932
1%
#2936
0*
b101110 )
b101110 .
b10 $
b10 ,
b11 #
b11 +
b0 (
b0 -
0%
#2940
1%
#2944
1*
b101110 &
0%
#2948
1%
#2952
b101110 "
b101110 /
0*
b11 $
b11 ,
b0 #
b0 +
b1 (
b1 -
0%
#2956
1%
#2960
1*
0%
#2964
1%
#2968
b101110 !
b101110 0
0*
b101110 '
b0 $
b0 ,
b1 #
b1 +
b10 (
b10 -
0%
#2972
1%
#2976
1*
0%
#2980
1%
#2984
0*
b1 $
b1 ,
b10 #
b10 +
b11 (
b11 -
0%
#2988
1%
#2992
1*
0%
#2996
1%
#3000
0*
b101111 )
b101111 .
b10 $
b10 ,
b11 #
b11 +
b0 (
b0 -
0%
#3004
1%
#3008
1*
b101111 &
0%
#3012
1%
#3016
b101111 "
b101111 /
0*
b11 $
b11 ,
b0 #
b0 +
b1 (
b1 -
0%
#3020
1%
#3024
1*
0%
#3028
1%
#3032
b101111 !
b101111 0
0*
b101111 '
b0 $
b0 ,
b1 #
b1 +
b10 (
b10 -
0%
#3036
1%
#3040
1*
0%
#3044
1%
#3048
0*
b1 $
b1 ,
b10 #
b10 +
b11 (
b11 -
0%
#3052
1%
#3056
1*
0%
#3060
1%
#3064
0*
b110000 )
b110000 .
b10 $
b10 ,
b11 #
b11 +
b0 (
b0 -
0%
#3068
1%
#3072
1*
b110000 &
0%
#3076
1%
