build/vcd/sp.vcd
$date
	Mon Oct 28 15:56:22 2024
$end
$version
	Icarus Verilog
$end
$timescale
	1fs
$end
$scope module sp_TB $end
$var wire 8 ! sp [7:0] $end
$var reg 1 " clk $end
$var reg 8 # expected [7:0] $end
$var reg 1 $ op $end
$var reg 1 % write_enable $end
$var integer 32 & cnt [31:0] $end
$scope module DUT $end
$var wire 1 " clk $end
$var wire 1 $ op $end
$var wire 1 % write_enable $end
$var reg 9 ' reg_sp [8:0] $end
$var reg 8 ( sp [7:0] $end
$upscope $end
$upscope $end
$enddefinitions $end
#0
$dumpvars
b0 (
b0 '
b0 &
0%
1$
b0 #
0"
b0 !
$end
#1
b1 &
#4
1%
1"
#8
b1 '
0"
#9
b10 &
#12
0%
1"
#16
0"
#17
b11 &
#20
1%
1"
#24
b10 '
0"
#25
b100 &
#28
b1 !
b1 (
0%
b1 #
1"
#32
0"
#33
b101 &
#36
1%
1"
#40
b11 '
0"
#41
b110 &
#44
b10 !
b10 (
0%
b10 #
1"
#48
0"
#49
b111 &
#52
1%
1"
#56
b100 '
0"
#57
b1000 &
#60
b11 !
b11 (
0%
b11 #
1"
#64
0"
#65
b1001 &
#68
1%
1"
#72
b101 '
0"
#73
b1010 &
#76
b100 !
b100 (
0%
b100 #
1"
#80
0"
#81
b1011 &
#84
1%
1"
#88
b110 '
0"
#89
b1100 &
#92
b101 !
b101 (
0%
b101 #
1"
#96
0"
#97
b1101 &
#100
1%
1"
#104
b111 '
0"
#105
b1110 &
#108
b110 !
b110 (
0%
b110 #
1"
#112
0"
#113
b1111 &
#116
1%
1"
#120
b1000 '
0"
#121
b10000 &
#124
b111 !
b111 (
0%
b111 #
1"
#128
0"
#129
b10001 &
#132
1%
1"
#136
b1001 '
0"
#137
b10010 &
#140
b1000 !
b1000 (
0%
b1000 #
1"
#144
0"
#145
b10011 &
#148
1%
1"
#152
b1010 '
0"
#153
b10100 &
#156
b1001 !
b1001 (
0%
b1001 #
1"
#160
0"
#161
b10101 &
#164
1%
1"
#168
b1011 '
0"
#169
b10110 &
#172
b1010 !
b1010 (
0%
b1010 #
1"
#176
0"
#177
b10111 &
#180
1%
1"
#184
b1100 '
0"
#185
b11000 &
#188
b1011 !
b1011 (
0%
b1011 #
1"
#192
0"
#193
b11001 &
#196
1%
1"
#200
b1101 '
0"
#201
b11010 &
#204
b1100 !
b1100 (
0%
b1100 #
1"
#208
0"
#209
b11011 &
#212
1%
1"
#216
b1110 '
0"
#217
b11100 &
#220
b1101 !
b1101 (
0%
b1101 #
1"
#224
0"
#225
b11101 &
#228
1%
1"
#232
b1111 '
0"
#233
b11110 &
#236
b1110 !
b1110 (
0%
b1110 #
1"
#240
0"
#241
b11111 &
#244
1%
1"
#248
b10000 '
0"
#249
b100000 &
#252
b1111 !
b1111 (
0%
b1111 #
1"
#256
0"
#257
b100001 &
#260
1%
1"
#264
b10001 '
0"
#265
b100010 &
#268
b10000 !
b10000 (
0%
b10000 #
1"
#272
0"
#273
b100011 &
#276
1%
1"
#280
b10010 '
0"
#281
b100100 &
#284
b10001 !
b10001 (
0%
b10001 #
1"
#288
0"
#289
b100101 &
#292
1%
1"
#296
b10011 '
0"
#297
b100110 &
#300
b10010 !
b10010 (
0%
b10010 #
1"
#304
0"
#305
b100111 &
#308
1%
1"
#312
b10100 '
0"
#313
b101000 &
#316
b10011 !
b10011 (
0%
b10011 #
1"
#320
0"
#321
b101001 &
#324
1%
1"
#328
b10101 '
0"
#329
b101010 &
#332
b10100 !
b10100 (
0%
b10100 #
1"
#336
0"
#337
b101011 &
#340
1%
1"
#344
b10110 '
0"
#345
b101100 &
#348
b10101 !
b10101 (
0%
b10101 #
1"
#352
0"
#353
b101101 &
#356
1%
1"
#360
b10111 '
0"
#361
b101110 &
#364
b10110 !
b10110 (
0%
b10110 #
1"
#368
0"
#369
b101111 &
#372
1%
1"
#376
b11000 '
0"
#377
b110000 &
#380
b10111 !
b10111 (
0%
b10111 #
1"
#384
0"
#385
b110001 &
#388
1%
1"
#392
b11001 '
0"
#393
b110010 &
#396
b11000 !
b11000 (
0%
b11000 #
1"
#400
0"
#401
b110011 &
#404
1%
1"
#408
b11010 '
0"
#409
b110100 &
#412
b11001 !
b11001 (
0%
b11001 #
1"
#416
0"
#417
b110101 &
#420
1%
1"
#424
b11011 '
0"
#425
b110110 &
#428
b11010 !
b11010 (
0%
b11010 #
1"
#432
0"
#433
b110111 &
#436
1%
1"
#440
b11100 '
0"
#441
b111000 &
#444
b11011 !
b11011 (
0%
b11011 #
1"
#448
0"
#449
b111001 &
#452
1%
1"
#456
b11101 '
0"
#457
b111010 &
#460
b11100 !
b11100 (
0%
b11100 #
1"
#464
0"
#465
b111011 &
#468
1%
1"
#472
b11110 '
0"
#473
b111100 &
#476
b11101 !
b11101 (
0%
b11101 #
1"
#480
0"
#481
b111101 &
#484
1%
1"
#488
b11111 '
0"
#489
b111110 &
#492
b11110 !
b11110 (
0%
b11110 #
1"
#496
0"
#497
b111111 &
#500
1%
1"
#504
b100000 '
0"
#505
b1000000 &
#508
b11111 !
b11111 (
0%
b11111 #
1"
#512
0"
#513
b1000001 &
#516
1%
1"
#520
b100001 '
0"
#521
b1000010 &
#524
b100000 !
b100000 (
0%
b100000 #
1"
#528
0"
#529
b1000011 &
#532
1%
1"
#536
b100010 '
0"
#537
b1000100 &
#540
b100001 !
b100001 (
0%
b100001 #
1"
#544
0"
#545
b1000101 &
#548
1%
1"
#552
b100011 '
0"
#553
b1000110 &
#556
b100010 !
b100010 (
0%
b100010 #
1"
#560
0"
#561
b1000111 &
#564
1%
1"
#568
b100100 '
0"
#569
b1001000 &
#572
b100011 !
b100011 (
0%
b100011 #
1"
#576
0"
#577
b1001001 &
#580
1%
1"
#584
b100101 '
0"
#585
b1001010 &
#588
b100100 !
b100100 (
0%
b100100 #
1"
#592
0"
#593
b1001011 &
#596
1%
1"
#600
b100110 '
0"
#601
b1001100 &
#604
b100101 !
b100101 (
0%
b100101 #
1"
#608
0"
#609
b1001101 &
#612
1%
1"
#616
b100111 '
0"
#617
b1001110 &
#620
b100110 !
b100110 (
0%
b100110 #
1"
#624
0"
#625
b1001111 &
#628
1%
1"
#632
b101000 '
0"
#633
b1010000 &
#636
b100111 !
b100111 (
0%
b100111 #
1"
#640
0"
#641
b1010001 &
#644
1%
1"
#648
b101001 '
0"
#649
b1010010 &
#652
b101000 !
b101000 (
0%
b101000 #
1"
#656
0"
#657
b1010011 &
#660
1%
1"
#664
b101010 '
0"
#665
b1010100 &
#668
b101001 !
b101001 (
0%
b101001 #
1"
#672
0"
#673
b1010101 &
#676
1%
1"
#680
b101011 '
0"
#681
b1010110 &
#684
b101010 !
b101010 (
0%
b101010 #
1"
#688
0"
#689
b1010111 &
#692
1%
1"
#696
b101100 '
0"
#697
b1011000 &
#700
b101011 !
b101011 (
0%
b101011 #
1"
#704
0"
#705
b1011001 &
#708
1%
1"
#712
b101101 '
0"
#713
b1011010 &
#716
b101100 !
b101100 (
0%
b101100 #
1"
#720
0"
#721
b1011011 &
#724
1%
1"
#728
b101110 '
0"
#729
b1011100 &
#732
b101101 !
b101101 (
0%
b101101 #
1"
#736
0"
#737
b1011101 &
#740
1%
1"
#744
b101111 '
0"
#745
b1011110 &
#748
b101110 !
b101110 (
0%
b101110 #
1"
#752
0"
#753
b1011111 &
#756
1%
1"
#760
b110000 '
0"
#761
b1100000 &
#764
b101111 !
b101111 (
0%
b101111 #
1"
#768
0"
#769
b1100001 &
#772
1%
1"
#776
b110001 '
0"
#777
b1100010 &
#780
b110000 !
b110000 (
0%
b110000 #
1"
#784
0"
#785
b1100011 &
#788
1%
1"
#792
b110010 '
0"
#793
b1100100 &
#796
b110001 !
b110001 (
0%
b110001 #
1"
#800
0"
#801
b1100101 &
#804
1%
1"
#808
b110011 '
0"
#809
b1100110 &
#812
b110010 !
b110010 (
0%
b110010 #
1"
#816
0"
#817
b1100111 &
#820
1%
1"
#824
b110100 '
0"
#825
b1101000 &
#828
b110011 !
b110011 (
0%
b110011 #
1"
#832
0"
#833
b1101001 &
#836
1%
1"
#840
b110101 '
0"
#841
b1101010 &
#844
b110100 !
b110100 (
0%
b110100 #
1"
#848
0"
#849
b1101011 &
#852
1%
1"
#856
b110110 '
0"
#857
b1101100 &
#860
b110101 !
b110101 (
0%
b110101 #
1"
#864
0"
#865
b1101101 &
#868
1%
1"
#872
b110111 '
0"
#873
b1101110 &
#876
b110110 !
b110110 (
0%
b110110 #
1"
#880
0"
#881
b1101111 &
#884
1%
1"
#888
b111000 '
0"
#889
b1110000 &
#892
b110111 !
b110111 (
0%
b110111 #
1"
#896
0"
#897
b1110001 &
#900
1%
1"
#904
b111001 '
0"
#905
b1110010 &
#908
b111000 !
b111000 (
0%
b111000 #
1"
#912
0"
#913
b1110011 &
#916
1%
1"
#920
b111010 '
0"
#921
b1110100 &
#924
b111001 !
b111001 (
0%
b111001 #
1"
#928
0"
#929
b1110101 &
#932
1%
1"
#936
b111011 '
0"
#937
b1110110 &
#940
b111010 !
b111010 (
0%
b111010 #
1"
#944
0"
#945
b1110111 &
#948
1%
1"
#952
b111100 '
0"
#953
b1111000 &
#956
b111011 !
b111011 (
0%
b111011 #
1"
#960
0"
#961
b1111001 &
#964
1%
1"
#968
b111101 '
0"
#969
b1111010 &
#972
b111100 !
b111100 (
0%
b111100 #
1"
#976
0"
#977
b1111011 &
#980
1%
1"
#984
b111110 '
0"
#985
b1111100 &
#988
b111101 !
b111101 (
0%
b111101 #
1"
#992
0"
#993
b1111101 &
#996
1%
1"
#1000
b111111 '
0"
#1001
b1111110 &
#1004
b111110 !
b111110 (
0%
b111110 #
1"
#1008
0"
#1009
b1111111 &
#1012
1%
1"
#1016
b1000000 '
0"
#1017
b10000000 &
#1020
b111111 !
b111111 (
0%
b111111 #
1"
#1024
0"
#1025
b10000001 &
#1028
1%
1"
#1032
b1000001 '
0"
#1033
b10000010 &
#1036
b1000000 !
b1000000 (
0%
b1000000 #
1"
#1040
0"
#1041
b10000011 &
#1044
1%
1"
#1048
b1000010 '
0"
#1049
b10000100 &
#1052
b1000001 !
b1000001 (
0%
b1000001 #
1"
#1056
0"
#1057
b10000101 &
#1060
1%
1"
#1064
b1000011 '
0"
#1065
b10000110 &
#1068
b1000010 !
b1000010 (
0%
b1000010 #
1"
#1072
0"
#1073
b10000111 &
#1076
1%
1"
#1080
b1000100 '
0"
#1081
b10001000 &
#1084
b1000011 !
b1000011 (
0%
b1000011 #
1"
#1088
0"
#1089
b10001001 &
#1092
1%
1"
#1096
b1000101 '
0"
#1097
b10001010 &
#1100
b1000100 !
b1000100 (
0%
b1000100 #
1"
#1104
0"
#1105
b10001011 &
#1108
1%
1"
#1112
b1000110 '
0"
#1113
b10001100 &
#1116
b1000101 !
b1000101 (
0%
b1000101 #
1"
#1120
0"
#1121
b10001101 &
#1124
1%
1"
#1128
b1000111 '
0"
#1129
b10001110 &
#1132
b1000110 !
b1000110 (
0%
b1000110 #
1"
#1136
0"
#1137
b10001111 &
#1140
1%
1"
#1144
b1001000 '
0"
#1145
b10010000 &
#1148
b1000111 !
b1000111 (
0%
b1000111 #
1"
#1152
0"
#1153
b10010001 &
#1156
1%
1"
#1160
b1001001 '
0"
#1161
b10010010 &
#1164
b1001000 !
b1001000 (
0%
b1001000 #
1"
#1168
0"
#1169
b10010011 &
#1172
1%
1"
#1176
b1001010 '
0"
#1177
b10010100 &
#1180
b1001001 !
b1001001 (
0%
b1001001 #
1"
#1184
0"
#1185
b10010101 &
#1188
1%
1"
#1192
b1001011 '
0"
#1193
b10010110 &
#1196
b1001010 !
b1001010 (
0%
b1001010 #
1"
#1200
0"
#1201
b10010111 &
#1204
1%
1"
#1208
b1001100 '
0"
#1209
b10011000 &
#1212
b1001011 !
b1001011 (
0%
b1001011 #
1"
#1216
0"
#1217
b10011001 &
#1220
1%
1"
#1224
b1001101 '
0"
#1225
b10011010 &
#1228
b1001100 !
b1001100 (
0%
b1001100 #
1"
#1232
0"
#1233
b10011011 &
#1236
1%
1"
#1240
b1001110 '
0"
#1241
b10011100 &
#1244
b1001101 !
b1001101 (
0%
b1001101 #
1"
#1248
0"
#1249
b10011101 &
#1252
1%
1"
#1256
b1001111 '
0"
#1257
b10011110 &
#1260
b1001110 !
b1001110 (
0%
b1001110 #
1"
#1264
0"
#1265
b10011111 &
#1268
1%
1"
#1272
b1010000 '
0"
#1273
b10100000 &
#1276
b1001111 !
b1001111 (
0%
b1001111 #
1"
#1280
0"
#1281
b10100001 &
#1284
1%
1"
#1288
b1010001 '
0"
#1289
b10100010 &
#1292
b1010000 !
b1010000 (
0%
b1010000 #
1"
#1296
0"
#1297
b10100011 &
#1300
1%
1"
#1304
b1010010 '
0"
#1305
b10100100 &
#1308
b1010001 !
b1010001 (
0%
b1010001 #
1"
#1312
0"
#1313
b10100101 &
#1316
1%
1"
#1320
b1010011 '
0"
#1321
b10100110 &
#1324
b1010010 !
b1010010 (
0%
b1010010 #
1"
#1328
0"
#1329
b10100111 &
#1332
1%
1"
#1336
b1010100 '
0"
#1337
b10101000 &
#1340
b1010011 !
b1010011 (
0%
b1010011 #
1"
#1344
0"
#1345
b10101001 &
#1348
1%
1"
#1352
b1010101 '
0"
#1353
b10101010 &
#1356
b1010100 !
b1010100 (
0%
b1010100 #
1"
#1360
0"
#1361
b10101011 &
#1364
1%
1"
#1368
b1010110 '
0"
#1369
b10101100 &
#1372
b1010101 !
b1010101 (
0%
b1010101 #
1"
#1376
0"
#1377
b10101101 &
#1380
1%
1"
#1384
b1010111 '
0"
#1385
b10101110 &
#1388
b1010110 !
b1010110 (
0%
b1010110 #
1"
#1392
0"
#1393
b10101111 &
#1396
1%
1"
#1400
b1011000 '
0"
#1401
b10110000 &
#1404
b1010111 !
b1010111 (
0%
b1010111 #
1"
#1408
0"
#1409
b10110001 &
#1412
1%
1"
#1416
b1011001 '
0"
#1417
b10110010 &
#1420
b1011000 !
b1011000 (
0%
b1011000 #
1"
#1424
0"
#1425
b10110011 &
#1428
1%
1"
#1432
b1011010 '
0"
#1433
b10110100 &
#1436
b1011001 !
b1011001 (
0%
b1011001 #
1"
#1440
0"
#1441
b10110101 &
#1444
1%
1"
#1448
b1011011 '
0"
#1449
b10110110 &
#1452
b1011010 !
b1011010 (
0%
b1011010 #
1"
#1456
0"
#1457
b10110111 &
#1460
1%
1"
#1464
b1011100 '
0"
#1465
b10111000 &
#1468
b1011011 !
b1011011 (
0%
b1011011 #
1"
#1472
0"
#1473
b10111001 &
#1476
1%
1"
#1480
b1011101 '
0"
#1481
b10111010 &
#1484
b1011100 !
b1011100 (
0%
b1011100 #
1"
#1488
0"
#1489
b10111011 &
#1492
1%
1"
#1496
b1011110 '
0"
#1497
b10111100 &
#1500
b1011101 !
b1011101 (
0%
b1011101 #
1"
#1504
0"
#1505
b10111101 &
#1508
1%
1"
#1512
b1011111 '
0"
#1513
b10111110 &
#1516
b1011110 !
b1011110 (
0%
b1011110 #
1"
#1520
0"
#1521
b10111111 &
#1524
1%
1"
#1528
b1100000 '
0"
#1529
b11000000 &
#1532
b1011111 !
b1011111 (
0%
b1011111 #
1"
#1536
0"
#1537
b11000001 &
#1540
1%
1"
#1544
b1100001 '
0"
#1545
b11000010 &
#1548
b1100000 !
b1100000 (
0%
b1100000 #
1"
#1552
0"
#1553
b11000011 &
#1556
1%
1"
#1560
b1100010 '
0"
#1561
b11000100 &
#1564
b1100001 !
b1100001 (
0%
b1100001 #
1"
#1568
0"
#1569
b11000101 &
#1572
1%
1"
#1576
b1100011 '
0"
#1577
b11000110 &
#1580
b1100010 !
b1100010 (
0%
b1100010 #
1"
#1584
0"
#1585
b11000111 &
#1588
1%
1"
#1592
b1100100 '
0"
#1593
b11001000 &
#1596
b1100011 !
b1100011 (
0%
b1100011 #
1"
#1600
0"
#1601
b11001001 &
#1604
1%
1"
#1608
b1100101 '
0"
#1609
b11001010 &
#1612
b1100100 !
b1100100 (
0%
b1100100 #
1"
#1616
0"
#1617
b11001011 &
#1620
1%
1"
#1624
b1100110 '
0"
#1625
b11001100 &
#1628
b1100101 !
b1100101 (
0%
b1100101 #
1"
#1632
0"
#1633
b11001101 &
#1636
1%
1"
#1640
b1100111 '
0"
#1641
b11001110 &
#1644
b1100110 !
b1100110 (
0%
b1100110 #
1"
#1648
0"
#1649
b11001111 &
#1652
1%
1"
#1656
b1101000 '
0"
#1657
b11010000 &
#1660
b1100111 !
b1100111 (
0%
b1100111 #
1"
#1664
0"
#1665
b11010001 &
#1668
1%
1"
#1672
b1101001 '
0"
#1673
b11010010 &
#1676
b1101000 !
b1101000 (
0%
b1101000 #
1"
#1680
0"
#1681
b11010011 &
#1684
1%
1"
#1688
b1101010 '
0"
#1689
b11010100 &
#1692
b1101001 !
b1101001 (
0%
b1101001 #
1"
#1696
0"
#1697
b11010101 &
#1700
1%
1"
#1704
b1101011 '
0"
#1705
b11010110 &
#1708
b1101010 !
b1101010 (
0%
b1101010 #
1"
#1712
0"
#1713
b11010111 &
#1716
1%
1"
#1720
b1101100 '
0"
#1721
b11011000 &
#1724
b1101011 !
b1101011 (
0%
b1101011 #
1"
#1728
0"
#1729
b11011001 &
#1732
1%
1"
#1736
b1101101 '
0"
#1737
b11011010 &
#1740
b1101100 !
b1101100 (
0%
b1101100 #
1"
#1744
0"
#1745
b11011011 &
#1748
1%
1"
#1752
b1101110 '
0"
#1753
b11011100 &
#1756
b1101101 !
b1101101 (
0%
b1101101 #
1"
#1760
0"
#1761
b11011101 &
#1764
1%
1"
#1768
b1101111 '
0"
#1769
b11011110 &
#1772
b1101110 !
b1101110 (
0%
b1101110 #
1"
#1776
0"
#1777
b11011111 &
#1780
1%
1"
#1784
b1110000 '
0"
#1785
b11100000 &
#1788
b1101111 !
b1101111 (
0%
b1101111 #
1"
#1792
0"
#1793
b11100001 &
#1796
1%
1"
#1800
b1110001 '
0"
#1801
b11100010 &
#1804
b1110000 !
b1110000 (
0%
b1110000 #
1"
#1808
0"
#1809
b11100011 &
#1812
1%
1"
#1816
b1110010 '
0"
#1817
b11100100 &
#1820
b1110001 !
b1110001 (
0%
b1110001 #
1"
#1824
0"
#1825
b11100101 &
#1828
1%
1"
#1832
b1110011 '
0"
#1833
b11100110 &
#1836
b1110010 !
b1110010 (
0%
b1110010 #
1"
#1840
0"
#1841
b11100111 &
#1844
1%
1"
#1848
b1110100 '
0"
#1849
b11101000 &
#1852
b1110011 !
b1110011 (
0%
b1110011 #
1"
#1856
0"
#1857
b11101001 &
#1860
1%
1"
#1864
b1110101 '
0"
#1865
b11101010 &
#1868
b1110100 !
b1110100 (
0%
b1110100 #
1"
#1872
0"
#1873
b11101011 &
#1876
1%
1"
#1880
b1110110 '
0"
#1881
b11101100 &
#1884
b1110101 !
b1110101 (
0%
b1110101 #
1"
#1888
0"
#1889
b11101101 &
#1892
1%
1"
#1896
b1110111 '
0"
#1897
b11101110 &
#1900
b1110110 !
b1110110 (
0%
b1110110 #
1"
#1904
0"
#1905
b11101111 &
#1908
1%
1"
#1912
b1111000 '
0"
#1913
b11110000 &
#1916
b1110111 !
b1110111 (
0%
b1110111 #
1"
#1920
0"
#1921
b11110001 &
#1924
1%
1"
#1928
b1111001 '
0"
#1929
b11110010 &
#1932
b1111000 !
b1111000 (
0%
b1111000 #
1"
#1936
0"
#1937
b11110011 &
#1940
1%
1"
#1944
b1111010 '
0"
#1945
b11110100 &
#1948
b1111001 !
b1111001 (
0%
b1111001 #
1"
#1952
0"
#1953
b11110101 &
#1956
1%
1"
#1960
b1111011 '
0"
#1961
b11110110 &
#1964
b1111010 !
b1111010 (
0%
b1111010 #
1"
#1968
0"
#1969
b11110111 &
#1972
1%
1"
#1976
b1111100 '
0"
#1977
b11111000 &
#1980
b1111011 !
b1111011 (
0%
b1111011 #
1"
#1984
0"
#1985
b11111001 &
#1988
1%
1"
#1992
b1111101 '
0"
#1993
b11111010 &
#1996
b1111100 !
b1111100 (
0%
b1111100 #
1"
#2000
0"
#2001
b11111011 &
#2004
1%
1"
#2008
b1111110 '
0"
#2009
b11111100 &
#2012
b1111101 !
b1111101 (
0%
b1111101 #
1"
#2016
0"
#2017
b11111101 &
#2020
1%
1"
#2024
b1111111 '
0"
#2025
b11111110 &
#2028
b1111110 !
b1111110 (
0%
b1111110 #
1"
#2032
0"
#2033
b11111111 &
#2036
1%
1"
#2040
b10000000 '
0"
#2041
b100000000 &
#2044
b1111111 !
b1111111 (
0%
b1111111 #
1"
#2048
0"
#2049
b100000001 &
#2052
1%
1"
#2056
b10000001 '
0"
#2057
b100000010 &
#2060
b10000000 !
b10000000 (
0%
b10000000 #
1"
#2064
0"
#2065
b100000011 &
#2068
1%
1"
#2072
b10000010 '
0"
#2073
b100000100 &
#2076
b10000001 !
b10000001 (
0%
b10000001 #
1"
#2080
0"
#2081
b100000101 &
#2084
1%
1"
#2088
b10000011 '
0"
#2089
b100000110 &
#2092
b10000010 !
b10000010 (
0%
b10000010 #
1"
#2096
0"
#2097
b100000111 &
#2100
1%
1"
#2104
b10000100 '
0"
#2105
b100001000 &
#2108
b10000011 !
b10000011 (
0%
b10000011 #
1"
#2112
0"
#2113
b100001001 &
#2116
1%
1"
#2120
b10000101 '
0"
#2121
b100001010 &
#2124
b10000100 !
b10000100 (
0%
b10000100 #
1"
#2128
0"
#2129
b100001011 &
#2132
1%
1"
#2136
b10000110 '
0"
#2137
b100001100 &
#2140
b10000101 !
b10000101 (
0%
b10000101 #
1"
#2144
0"
#2145
b100001101 &
#2148
1%
1"
#2152
b10000111 '
0"
#2153
b100001110 &
#2156
b10000110 !
b10000110 (
0%
b10000110 #
1"
#2160
0"
#2161
b100001111 &
#2164
1%
1"
#2168
b10001000 '
0"
#2169
b100010000 &
#2172
b10000111 !
b10000111 (
0%
b10000111 #
1"
#2176
0"
#2177
b100010001 &
#2180
1%
1"
#2184
b10001001 '
0"
#2185
b100010010 &
#2188
b10001000 !
b10001000 (
0%
b10001000 #
1"
#2192
0"
#2193
b100010011 &
#2196
1%
1"
#2200
b10001010 '
0"
#2201
b100010100 &
#2204
b10001001 !
b10001001 (
0%
b10001001 #
1"
#2208
0"
#2209
b100010101 &
#2212
1%
1"
#2216
b10001011 '
0"
#2217
b100010110 &
#2220
b10001010 !
b10001010 (
0%
b10001010 #
1"
#2224
0"
#2225
b100010111 &
#2228
1%
1"
#2232
b10001100 '
0"
#2233
b100011000 &
#2236
b10001011 !
b10001011 (
0%
b10001011 #
1"
#2240
0"
#2241
b100011001 &
#2244
1%
1"
#2248
b10001101 '
0"
#2249
b100011010 &
#2252
b10001100 !
b10001100 (
0%
b10001100 #
1"
#2256
0"
#2257
b100011011 &
#2260
1%
1"
#2264
b10001110 '
0"
#2265
b100011100 &
#2268
b10001101 !
b10001101 (
0%
b10001101 #
1"
#2272
0"
#2273
b100011101 &
#2276
1%
1"
#2280
b10001111 '
0"
#2281
b100011110 &
#2284
b10001110 !
b10001110 (
0%
b10001110 #
1"
#2288
0"
#2289
b100011111 &
#2292
1%
1"
#2296
b10010000 '
0"
#2297
b100100000 &
#2300
b10001111 !
b10001111 (
0%
b10001111 #
1"
#2304
0"
#2305
b100100001 &
#2308
1%
1"
#2312
b10010001 '
0"
#2313
b100100010 &
#2316
b10010000 !
b10010000 (
0%
b10010000 #
1"
#2320
0"
#2321
b100100011 &
#2324
1%
1"
#2328
b10010010 '
0"
#2329
b100100100 &
#2332
b10010001 !
b10010001 (
0%
b10010001 #
1"
#2336
0"
#2337
b100100101 &
#2340
1%
1"
#2344
b10010011 '
0"
#2345
b100100110 &
#2348
b10010010 !
b10010010 (
0%
b10010010 #
1"
#2352
0"
#2353
b100100111 &
#2356
1%
1"
#2360
b10010100 '
0"
#2361
b100101000 &
#2364
b10010011 !
b10010011 (
0%
b10010011 #
1"
#2368
0"
#2369
b100101001 &
#2372
1%
1"
#2376
b10010101 '
0"
#2377
b100101010 &
#2380
b10010100 !
b10010100 (
0%
b10010100 #
1"
#2384
0"
#2385
b100101011 &
#2388
1%
1"
#2392
b10010110 '
0"
#2393
b100101100 &
#2396
b10010101 !
b10010101 (
0%
b10010101 #
1"
#2400
0"
#2401
b100101101 &
#2404
1%
1"
#2408
b10010111 '
0"
#2409
b100101110 &
#2412
b10010110 !
b10010110 (
0%
b10010110 #
1"
#2416
0"
#2417
b100101111 &
#2420
1%
1"
#2424
b10011000 '
0"
#2425
b100110000 &
#2428
b10010111 !
b10010111 (
0%
b10010111 #
1"
#2432
0"
#2433
b100110001 &
#2436
1%
1"
#2440
b10011001 '
0"
#2441
b100110010 &
#2444
b10011000 !
b10011000 (
0%
b10011000 #
1"
#2448
0"
#2449
b100110011 &
#2452
1%
1"
#2456
b10011010 '
0"
#2457
b100110100 &
#2460
b10011001 !
b10011001 (
0%
b10011001 #
1"
#2464
0"
#2465
b100110101 &
#2468
1%
1"
#2472
b10011011 '
0"
#2473
b100110110 &
#2476
b10011010 !
b10011010 (
0%
b10011010 #
1"
#2480
0"
#2481
b100110111 &
#2484
1%
1"
#2488
b10011100 '
0"
#2489
b100111000 &
#2492
b10011011 !
b10011011 (
0%
b10011011 #
1"
#2496
0"
#2497
b100111001 &
#2500
1%
1"
#2504
b10011101 '
0"
#2505
b100111010 &
#2508
b10011100 !
b10011100 (
0%
b10011100 #
1"
#2512
0"
#2513
b100111011 &
#2516
1%
1"
#2520
b10011110 '
0"
#2521
b100111100 &
#2524
b10011101 !
b10011101 (
0%
b10011101 #
1"
#2528
0"
#2529
b100111101 &
#2532
1%
1"
#2536
b10011111 '
0"
#2537
b100111110 &
#2540
b10011110 !
b10011110 (
0%
b10011110 #
1"
#2544
0"
#2545
b100111111 &
#2548
1%
1"
#2552
b10100000 '
0"
#2553
b101000000 &
#2556
b10011111 !
b10011111 (
0%
b10011111 #
1"
#2560
0"
#2561
b101000001 &
#2564
1%
1"
#2568
b10100001 '
0"
#2569
b101000010 &
#2572
b10100000 !
b10100000 (
0%
b10100000 #
1"
#2576
0"
#2577
b101000011 &
#2580
1%
1"
#2584
b10100010 '
0"
#2585
b101000100 &
#2588
b10100001 !
b10100001 (
0%
b10100001 #
1"
#2592
0"
#2593
b101000101 &
#2596
1%
1"
#2600
b10100011 '
0"
#2601
b101000110 &
#2604
b10100010 !
b10100010 (
0%
b10100010 #
1"
#2608
0"
#2609
b101000111 &
#2612
1%
1"
#2616
b10100100 '
0"
#2617
b101001000 &
#2620
b10100011 !
b10100011 (
0%
b10100011 #
1"
#2624
0"
#2625
b101001001 &
#2628
1%
1"
#2632
b10100101 '
0"
#2633
b101001010 &
#2636
b10100100 !
b10100100 (
0%
b10100100 #
1"
#2640
0"
#2641
b101001011 &
#2644
1%
1"
#2648
b10100110 '
0"
#2649
b101001100 &
#2652
b10100101 !
b10100101 (
0%
b10100101 #
1"
#2656
0"
#2657
b101001101 &
#2660
1%
1"
#2664
b10100111 '
0"
#2665
b101001110 &
#2668
b10100110 !
b10100110 (
0%
b10100110 #
1"
#2672
0"
#2673
b101001111 &
#2676
1%
1"
#2680
b10101000 '
0"
#2681
b101010000 &
#2684
b10100111 !
b10100111 (
0%
b10100111 #
1"
#2688
0"
#2689
b101010001 &
#2692
1%
1"
#2696
b10101001 '
0"
#2697
b101010010 &
#2700
b10101000 !
b10101000 (
0%
b10101000 #
1"
#2704
0"
#2705
b101010011 &
#2708
1%
1"
#2712
b10101010 '
0"
#2713
b101010100 &
#2716
b10101001 !
b10101001 (
0%
b10101001 #
1"
#2720
0"
#2721
b101010101 &
#2724
1%
1"
#2728
b10101011 '
0"
#2729
b101010110 &
#2732
b10101010 !
b10101010 (
0%
b10101010 #
1"
#2736
0"
#2737
b101010111 &
#2740
1%
1"
#2744
b10101100 '
0"
#2745
b101011000 &
#2748
b10101011 !
b10101011 (
0%
b10101011 #
1"
#2752
0"
#2753
b101011001 &
#2756
1%
1"
#2760
b10101101 '
0"
#2761
b101011010 &
#2764
b10101100 !
b10101100 (
0%
b10101100 #
1"
#2768
0"
#2769
b101011011 &
#2772
1%
1"
#2776
b10101110 '
0"
#2777
b101011100 &
#2780
b10101101 !
b10101101 (
0%
b10101101 #
1"
#2784
0"
#2785
b101011101 &
#2788
1%
1"
#2792
b10101111 '
0"
#2793
b101011110 &
#2796
b10101110 !
b10101110 (
0%
b10101110 #
1"
#2800
0"
#2801
b101011111 &
#2804
1%
1"
#2808
b10110000 '
0"
#2809
b101100000 &
#2812
b10101111 !
b10101111 (
0%
b10101111 #
1"
#2816
0"
#2817
b101100001 &
#2820
1%
1"
#2824
b10110001 '
0"
#2825
b101100010 &
#2828
b10110000 !
b10110000 (
0%
b10110000 #
1"
#2832
0"
#2833
b101100011 &
#2836
1%
1"
#2840
b10110010 '
0"
#2841
b101100100 &
#2844
b10110001 !
b10110001 (
0%
b10110001 #
1"
#2848
0"
#2849
b101100101 &
#2852
1%
1"
#2856
b10110011 '
0"
#2857
b101100110 &
#2860
b10110010 !
b10110010 (
0%
b10110010 #
1"
#2864
0"
#2865
b101100111 &
#2868
1%
1"
#2872
b10110100 '
0"
#2873
b101101000 &
#2876
b10110011 !
b10110011 (
0%
b10110011 #
1"
#2880
0"
#2881
b101101001 &
#2884
1%
1"
#2888
b10110101 '
0"
#2889
b101101010 &
#2892
b10110100 !
b10110100 (
0%
b10110100 #
1"
#2896
0"
#2897
b101101011 &
#2900
1%
1"
#2904
b10110110 '
0"
#2905
b101101100 &
#2908
b10110101 !
b10110101 (
0%
b10110101 #
1"
#2912
0"
#2913
b101101101 &
#2916
1%
1"
#2920
b10110111 '
0"
#2921
b101101110 &
#2924
b10110110 !
b10110110 (
0%
b10110110 #
1"
#2928
0"
#2929
b101101111 &
#2932
1%
1"
