build/vcd/ula.vcd
$date
	Mon Oct 28 15:56:01 2024
$end
$version
	Icarus Verilog
$end
$timescale
	1fs
$end
$scope module ula_TB $end
$var wire 8 ! result [7:0] $end
$var reg 8 " a [7:0] $end
$var reg 8 # b [7:0] $end
$var reg 8 $ expected [7:0] $end
$var reg 3 % ula_op [2:0] $end
$scope module DUT $end
$var wire 8 & a_in [7:0] $end
$var wire 8 ' b_in [7:0] $end
$var wire 3 ( ula_op_in [2:0] $end
$var reg 8 ) result_out [7:0] $end
$upscope $end
$upscope $end
$enddefinitions $end
#0
$dumpvars
b11111111 )
b0 (
b0 '
b11111111 &
b0 %
b11111111 $
b0 #
b11111111 "
b11111111 !
$end
#1
b0 !
b0 )
b0 $
b11111111 #
b11111111 '
#2
b10101010 !
b10101010 )
b10101010 $
b1010101 #
b1010101 '
#3
b0 !
b0 )
b0 $
b11111111 #
b11111111 '
b0 "
b0 &
b1 %
b1 (
#4
b0 #
b0 '
#5
b11111111 "
b11111111 &
#6
b11111111 !
b11111111 )
b11111111 $
b11111111 #
b11111111 '
#7
b0 !
b0 )
b0 $
b0 "
b0 &
#8
b11111111 !
b11111111 )
b11111111 $
b10 %
b10 (
#9
b0 !
b0 )
b0 $
b0 #
b0 '
#10
b11111111 !
b11111111 )
b11111111 $
b11111111 "
b11111111 &
#11
b11111111 #
b11111111 '
#12
b0 !
b0 )
b0 $
b0 #
b0 '
b0 "
b0 &
b11 %
b11 (
#13
b11111111 !
b11111111 )
b11111111 $
b11111111 #
b11111111 '
#14
b0 !
b0 )
b0 $
b11111111 "
b11111111 &
#15
b11111111 !
b11111111 )
b11111111 $
b0 #
b0 '
#16
b1000 !
b1000 )
b1000 $
b1 #
b1 '
b1001 "
b1001 &
#17
b0 !
b0 )
b0 $
b0 #
b0 '
b0 "
b0 &
b100 %
b100 (
#18
b11111111 !
b11111111 )
b11111111 $
b11111111 #
b11111111 '
#19
b11111110 !
b11111110 )
b11111110 $
b11111111 "
b11111111 &
#20
b0 !
b0 )
b0 $
b1 #
b1 '
#21
b0 #
b0 '
b0 "
b0 &
b101 %
b101 (
#22
b11111111 #
b11111111 '
b11111111 "
b11111111 &
#23
b1 !
b1 )
b1 $
b11111110 #
b11111110 '
#24
b11111110 !
b11111110 )
b11111110 $
b1 #
b1 '
#25
b11111111 !
b11111111 )
b11111111 $
b0 "
b0 &
#26
b11111111 #
b11111111 '
b11111110 "
b11111110 &
#27
b11111110 !
b11111110 )
b11111110 $
b11111101 "
b11111101 &
#28
b0 !
b0 )
b0 $
b0 #
b0 '
b0 "
b0 &
b110 %
b110 (
#29
b11111111 #
b11111111 '
#30
b1 "
b1 &
#31
b11111111 "
b11111111 &
#32
b11111111 !
b11111111 )
b11111111 $
b0 #
b0 '
#33
b11111100 !
b11111100 )
b11111100 $
b10 #
b10 '
#34
b0 !
b0 )
b0 $
b0 #
b0 '
b0 "
b0 &
b111 %
b111 (
#35
b11111111 #
b11111111 '
#36
b1 "
b1 &
#37
b11111111 "
b11111111 &
#38
b11111111 !
b11111111 )
b11111111 $
b0 #
b0 '
#39
b111111 !
b111111 )
b111111 $
b10 #
b10 '
