build/logs/instruction_memory_base.log
WARNING: ../instruction_memory/instruction_memory.v:13: $readmemh(instruction_memory.rom): Not enough words in the file for the requested range [0:255].
WARNING: ../instruction_memory/instruction_memory_TB.v:37: $readmemh(instruction_memory.rom): Not enough words in the file for the requested range [0:255].
VCD info: dumpfile instruction_memory_TB.vcd opened for output.

### Test: instruction memory
--------------------------------------------------------------------------------
      TIME     CLK     PC INSTRUCTION EXPECTED
         0    0x00    0x00    0xxx      0xb0
         4    0x01    0x00    0xb0      0xb0
         8    0x00    0x01    0xb0      0x43
        12    0x01    0x01    0x43      0x43
        16    0x00    0x02    0x43      0x7c
        20    0x01    0x02    0x7c      0x7c
        24    0x00    0x03    0x7c      0xb0
        28    0x01    0x03    0xb0      0xb0
        32    0x00    0x04    0xb0      0x44
        36    0x01    0x04    0x44      0x44
        40    0x00    0x05    0x44      0x74
        44    0x01    0x05    0x74      0x74
        48    0x00    0x06    0x74      0xb0
        52    0x01    0x06    0xb0      0xb0
        56    0x00    0x07    0xb0      0x4c
        60    0x01    0x07    0x4c      0x4c
        64    0x00    0x08    0x4c      0xe1
        68    0x01    0x08    0xe1      0xe1
        72    0x00    0x09    0xe1      0xf1
        76    0x01    0x09    0xf1      0xf1
        80    0x00    0x0a    0xf1      0x78
        84    0x01    0x0a    0x78      0x78
        88    0x00    0x0b    0x78      0xb0
        92    0x01    0x0b    0xb0      0xb0
        96    0x00    0x0c    0xb0      0x41
       100    0x01    0x0c    0x41      0x41
       104    0x00    0x0d    0x41      0xe0
       108    0x01    0x0d    0xe0      0xe0
       112    0x00    0x0e    0xe0      0xe0
       116    0x01    0x0e    0xe0      0xe0
       120    0x00    0x0f    0xe0      0x42
       124    0x01    0x0f    0x42      0x42
       128    0x00    0x10    0x42      0x74
       132    0x01    0x10    0x74      0x74
       136    0x00    0x11    0x74      0x0c
       140    0x01    0x11    0x0c      0x0c
       144    0x00    0x12    0x0c      0x73
       148    0x01    0x12    0x73      0x73
       152    0x00    0x13    0x73      0x4f
       156    0x01    0x13    0x4f      0x4f
       160    0x00    0x14    0x4f      0x7c
       164    0x01    0x14    0x7c      0x7c
       168    0x00    0x15    0x7c      0xb0
       172    0x01    0x15    0xb0      0xb0
       176    0x00    0x16    0xb0      0x42
       180    0x01    0x16    0x42      0x42
       184    0x00    0x17    0x42      0x74
       188    0x01    0x17    0x74      0x74
       192    0x00    0x18    0x74      0xe1
       196    0x01    0x18    0xe1      0xe1
       200    0x00    0x19    0xe1      0xc1
       204    0x01    0x19    0xc1      0xc1
       208    0x00    0x1a    0xc1      0xe1
       212    0x01    0x1a    0xe1      0xe1
       216    0x00    0x1b    0xe1      0xc1
       220    0x01    0x1b    0xc1      0xc1
       224    0x00    0x1c    0xc1      0xc3
       228    0x01    0x1c    0xc3      0xc3
       232    0x00    0x1d    0xc3      0x74
       236    0x01    0x1d    0x74      0x74
       240    0x00    0x1e    0x74      0x36
       244    0x01    0x1e    0x36      0x36
       248    0x00    0x1f    0x36      0x72
       252    0x01    0x1f    0x72      0x72
       256    0x00    0x20    0x72      0x4f
       260    0x01    0x20    0x4f      0x4f
       264    0x00    0x21    0x4f      0x78
       268    0x01    0x21    0x78      0x78
       272    0x00    0x22    0x78      0x19
       276    0x01    0x22    0x19      0x19
       280    0x00    0x23    0x19      0x00
       284    0x01    0x23    0x00      0x00
       288    0x00    0x24    0x00      0x00
       292    0x01    0x24    0x00      0x00
       296    0x00    0x25    0x00      0x00
       300    0x01    0x25    0x00      0x00
       304    0x00    0x26    0x00      0x00
       308    0x01    0x26    0x00      0x00
       312    0x00    0x27    0x00      0x00
       316    0x01    0x27    0x00      0x00
       320    0x00    0x28    0x00      0x00
       324    0x01    0x28    0x00      0x00
       328    0x00    0x29    0x00      0x00
       332    0x01    0x29    0x00      0x00
       336    0x00    0x2a    0x00      0x00
       340    0x01    0x2a    0x00      0x00
       344    0x00    0x2b    0x00      0x00
       348    0x01    0x2b    0x00      0x00
       352    0x00    0x2c    0x00      0x00
       356    0x01    0x2c    0x00      0x00
       360    0x00    0x2d    0x00      0x00
       364    0x01    0x2d    0x00      0x00
       368    0x00    0x2e    0x00      0x00
       372    0x01    0x2e    0x00      0x00
       376    0x00    0x2f    0x00      0x00
       380    0x01    0x2f    0x00      0x00
       384    0x00    0x30    0x00      0x00
       388    0x01    0x30    0x00      0x00
       392    0x00    0x31    0x00      0x00
       396    0x01    0x31    0x00      0x00
       400    0x00    0x32    0x00      0x00
       404    0x01    0x32    0x00      0x00
       408    0x00    0x33    0x00      0x00
       412    0x01    0x33    0x00      0x00
       416    0x00    0x34    0x00      0x00
       420    0x01    0x34    0x00      0x00
       424    0x00    0x35    0x00      0x00
       428    0x01    0x35    0x00      0x00
       432    0x00    0x36    0x00      0x00
       436    0x01    0x36    0x00      0x00
       440    0x00    0x37    0x00      0x00
       444    0x01    0x37    0x00      0x00
       448    0x00    0x38    0x00      0x00
       452    0x01    0x38    0x00      0x00
       456    0x00    0x39    0x00      0x00
       460    0x01    0x39    0x00      0x00
       464    0x00    0x3a    0x00      0x00
       468    0x01    0x3a    0x00      0x00
       472    0x00    0x3b    0x00      0x00
       476    0x01    0x3b    0x00      0x00
       480    0x00    0x3c    0x00      0x00
       484    0x01    0x3c    0x00      0x00
       488    0x00    0x3d    0x00      0x00
       492    0x01    0x3d    0x00      0x00
       496    0x00    0x3e    0x00      0x00
       500    0x01    0x3e    0x00      0x00
       504    0x00    0x3f    0x00      0x00
       508    0x01    0x3f    0x00      0x00
       512    0x00    0x40    0x00      0x00
       516    0x01    0x40    0x00      0x00
       520    0x00    0x41    0x00      0x00
       524    0x01    0x41    0x00      0x00
       528    0x00    0x42    0x00      0x00
       532    0x01    0x42    0x00      0x00
       536    0x00    0x43    0x00      0x00
       540    0x01    0x43    0x00      0x00
       544    0x00    0x44    0x00      0x00
       548    0x01    0x44    0x00      0x00
       552    0x00    0x45    0x00      0x00
       556    0x01    0x45    0x00      0x00
       560    0x00    0x46    0x00      0x00
       564    0x01    0x46    0x00      0x00
       568    0x00    0x47    0x00      0x00
       572    0x01    0x47    0x00      0x00
       576    0x00    0x48    0x00      0x00
       580    0x01    0x48    0x00      0x00
       584    0x00    0x49    0x00      0x00
       588    0x01    0x49    0x00      0x00
       592    0x00    0x4a    0x00      0x00
       596    0x01    0x4a    0x00      0x00
       600    0x00    0x4b    0x00      0x00
       604    0x01    0x4b    0x00      0x00
       608    0x00    0x4c    0x00      0x00
       612    0x01    0x4c    0x00      0x00
       616    0x00    0x4d    0x00      0x00
       620    0x01    0x4d    0x00      0x00
       624    0x00    0x4e    0x00      0x00
       628    0x01    0x4e    0x00      0x00
       632    0x00    0x4f    0x00      0x00
       636    0x01    0x4f    0x00      0x00
       640    0x00    0x50    0x00      0x00
       644    0x01    0x50    0x00      0x00
       648    0x00    0x51    0x00      0x00
       652    0x01    0x51    0x00      0x00
       656    0x00    0x52    0x00      0x00
       660    0x01    0x52    0x00      0x00
       664    0x00    0x53    0x00      0x00
       668    0x01    0x53    0x00      0x00
       672    0x00    0x54    0x00      0x00
       676    0x01    0x54    0x00      0x00
       680    0x00    0x55    0x00      0x00
       684    0x01    0x55    0x00      0x00
       688    0x00    0x56    0x00      0x00
       692    0x01    0x56    0x00      0x00
       696    0x00    0x57    0x00      0x00
       700    0x01    0x57    0x00      0x00
       704    0x00    0x58    0x00      0x00
       708    0x01    0x58    0x00      0x00
       712    0x00    0x59    0x00      0x00
       716    0x01    0x59    0x00      0x00
       720    0x00    0x5a    0x00      0x00
       724    0x01    0x5a    0x00      0x00
       728    0x00    0x5b    0x00      0x00
       732    0x01    0x5b    0x00      0x00
       736    0x00    0x5c    0x00      0x00
       740    0x01    0x5c    0x00      0x00
       744    0x00    0x5d    0x00      0x00
       748    0x01    0x5d    0x00      0x00
       752    0x00    0x5e    0x00      0x00
       756    0x01    0x5e    0x00      0x00
       760    0x00    0x5f    0x00      0x00
       764    0x01    0x5f    0x00      0x00
       768    0x00    0x60    0x00      0x00
       772    0x01    0x60    0x00      0x00
       776    0x00    0x61    0x00      0x00
       780    0x01    0x61    0x00      0x00
       784    0x00    0x62    0x00      0x00
       788    0x01    0x62    0x00      0x00
       792    0x00    0x63    0x00      0x00
       796    0x01    0x63    0x00      0x00
       800    0x00    0x64    0x00      0x00
       804    0x01    0x64    0x00      0x00
       808    0x00    0x65    0x00      0x00
       812    0x01    0x65    0x00      0x00
       816    0x00    0x66    0x00      0x00
       820    0x01    0x66    0x00      0x00
       824    0x00    0x67    0x00      0x00
       828    0x01    0x67    0x00      0x00
       832    0x00    0x68    0x00      0x00
       836    0x01    0x68    0x00      0x00
       840    0x00    0x69    0x00      0x00
       844    0x01    0x69    0x00      0x00
       848    0x00    0x6a    0x00      0x00
       852    0x01    0x6a    0x00      0x00
       856    0x00    0x6b    0x00      0x00
       860    0x01    0x6b    0x00      0x00
       864    0x00    0x6c    0x00      0x00
       868    0x01    0x6c    0x00      0x00
       872    0x00    0x6d    0x00      0x00
       876    0x01    0x6d    0x00      0x00
       880    0x00    0x6e    0x00      0x00
       884    0x01    0x6e    0x00      0x00
       888    0x00    0x6f    0x00      0x00
       892    0x01    0x6f    0x00      0x00
       896    0x00    0x70    0x00      0x00
       900    0x01    0x70    0x00      0x00
       904    0x00    0x71    0x00      0x00
       908    0x01    0x71    0x00      0x00
       912    0x00    0x72    0x00      0x00
       916    0x01    0x72    0x00      0x00
       920    0x00    0x73    0x00      0x00
       924    0x01    0x73    0x00      0x00
       928    0x00    0x74    0x00      0x00
       932    0x01    0x74    0x00      0x00
       936    0x00    0x75    0x00      0x00
       940    0x01    0x75    0x00      0x00
       944    0x00    0x76    0x00      0x00
       948    0x01    0x76    0x00      0x00
       952    0x00    0x77    0x00      0x00
       956    0x01    0x77    0x00      0x00
       960    0x00    0x78    0x00      0x00
       964    0x01    0x78    0x00      0x00
       968    0x00    0x79    0x00      0x00
       972    0x01    0x79    0x00      0x00
       976    0x00    0x7a    0x00      0x00
       980    0x01    0x7a    0x00      0x00
       984    0x00    0x7b    0x00      0x00
       988    0x01    0x7b    0x00      0x00
       992    0x00    0x7c    0x00      0x00
       996    0x01    0x7c    0x00      0x00
      1000    0x00    0x7d    0x00      0x00
      1004    0x01    0x7d    0x00      0x00
      1008    0x00    0x7e    0x00      0x00
      1012    0x01    0x7e    0x00      0x00
      1016    0x00    0x7f    0x00      0x00
      1020    0x01    0x7f    0x00      0x00
      1024    0x00    0x80    0x00      0x00
      1028    0x01    0x80    0x00      0x00
      1032    0x00    0x81    0x00      0x00
      1036    0x01    0x81    0x00      0x00
      1040    0x00    0x82    0x00      0x00
      1044    0x01    0x82    0x00      0x00
      1048    0x00    0x83    0x00      0x00
      1052    0x01    0x83    0x00      0x00
      1056    0x00    0x84    0x00      0x00
      1060    0x01    0x84    0x00      0x00
      1064    0x00    0x85    0x00      0x00
      1068    0x01    0x85    0x00      0x00
      1072    0x00    0x86    0x00      0x00
      1076    0x01    0x86    0x00      0x00
      1080    0x00    0x87    0x00      0x00
      1084    0x01    0x87    0x00      0x00
      1088    0x00    0x88    0x00      0x00
      1092    0x01    0x88    0x00      0x00
      1096    0x00    0x89    0x00      0x00
      1100    0x01    0x89    0x00      0x00
      1104    0x00    0x8a    0x00      0x00
      1108    0x01    0x8a    0x00      0x00
      1112    0x00    0x8b    0x00      0x00
      1116    0x01    0x8b    0x00      0x00
      1120    0x00    0x8c    0x00      0x00
      1124    0x01    0x8c    0x00      0x00
      1128    0x00    0x8d    0x00      0x00
      1132    0x01    0x8d    0x00      0x00
      1136    0x00    0x8e    0x00      0x00
      1140    0x01    0x8e    0x00      0x00
      1144    0x00    0x8f    0x00      0x00
      1148    0x01    0x8f    0x00      0x00
      1152    0x00    0x90    0x00      0x00
      1156    0x01    0x90    0x00      0x00
      1160    0x00    0x91    0x00      0x00
      1164    0x01    0x91    0x00      0x00
      1168    0x00    0x92    0x00      0x00
      1172    0x01    0x92    0x00      0x00
      1176    0x00    0x93    0x00      0x00
      1180    0x01    0x93    0x00      0x00
      1184    0x00    0x94    0x00      0x00
      1188    0x01    0x94    0x00      0x00
      1192    0x00    0x95    0x00      0x00
      1196    0x01    0x95    0x00      0x00
      1200    0x00    0x96    0x00      0x00
      1204    0x01    0x96    0x00      0x00
      1208    0x00    0x97    0x00      0x00
      1212    0x01    0x97    0x00      0x00
      1216    0x00    0x98    0x00      0x00
      1220    0x01    0x98    0x00      0x00
      1224    0x00    0x99    0x00      0x00
      1228    0x01    0x99    0x00      0x00
      1232    0x00    0x9a    0x00      0x00
      1236    0x01    0x9a    0x00      0x00
      1240    0x00    0x9b    0x00      0x00
      1244    0x01    0x9b    0x00      0x00
      1248    0x00    0x9c    0x00      0x00
      1252    0x01    0x9c    0x00      0x00
      1256    0x00    0x9d    0x00      0x00
      1260    0x01    0x9d    0x00      0x00
      1264    0x00    0x9e    0x00      0x00
      1268    0x01    0x9e    0x00      0x00
      1272    0x00    0x9f    0x00      0x00
      1276    0x01    0x9f    0x00      0x00
      1280    0x00    0xa0    0x00      0x00
      1284    0x01    0xa0    0x00      0x00
      1288    0x00    0xa1    0x00      0x00
      1292    0x01    0xa1    0x00      0x00
      1296    0x00    0xa2    0x00      0x00
      1300    0x01    0xa2    0x00      0x00
      1304    0x00    0xa3    0x00      0x00
      1308    0x01    0xa3    0x00      0x00
      1312    0x00    0xa4    0x00      0x00
      1316    0x01    0xa4    0x00      0x00
      1320    0x00    0xa5    0x00      0x00
      1324    0x01    0xa5    0x00      0x00
      1328    0x00    0xa6    0x00      0x00
      1332    0x01    0xa6    0x00      0x00
      1336    0x00    0xa7    0x00      0x00
      1340    0x01    0xa7    0x00      0x00
      1344    0x00    0xa8    0x00      0x00
      1348    0x01    0xa8    0x00      0x00
      1352    0x00    0xa9    0x00      0x00
      1356    0x01    0xa9    0x00      0x00
      1360    0x00    0xaa    0x00      0x00
      1364    0x01    0xaa    0x00      0x00
      1368    0x00    0xab    0x00      0x00
      1372    0x01    0xab    0x00      0x00
      1376    0x00    0xac    0x00      0x00
      1380    0x01    0xac    0x00      0x00
      1384    0x00    0xad    0x00      0x00
      1388    0x01    0xad    0x00      0x00
      1392    0x00    0xae    0x00      0x00
      1396    0x01    0xae    0x00      0x00
      1400    0x00    0xaf    0x00      0x00
      1404    0x01    0xaf    0x00      0x00
      1408    0x00    0xb0    0x00      0x00
      1412    0x01    0xb0    0x00      0x00
      1416    0x00    0xb1    0x00      0x00
      1420    0x01    0xb1    0x00      0x00
      1424    0x00    0xb2    0x00      0x00
      1428    0x01    0xb2    0x00      0x00
      1432    0x00    0xb3    0x00      0x00
      1436    0x01    0xb3    0x00      0x00
      1440    0x00    0xb4    0x00      0x00
      1444    0x01    0xb4    0x00      0x00
      1448    0x00    0xb5    0x00      0x00
      1452    0x01    0xb5    0x00      0x00
      1456    0x00    0xb6    0x00      0x00
      1460    0x01    0xb6    0x00      0x00
      1464    0x00    0xb7    0x00      0x00
      1468    0x01    0xb7    0x00      0x00
      1472    0x00    0xb8    0x00      0x00
      1476    0x01    0xb8    0x00      0x00
      1480    0x00    0xb9    0x00      0x00
      1484    0x01    0xb9    0x00      0x00
      1488    0x00    0xba    0x00      0x00
      1492    0x01    0xba    0x00      0x00
      1496    0x00    0xbb    0x00      0x00
      1500    0x01    0xbb    0x00      0x00
      1504    0x00    0xbc    0x00      0x00
      1508    0x01    0xbc    0x00      0x00
      1512    0x00    0xbd    0x00      0x00
      1516    0x01    0xbd    0x00      0x00
      1520    0x00    0xbe    0x00      0x00
      1524    0x01    0xbe    0x00      0x00
      1528    0x00    0xbf    0x00      0x00
      1532    0x01    0xbf    0x00      0x00
      1536    0x00    0xc0    0x00      0x00
      1540    0x01    0xc0    0x00      0x00
      1544    0x00    0xc1    0x00      0x00
      1548    0x01    0xc1    0x00      0x00
      1552    0x00    0xc2    0x00      0x00
      1556    0x01    0xc2    0x00      0x00
      1560    0x00    0xc3    0x00      0x00
      1564    0x01    0xc3    0x00      0x00
      1568    0x00    0xc4    0x00      0x00
      1572    0x01    0xc4    0x00      0x00
      1576    0x00    0xc5    0x00      0x00
      1580    0x01    0xc5    0x00      0x00
      1584    0x00    0xc6    0x00      0x00
      1588    0x01    0xc6    0x00      0x00
      1592    0x00    0xc7    0x00      0x00
      1596    0x01    0xc7    0x00      0x00
      1600    0x00    0xc8    0x00      0x00
      1604    0x01    0xc8    0x00      0x00
      1608    0x00    0xc9    0x00      0x00
      1612    0x01    0xc9    0x00      0x00
      1616    0x00    0xca    0x00      0x00
      1620    0x01    0xca    0x00      0x00
      1624    0x00    0xcb    0x00      0x00
      1628    0x01    0xcb    0x00      0x00
      1632    0x00    0xcc    0x00      0x00
      1636    0x01    0xcc    0x00      0x00
      1640    0x00    0xcd    0x00      0x00
      1644    0x01    0xcd    0x00      0x00
      1648    0x00    0xce    0x00      0x00
      1652    0x01    0xce    0x00      0x00
      1656    0x00    0xcf    0x00      0x00
      1660    0x01    0xcf    0x00      0x00
      1664    0x00    0xd0    0x00      0x00
      1668    0x01    0xd0    0x00      0x00
      1672    0x00    0xd1    0x00      0x00
      1676    0x01    0xd1    0x00      0x00
      1680    0x00    0xd2    0x00      0x00
      1684    0x01    0xd2    0x00      0x00
      1688    0x00    0xd3    0x00      0x00
      1692    0x01    0xd3    0x00      0x00
      1696    0x00    0xd4    0x00      0x00
      1700    0x01    0xd4    0x00      0x00
      1704    0x00    0xd5    0x00      0x00
      1708    0x01    0xd5    0x00      0x00
      1712    0x00    0xd6    0x00      0x00
      1716    0x01    0xd6    0x00      0x00
      1720    0x00    0xd7    0x00      0x00
      1724    0x01    0xd7    0x00      0x00
      1728    0x00    0xd8    0x00      0x00
      1732    0x01    0xd8    0x00      0x00
      1736    0x00    0xd9    0x00      0x00
      1740    0x01    0xd9    0x00      0x00
      1744    0x00    0xda    0x00      0x00
      1748    0x01    0xda    0x00      0x00
      1752    0x00    0xdb    0x00      0x00
      1756    0x01    0xdb    0x00      0x00
      1760    0x00    0xdc    0x00      0x00
      1764    0x01    0xdc    0x00      0x00
      1768    0x00    0xdd    0x00      0x00
      1772    0x01    0xdd    0x00      0x00
      1776    0x00    0xde    0x00      0x00
      1780    0x01    0xde    0x00      0x00
      1784    0x00    0xdf    0x00      0x00
      1788    0x01    0xdf    0x00      0x00
      1792    0x00    0xe0    0x00      0x00
      1796    0x01    0xe0    0x00      0x00
      1800    0x00    0xe1    0x00      0x00
      1804    0x01    0xe1    0x00      0x00
      1808    0x00    0xe2    0x00      0x00
      1812    0x01    0xe2    0x00      0x00
      1816    0x00    0xe3    0x00      0x00
      1820    0x01    0xe3    0x00      0x00
      1824    0x00    0xe4    0x00      0x00
      1828    0x01    0xe4    0x00      0x00
      1832    0x00    0xe5    0x00      0x00
      1836    0x01    0xe5    0x00      0x00
      1840    0x00    0xe6    0x00      0x00
      1844    0x01    0xe6    0x00      0x00
      1848    0x00    0xe7    0x00      0x00
      1852    0x01    0xe7    0x00      0x00
      1856    0x00    0xe8    0x00      0x00
      1860    0x01    0xe8    0x00      0x00
      1864    0x00    0xe9    0x00      0x00
      1868    0x01    0xe9    0x00      0x00
      1872    0x00    0xea    0x00      0x00
      1876    0x01    0xea    0x00      0x00
      1880    0x00    0xeb    0x00      0x00
      1884    0x01    0xeb    0x00      0x00
      1888    0x00    0xec    0x00      0x00
      1892    0x01    0xec    0x00      0x00
      1896    0x00    0xed    0x00      0x00
      1900    0x01    0xed    0x00      0x00
      1904    0x00    0xee    0x00      0x00
      1908    0x01    0xee    0x00      0x00
      1912    0x00    0xef    0x00      0x00
      1916    0x01    0xef    0x00      0x00
      1920    0x00    0xf0    0x00      0x00
      1924    0x01    0xf0    0x00      0x00
      1928    0x00    0xf1    0x00      0x00
      1932    0x01    0xf1    0x00      0x00
      1936    0x00    0xf2    0x00      0x00
      1940    0x01    0xf2    0x00      0x00
      1944    0x00    0xf3    0x00      0x00
      1948    0x01    0xf3    0x00      0x00
      1952    0x00    0xf4    0x00      0x00
      1956    0x01    0xf4    0x00      0x00
      1960    0x00    0xf5    0x00      0x00
      1964    0x01    0xf5    0x00      0x00
      1968    0x00    0xf6    0x00      0x00
      1972    0x01    0xf6    0x00      0x00
      1976    0x00    0xf7    0x00      0x00
      1980    0x01    0xf7    0x00      0x00
      1984    0x00    0xf8    0x00      0x00
      1988    0x01    0xf8    0x00      0x00
      1992    0x00    0xf9    0x00      0x00
      1996    0x01    0xf9    0x00      0x00
      2000    0x00    0xfa    0x00      0x00
      2004    0x01    0xfa    0x00      0x00
      2008    0x00    0xfb    0x00      0x00
      2012    0x01    0xfb    0x00      0x00
      2016    0x00    0xfc    0x00      0x00
      2020    0x01    0xfc    0x00      0x00
      2024    0x00    0xfd    0x00      0x00
      2028    0x01    0xfd    0x00      0x00
      2032    0x00    0xfe    0x00      0x00
      2036    0x01    0xfe    0x00      0x00
      2040    0x00    0xff    0x00      0x00
      2044    0x01    0xff    0x00      0x00

