build/logs/sp.log
VCD info: dumpfile sp.vcd opened for output.

### Test: stack pointer
-------------------------------------------------------------------------------------------------
      TIME     CLK     WE      OP      SP   EXPECTED
         0    0x00    0x00    0x01    0x00    0x00
         4    0x01    0x01    0x01    0x00    0x00
         8    0x00    0x01    0x01    0x00    0x00
        12    0x01    0x00    0x01    0x00    0x00
        16    0x00    0x00    0x01    0x00    0x00
        20    0x01    0x01    0x01    0x00    0x00
        24    0x00    0x01    0x01    0x00    0x00
        28    0x01    0x00    0x01    0x01    0x01
        32    0x00    0x00    0x01    0x01    0x01
        36    0x01    0x01    0x01    0x01    0x01
        40    0x00    0x01    0x01    0x01    0x01
        44    0x01    0x00    0x01    0x02    0x02
        48    0x00    0x00    0x01    0x02    0x02
        52    0x01    0x01    0x01    0x02    0x02
        56    0x00    0x01    0x01    0x02    0x02
        60    0x01    0x00    0x01    0x03    0x03
        64    0x00    0x00    0x01    0x03    0x03
        68    0x01    0x01    0x01    0x03    0x03
        72    0x00    0x01    0x01    0x03    0x03
        76    0x01    0x00    0x01    0x04    0x04
        80    0x00    0x00    0x01    0x04    0x04
        84    0x01    0x01    0x01    0x04    0x04
        88    0x00    0x01    0x01    0x04    0x04
        92    0x01    0x00    0x01    0x05    0x05
        96    0x00    0x00    0x01    0x05    0x05
       100    0x01    0x01    0x01    0x05    0x05
       104    0x00    0x01    0x01    0x05    0x05
       108    0x01    0x00    0x01    0x06    0x06
       112    0x00    0x00    0x01    0x06    0x06
       116    0x01    0x01    0x01    0x06    0x06
       120    0x00    0x01    0x01    0x06    0x06
       124    0x01    0x00    0x01    0x07    0x07
       128    0x00    0x00    0x01    0x07    0x07
       132    0x01    0x01    0x01    0x07    0x07
       136    0x00    0x01    0x01    0x07    0x07
       140    0x01    0x00    0x01    0x08    0x08
       144    0x00    0x00    0x01    0x08    0x08
       148    0x01    0x01    0x01    0x08    0x08
       152    0x00    0x01    0x01    0x08    0x08
       156    0x01    0x00    0x01    0x09    0x09
       160    0x00    0x00    0x01    0x09    0x09
       164    0x01    0x01    0x01    0x09    0x09
       168    0x00    0x01    0x01    0x09    0x09
       172    0x01    0x00    0x01    0x0a    0x0a
       176    0x00    0x00    0x01    0x0a    0x0a
       180    0x01    0x01    0x01    0x0a    0x0a
       184    0x00    0x01    0x01    0x0a    0x0a
       188    0x01    0x00    0x01    0x0b    0x0b
       192    0x00    0x00    0x01    0x0b    0x0b
       196    0x01    0x01    0x01    0x0b    0x0b
       200    0x00    0x01    0x01    0x0b    0x0b
       204    0x01    0x00    0x01    0x0c    0x0c
       208    0x00    0x00    0x01    0x0c    0x0c
       212    0x01    0x01    0x01    0x0c    0x0c
       216    0x00    0x01    0x01    0x0c    0x0c
       220    0x01    0x00    0x01    0x0d    0x0d
       224    0x00    0x00    0x01    0x0d    0x0d
       228    0x01    0x01    0x01    0x0d    0x0d
       232    0x00    0x01    0x01    0x0d    0x0d
       236    0x01    0x00    0x01    0x0e    0x0e
       240    0x00    0x00    0x01    0x0e    0x0e
       244    0x01    0x01    0x01    0x0e    0x0e
       248    0x00    0x01    0x01    0x0e    0x0e
       252    0x01    0x00    0x01    0x0f    0x0f
       256    0x00    0x00    0x01    0x0f    0x0f
       260    0x01    0x01    0x01    0x0f    0x0f
       264    0x00    0x01    0x01    0x0f    0x0f
       268    0x01    0x00    0x01    0x10    0x10
       272    0x00    0x00    0x01    0x10    0x10
       276    0x01    0x01    0x01    0x10    0x10
       280    0x00    0x01    0x01    0x10    0x10
       284    0x01    0x00    0x01    0x11    0x11
       288    0x00    0x00    0x01    0x11    0x11
       292    0x01    0x01    0x01    0x11    0x11
       296    0x00    0x01    0x01    0x11    0x11
       300    0x01    0x00    0x01    0x12    0x12
       304    0x00    0x00    0x01    0x12    0x12
       308    0x01    0x01    0x01    0x12    0x12
       312    0x00    0x01    0x01    0x12    0x12
       316    0x01    0x00    0x01    0x13    0x13
       320    0x00    0x00    0x01    0x13    0x13
       324    0x01    0x01    0x01    0x13    0x13
       328    0x00    0x01    0x01    0x13    0x13
       332    0x01    0x00    0x01    0x14    0x14
       336    0x00    0x00    0x01    0x14    0x14
       340    0x01    0x01    0x01    0x14    0x14
       344    0x00    0x01    0x01    0x14    0x14
       348    0x01    0x00    0x01    0x15    0x15
       352    0x00    0x00    0x01    0x15    0x15
       356    0x01    0x01    0x01    0x15    0x15
       360    0x00    0x01    0x01    0x15    0x15
       364    0x01    0x00    0x01    0x16    0x16
       368    0x00    0x00    0x01    0x16    0x16
       372    0x01    0x01    0x01    0x16    0x16
       376    0x00    0x01    0x01    0x16    0x16
       380    0x01    0x00    0x01    0x17    0x17
       384    0x00    0x00    0x01    0x17    0x17
       388    0x01    0x01    0x01    0x17    0x17
       392    0x00    0x01    0x01    0x17    0x17
       396    0x01    0x00    0x01    0x18    0x18
       400    0x00    0x00    0x01    0x18    0x18
       404    0x01    0x01    0x01    0x18    0x18
       408    0x00    0x01    0x01    0x18    0x18
       412    0x01    0x00    0x01    0x19    0x19
       416    0x00    0x00    0x01    0x19    0x19
       420    0x01    0x01    0x01    0x19    0x19
       424    0x00    0x01    0x01    0x19    0x19
       428    0x01    0x00    0x01    0x1a    0x1a
       432    0x00    0x00    0x01    0x1a    0x1a
       436    0x01    0x01    0x01    0x1a    0x1a
       440    0x00    0x01    0x01    0x1a    0x1a
       444    0x01    0x00    0x01    0x1b    0x1b
       448    0x00    0x00    0x01    0x1b    0x1b
       452    0x01    0x01    0x01    0x1b    0x1b
       456    0x00    0x01    0x01    0x1b    0x1b
       460    0x01    0x00    0x01    0x1c    0x1c
       464    0x00    0x00    0x01    0x1c    0x1c
       468    0x01    0x01    0x01    0x1c    0x1c
       472    0x00    0x01    0x01    0x1c    0x1c
       476    0x01    0x00    0x01    0x1d    0x1d
       480    0x00    0x00    0x01    0x1d    0x1d
       484    0x01    0x01    0x01    0x1d    0x1d
       488    0x00    0x01    0x01    0x1d    0x1d
       492    0x01    0x00    0x01    0x1e    0x1e
       496    0x00    0x00    0x01    0x1e    0x1e
       500    0x01    0x01    0x01    0x1e    0x1e
       504    0x00    0x01    0x01    0x1e    0x1e
       508    0x01    0x00    0x01    0x1f    0x1f
       512    0x00    0x00    0x01    0x1f    0x1f
       516    0x01    0x01    0x01    0x1f    0x1f
       520    0x00    0x01    0x01    0x1f    0x1f
       524    0x01    0x00    0x01    0x20    0x20
       528    0x00    0x00    0x01    0x20    0x20
       532    0x01    0x01    0x01    0x20    0x20
       536    0x00    0x01    0x01    0x20    0x20
       540    0x01    0x00    0x01    0x21    0x21
       544    0x00    0x00    0x01    0x21    0x21
       548    0x01    0x01    0x01    0x21    0x21
       552    0x00    0x01    0x01    0x21    0x21
       556    0x01    0x00    0x01    0x22    0x22
       560    0x00    0x00    0x01    0x22    0x22
       564    0x01    0x01    0x01    0x22    0x22
       568    0x00    0x01    0x01    0x22    0x22
       572    0x01    0x00    0x01    0x23    0x23
       576    0x00    0x00    0x01    0x23    0x23
       580    0x01    0x01    0x01    0x23    0x23
       584    0x00    0x01    0x01    0x23    0x23
       588    0x01    0x00    0x01    0x24    0x24
       592    0x00    0x00    0x01    0x24    0x24
       596    0x01    0x01    0x01    0x24    0x24
       600    0x00    0x01    0x01    0x24    0x24
       604    0x01    0x00    0x01    0x25    0x25
       608    0x00    0x00    0x01    0x25    0x25
       612    0x01    0x01    0x01    0x25    0x25
       616    0x00    0x01    0x01    0x25    0x25
       620    0x01    0x00    0x01    0x26    0x26
       624    0x00    0x00    0x01    0x26    0x26
       628    0x01    0x01    0x01    0x26    0x26
       632    0x00    0x01    0x01    0x26    0x26
       636    0x01    0x00    0x01    0x27    0x27
       640    0x00    0x00    0x01    0x27    0x27
       644    0x01    0x01    0x01    0x27    0x27
       648    0x00    0x01    0x01    0x27    0x27
       652    0x01    0x00    0x01    0x28    0x28
       656    0x00    0x00    0x01    0x28    0x28
       660    0x01    0x01    0x01    0x28    0x28
       664    0x00    0x01    0x01    0x28    0x28
       668    0x01    0x00    0x01    0x29    0x29
       672    0x00    0x00    0x01    0x29    0x29
       676    0x01    0x01    0x01    0x29    0x29
       680    0x00    0x01    0x01    0x29    0x29
       684    0x01    0x00    0x01    0x2a    0x2a
       688    0x00    0x00    0x01    0x2a    0x2a
       692    0x01    0x01    0x01    0x2a    0x2a
       696    0x00    0x01    0x01    0x2a    0x2a
       700    0x01    0x00    0x01    0x2b    0x2b
       704    0x00    0x00    0x01    0x2b    0x2b
       708    0x01    0x01    0x01    0x2b    0x2b
       712    0x00    0x01    0x01    0x2b    0x2b
       716    0x01    0x00    0x01    0x2c    0x2c
       720    0x00    0x00    0x01    0x2c    0x2c
       724    0x01    0x01    0x01    0x2c    0x2c
       728    0x00    0x01    0x01    0x2c    0x2c
       732    0x01    0x00    0x01    0x2d    0x2d
       736    0x00    0x00    0x01    0x2d    0x2d
       740    0x01    0x01    0x01    0x2d    0x2d
       744    0x00    0x01    0x01    0x2d    0x2d
       748    0x01    0x00    0x01    0x2e    0x2e
       752    0x00    0x00    0x01    0x2e    0x2e
       756    0x01    0x01    0x01    0x2e    0x2e
       760    0x00    0x01    0x01    0x2e    0x2e
       764    0x01    0x00    0x01    0x2f    0x2f
       768    0x00    0x00    0x01    0x2f    0x2f
       772    0x01    0x01    0x01    0x2f    0x2f
       776    0x00    0x01    0x01    0x2f    0x2f
       780    0x01    0x00    0x01    0x30    0x30
       784    0x00    0x00    0x01    0x30    0x30
       788    0x01    0x01    0x01    0x30    0x30
       792    0x00    0x01    0x01    0x30    0x30
       796    0x01    0x00    0x01    0x31    0x31
       800    0x00    0x00    0x01    0x31    0x31
       804    0x01    0x01    0x01    0x31    0x31
       808    0x00    0x01    0x01    0x31    0x31
       812    0x01    0x00    0x01    0x32    0x32
       816    0x00    0x00    0x01    0x32    0x32
       820    0x01    0x01    0x01    0x32    0x32
       824    0x00    0x01    0x01    0x32    0x32
       828    0x01    0x00    0x01    0x33    0x33
       832    0x00    0x00    0x01    0x33    0x33
       836    0x01    0x01    0x01    0x33    0x33
       840    0x00    0x01    0x01    0x33    0x33
       844    0x01    0x00    0x01    0x34    0x34
       848    0x00    0x00    0x01    0x34    0x34
       852    0x01    0x01    0x01    0x34    0x34
       856    0x00    0x01    0x01    0x34    0x34
       860    0x01    0x00    0x01    0x35    0x35
       864    0x00    0x00    0x01    0x35    0x35
       868    0x01    0x01    0x01    0x35    0x35
       872    0x00    0x01    0x01    0x35    0x35
       876    0x01    0x00    0x01    0x36    0x36
       880    0x00    0x00    0x01    0x36    0x36
       884    0x01    0x01    0x01    0x36    0x36
       888    0x00    0x01    0x01    0x36    0x36
       892    0x01    0x00    0x01    0x37    0x37
       896    0x00    0x00    0x01    0x37    0x37
       900    0x01    0x01    0x01    0x37    0x37
       904    0x00    0x01    0x01    0x37    0x37
       908    0x01    0x00    0x01    0x38    0x38
       912    0x00    0x00    0x01    0x38    0x38
       916    0x01    0x01    0x01    0x38    0x38
       920    0x00    0x01    0x01    0x38    0x38
       924    0x01    0x00    0x01    0x39    0x39
       928    0x00    0x00    0x01    0x39    0x39
       932    0x01    0x01    0x01    0x39    0x39
       936    0x00    0x01    0x01    0x39    0x39
       940    0x01    0x00    0x01    0x3a    0x3a
       944    0x00    0x00    0x01    0x3a    0x3a
       948    0x01    0x01    0x01    0x3a    0x3a
       952    0x00    0x01    0x01    0x3a    0x3a
       956    0x01    0x00    0x01    0x3b    0x3b
       960    0x00    0x00    0x01    0x3b    0x3b
       964    0x01    0x01    0x01    0x3b    0x3b
       968    0x00    0x01    0x01    0x3b    0x3b
       972    0x01    0x00    0x01    0x3c    0x3c
       976    0x00    0x00    0x01    0x3c    0x3c
       980    0x01    0x01    0x01    0x3c    0x3c
       984    0x00    0x01    0x01    0x3c    0x3c
       988    0x01    0x00    0x01    0x3d    0x3d
       992    0x00    0x00    0x01    0x3d    0x3d
       996    0x01    0x01    0x01    0x3d    0x3d
      1000    0x00    0x01    0x01    0x3d    0x3d
      1004    0x01    0x00    0x01    0x3e    0x3e
      1008    0x00    0x00    0x01    0x3e    0x3e
      1012    0x01    0x01    0x01    0x3e    0x3e
      1016    0x00    0x01    0x01    0x3e    0x3e
      1020    0x01    0x00    0x01    0x3f    0x3f
      1024    0x00    0x00    0x01    0x3f    0x3f
      1028    0x01    0x01    0x01    0x3f    0x3f
      1032    0x00    0x01    0x01    0x3f    0x3f
      1036    0x01    0x00    0x01    0x40    0x40
      1040    0x00    0x00    0x01    0x40    0x40
      1044    0x01    0x01    0x01    0x40    0x40
      1048    0x00    0x01    0x01    0x40    0x40
      1052    0x01    0x00    0x01    0x41    0x41
      1056    0x00    0x00    0x01    0x41    0x41
      1060    0x01    0x01    0x01    0x41    0x41
      1064    0x00    0x01    0x01    0x41    0x41
      1068    0x01    0x00    0x01    0x42    0x42
      1072    0x00    0x00    0x01    0x42    0x42
      1076    0x01    0x01    0x01    0x42    0x42
      1080    0x00    0x01    0x01    0x42    0x42
      1084    0x01    0x00    0x01    0x43    0x43
      1088    0x00    0x00    0x01    0x43    0x43
      1092    0x01    0x01    0x01    0x43    0x43
      1096    0x00    0x01    0x01    0x43    0x43
      1100    0x01    0x00    0x01    0x44    0x44
      1104    0x00    0x00    0x01    0x44    0x44
      1108    0x01    0x01    0x01    0x44    0x44
      1112    0x00    0x01    0x01    0x44    0x44
      1116    0x01    0x00    0x01    0x45    0x45
      1120    0x00    0x00    0x01    0x45    0x45
      1124    0x01    0x01    0x01    0x45    0x45
      1128    0x00    0x01    0x01    0x45    0x45
      1132    0x01    0x00    0x01    0x46    0x46
      1136    0x00    0x00    0x01    0x46    0x46
      1140    0x01    0x01    0x01    0x46    0x46
      1144    0x00    0x01    0x01    0x46    0x46
      1148    0x01    0x00    0x01    0x47    0x47
      1152    0x00    0x00    0x01    0x47    0x47
      1156    0x01    0x01    0x01    0x47    0x47
      1160    0x00    0x01    0x01    0x47    0x47
      1164    0x01    0x00    0x01    0x48    0x48
      1168    0x00    0x00    0x01    0x48    0x48
      1172    0x01    0x01    0x01    0x48    0x48
      1176    0x00    0x01    0x01    0x48    0x48
      1180    0x01    0x00    0x01    0x49    0x49
      1184    0x00    0x00    0x01    0x49    0x49
      1188    0x01    0x01    0x01    0x49    0x49
      1192    0x00    0x01    0x01    0x49    0x49
      1196    0x01    0x00    0x01    0x4a    0x4a
      1200    0x00    0x00    0x01    0x4a    0x4a
      1204    0x01    0x01    0x01    0x4a    0x4a
      1208    0x00    0x01    0x01    0x4a    0x4a
      1212    0x01    0x00    0x01    0x4b    0x4b
      1216    0x00    0x00    0x01    0x4b    0x4b
      1220    0x01    0x01    0x01    0x4b    0x4b
      1224    0x00    0x01    0x01    0x4b    0x4b
      1228    0x01    0x00    0x01    0x4c    0x4c
      1232    0x00    0x00    0x01    0x4c    0x4c
      1236    0x01    0x01    0x01    0x4c    0x4c
      1240    0x00    0x01    0x01    0x4c    0x4c
      1244    0x01    0x00    0x01    0x4d    0x4d
      1248    0x00    0x00    0x01    0x4d    0x4d
      1252    0x01    0x01    0x01    0x4d    0x4d
      1256    0x00    0x01    0x01    0x4d    0x4d
      1260    0x01    0x00    0x01    0x4e    0x4e
      1264    0x00    0x00    0x01    0x4e    0x4e
      1268    0x01    0x01    0x01    0x4e    0x4e
      1272    0x00    0x01    0x01    0x4e    0x4e
      1276    0x01    0x00    0x01    0x4f    0x4f
      1280    0x00    0x00    0x01    0x4f    0x4f
      1284    0x01    0x01    0x01    0x4f    0x4f
      1288    0x00    0x01    0x01    0x4f    0x4f
      1292    0x01    0x00    0x01    0x50    0x50
      1296    0x00    0x00    0x01    0x50    0x50
      1300    0x01    0x01    0x01    0x50    0x50
      1304    0x00    0x01    0x01    0x50    0x50
      1308    0x01    0x00    0x01    0x51    0x51
      1312    0x00    0x00    0x01    0x51    0x51
      1316    0x01    0x01    0x01    0x51    0x51
      1320    0x00    0x01    0x01    0x51    0x51
      1324    0x01    0x00    0x01    0x52    0x52
      1328    0x00    0x00    0x01    0x52    0x52
      1332    0x01    0x01    0x01    0x52    0x52
      1336    0x00    0x01    0x01    0x52    0x52
      1340    0x01    0x00    0x01    0x53    0x53
      1344    0x00    0x00    0x01    0x53    0x53
      1348    0x01    0x01    0x01    0x53    0x53
      1352    0x00    0x01    0x01    0x53    0x53
      1356    0x01    0x00    0x01    0x54    0x54
      1360    0x00    0x00    0x01    0x54    0x54
      1364    0x01    0x01    0x01    0x54    0x54
      1368    0x00    0x01    0x01    0x54    0x54
      1372    0x01    0x00    0x01    0x55    0x55
      1376    0x00    0x00    0x01    0x55    0x55
      1380    0x01    0x01    0x01    0x55    0x55
      1384    0x00    0x01    0x01    0x55    0x55
      1388    0x01    0x00    0x01    0x56    0x56
      1392    0x00    0x00    0x01    0x56    0x56
      1396    0x01    0x01    0x01    0x56    0x56
      1400    0x00    0x01    0x01    0x56    0x56
      1404    0x01    0x00    0x01    0x57    0x57
      1408    0x00    0x00    0x01    0x57    0x57
      1412    0x01    0x01    0x01    0x57    0x57
      1416    0x00    0x01    0x01    0x57    0x57
      1420    0x01    0x00    0x01    0x58    0x58
      1424    0x00    0x00    0x01    0x58    0x58
      1428    0x01    0x01    0x01    0x58    0x58
      1432    0x00    0x01    0x01    0x58    0x58
      1436    0x01    0x00    0x01    0x59    0x59
      1440    0x00    0x00    0x01    0x59    0x59
      1444    0x01    0x01    0x01    0x59    0x59
      1448    0x00    0x01    0x01    0x59    0x59
      1452    0x01    0x00    0x01    0x5a    0x5a
      1456    0x00    0x00    0x01    0x5a    0x5a
      1460    0x01    0x01    0x01    0x5a    0x5a
      1464    0x00    0x01    0x01    0x5a    0x5a
      1468    0x01    0x00    0x01    0x5b    0x5b
      1472    0x00    0x00    0x01    0x5b    0x5b
      1476    0x01    0x01    0x01    0x5b    0x5b
      1480    0x00    0x01    0x01    0x5b    0x5b
      1484    0x01    0x00    0x01    0x5c    0x5c
      1488    0x00    0x00    0x01    0x5c    0x5c
      1492    0x01    0x01    0x01    0x5c    0x5c
      1496    0x00    0x01    0x01    0x5c    0x5c
      1500    0x01    0x00    0x01    0x5d    0x5d
      1504    0x00    0x00    0x01    0x5d    0x5d
      1508    0x01    0x01    0x01    0x5d    0x5d
      1512    0x00    0x01    0x01    0x5d    0x5d
      1516    0x01    0x00    0x01    0x5e    0x5e
      1520    0x00    0x00    0x01    0x5e    0x5e
      1524    0x01    0x01    0x01    0x5e    0x5e
      1528    0x00    0x01    0x01    0x5e    0x5e
      1532    0x01    0x00    0x01    0x5f    0x5f
      1536    0x00    0x00    0x01    0x5f    0x5f
      1540    0x01    0x01    0x01    0x5f    0x5f
      1544    0x00    0x01    0x01    0x5f    0x5f
      1548    0x01    0x00    0x01    0x60    0x60
      1552    0x00    0x00    0x01    0x60    0x60
      1556    0x01    0x01    0x01    0x60    0x60
      1560    0x00    0x01    0x01    0x60    0x60
      1564    0x01    0x00    0x01    0x61    0x61
      1568    0x00    0x00    0x01    0x61    0x61
      1572    0x01    0x01    0x01    0x61    0x61
      1576    0x00    0x01    0x01    0x61    0x61
      1580    0x01    0x00    0x01    0x62    0x62
      1584    0x00    0x00    0x01    0x62    0x62
      1588    0x01    0x01    0x01    0x62    0x62
      1592    0x00    0x01    0x01    0x62    0x62
      1596    0x01    0x00    0x01    0x63    0x63
      1600    0x00    0x00    0x01    0x63    0x63
      1604    0x01    0x01    0x01    0x63    0x63
      1608    0x00    0x01    0x01    0x63    0x63
      1612    0x01    0x00    0x01    0x64    0x64
      1616    0x00    0x00    0x01    0x64    0x64
      1620    0x01    0x01    0x01    0x64    0x64
      1624    0x00    0x01    0x01    0x64    0x64
      1628    0x01    0x00    0x01    0x65    0x65
      1632    0x00    0x00    0x01    0x65    0x65
      1636    0x01    0x01    0x01    0x65    0x65
      1640    0x00    0x01    0x01    0x65    0x65
      1644    0x01    0x00    0x01    0x66    0x66
      1648    0x00    0x00    0x01    0x66    0x66
      1652    0x01    0x01    0x01    0x66    0x66
      1656    0x00    0x01    0x01    0x66    0x66
      1660    0x01    0x00    0x01    0x67    0x67
      1664    0x00    0x00    0x01    0x67    0x67
      1668    0x01    0x01    0x01    0x67    0x67
      1672    0x00    0x01    0x01    0x67    0x67
      1676    0x01    0x00    0x01    0x68    0x68
      1680    0x00    0x00    0x01    0x68    0x68
      1684    0x01    0x01    0x01    0x68    0x68
      1688    0x00    0x01    0x01    0x68    0x68
      1692    0x01    0x00    0x01    0x69    0x69
      1696    0x00    0x00    0x01    0x69    0x69
      1700    0x01    0x01    0x01    0x69    0x69
      1704    0x00    0x01    0x01    0x69    0x69
      1708    0x01    0x00    0x01    0x6a    0x6a
      1712    0x00    0x00    0x01    0x6a    0x6a
      1716    0x01    0x01    0x01    0x6a    0x6a
      1720    0x00    0x01    0x01    0x6a    0x6a
      1724    0x01    0x00    0x01    0x6b    0x6b
      1728    0x00    0x00    0x01    0x6b    0x6b
      1732    0x01    0x01    0x01    0x6b    0x6b
      1736    0x00    0x01    0x01    0x6b    0x6b
      1740    0x01    0x00    0x01    0x6c    0x6c
      1744    0x00    0x00    0x01    0x6c    0x6c
      1748    0x01    0x01    0x01    0x6c    0x6c
      1752    0x00    0x01    0x01    0x6c    0x6c
      1756    0x01    0x00    0x01    0x6d    0x6d
      1760    0x00    0x00    0x01    0x6d    0x6d
      1764    0x01    0x01    0x01    0x6d    0x6d
      1768    0x00    0x01    0x01    0x6d    0x6d
      1772    0x01    0x00    0x01    0x6e    0x6e
      1776    0x00    0x00    0x01    0x6e    0x6e
      1780    0x01    0x01    0x01    0x6e    0x6e
      1784    0x00    0x01    0x01    0x6e    0x6e
      1788    0x01    0x00    0x01    0x6f    0x6f
      1792    0x00    0x00    0x01    0x6f    0x6f
      1796    0x01    0x01    0x01    0x6f    0x6f
      1800    0x00    0x01    0x01    0x6f    0x6f
      1804    0x01    0x00    0x01    0x70    0x70
      1808    0x00    0x00    0x01    0x70    0x70
      1812    0x01    0x01    0x01    0x70    0x70
      1816    0x00    0x01    0x01    0x70    0x70
      1820    0x01    0x00    0x01    0x71    0x71
      1824    0x00    0x00    0x01    0x71    0x71
      1828    0x01    0x01    0x01    0x71    0x71
      1832    0x00    0x01    0x01    0x71    0x71
      1836    0x01    0x00    0x01    0x72    0x72
      1840    0x00    0x00    0x01    0x72    0x72
      1844    0x01    0x01    0x01    0x72    0x72
      1848    0x00    0x01    0x01    0x72    0x72
      1852    0x01    0x00    0x01    0x73    0x73
      1856    0x00    0x00    0x01    0x73    0x73
      1860    0x01    0x01    0x01    0x73    0x73
      1864    0x00    0x01    0x01    0x73    0x73
      1868    0x01    0x00    0x01    0x74    0x74
      1872    0x00    0x00    0x01    0x74    0x74
      1876    0x01    0x01    0x01    0x74    0x74
      1880    0x00    0x01    0x01    0x74    0x74
      1884    0x01    0x00    0x01    0x75    0x75
      1888    0x00    0x00    0x01    0x75    0x75
      1892    0x01    0x01    0x01    0x75    0x75
      1896    0x00    0x01    0x01    0x75    0x75
      1900    0x01    0x00    0x01    0x76    0x76
      1904    0x00    0x00    0x01    0x76    0x76
      1908    0x01    0x01    0x01    0x76    0x76
      1912    0x00    0x01    0x01    0x76    0x76
      1916    0x01    0x00    0x01    0x77    0x77
      1920    0x00    0x00    0x01    0x77    0x77
      1924    0x01    0x01    0x01    0x77    0x77
      1928    0x00    0x01    0x01    0x77    0x77
      1932    0x01    0x00    0x01    0x78    0x78
      1936    0x00    0x00    0x01    0x78    0x78
      1940    0x01    0x01    0x01    0x78    0x78
      1944    0x00    0x01    0x01    0x78    0x78
      1948    0x01    0x00    0x01    0x79    0x79
      1952    0x00    0x00    0x01    0x79    0x79
      1956    0x01    0x01    0x01    0x79    0x79
      1960    0x00    0x01    0x01    0x79    0x79
      1964    0x01    0x00    0x01    0x7a    0x7a
      1968    0x00    0x00    0x01    0x7a    0x7a
      1972    0x01    0x01    0x01    0x7a    0x7a
      1976    0x00    0x01    0x01    0x7a    0x7a
      1980    0x01    0x00    0x01    0x7b    0x7b
      1984    0x00    0x00    0x01    0x7b    0x7b
      1988    0x01    0x01    0x01    0x7b    0x7b
      1992    0x00    0x01    0x01    0x7b    0x7b
      1996    0x01    0x00    0x01    0x7c    0x7c
      2000    0x00    0x00    0x01    0x7c    0x7c
      2004    0x01    0x01    0x01    0x7c    0x7c
      2008    0x00    0x01    0x01    0x7c    0x7c
      2012    0x01    0x00    0x01    0x7d    0x7d
      2016    0x00    0x00    0x01    0x7d    0x7d
      2020    0x01    0x01    0x01    0x7d    0x7d
      2024    0x00    0x01    0x01    0x7d    0x7d
      2028    0x01    0x00    0x01    0x7e    0x7e
      2032    0x00    0x00    0x01    0x7e    0x7e
      2036    0x01    0x01    0x01    0x7e    0x7e
      2040    0x00    0x01    0x01    0x7e    0x7e
      2044    0x01    0x00    0x01    0x7f    0x7f
      2048    0x00    0x00    0x01    0x7f    0x7f
      2052    0x01    0x01    0x01    0x7f    0x7f
      2056    0x00    0x01    0x01    0x7f    0x7f
      2060    0x01    0x00    0x01    0x80    0x80
      2064    0x00    0x00    0x01    0x80    0x80
      2068    0x01    0x01    0x01    0x80    0x80
      2072    0x00    0x01    0x01    0x80    0x80
      2076    0x01    0x00    0x01    0x81    0x81
      2080    0x00    0x00    0x01    0x81    0x81
      2084    0x01    0x01    0x01    0x81    0x81
      2088    0x00    0x01    0x01    0x81    0x81
      2092    0x01    0x00    0x01    0x82    0x82
      2096    0x00    0x00    0x01    0x82    0x82
      2100    0x01    0x01    0x01    0x82    0x82
      2104    0x00    0x01    0x01    0x82    0x82
      2108    0x01    0x00    0x01    0x83    0x83
      2112    0x00    0x00    0x01    0x83    0x83
      2116    0x01    0x01    0x01    0x83    0x83
      2120    0x00    0x01    0x01    0x83    0x83
      2124    0x01    0x00    0x01    0x84    0x84
      2128    0x00    0x00    0x01    0x84    0x84
      2132    0x01    0x01    0x01    0x84    0x84
      2136    0x00    0x01    0x01    0x84    0x84
      2140    0x01    0x00    0x01    0x85    0x85
      2144    0x00    0x00    0x01    0x85    0x85
      2148    0x01    0x01    0x01    0x85    0x85
      2152    0x00    0x01    0x01    0x85    0x85
      2156    0x01    0x00    0x01    0x86    0x86
      2160    0x00    0x00    0x01    0x86    0x86
      2164    0x01    0x01    0x01    0x86    0x86
      2168    0x00    0x01    0x01    0x86    0x86
      2172    0x01    0x00    0x01    0x87    0x87
      2176    0x00    0x00    0x01    0x87    0x87
      2180    0x01    0x01    0x01    0x87    0x87
      2184    0x00    0x01    0x01    0x87    0x87
      2188    0x01    0x00    0x01    0x88    0x88
      2192    0x00    0x00    0x01    0x88    0x88
      2196    0x01    0x01    0x01    0x88    0x88
      2200    0x00    0x01    0x01    0x88    0x88
      2204    0x01    0x00    0x01    0x89    0x89
      2208    0x00    0x00    0x01    0x89    0x89
      2212    0x01    0x01    0x01    0x89    0x89
      2216    0x00    0x01    0x01    0x89    0x89
      2220    0x01    0x00    0x01    0x8a    0x8a
      2224    0x00    0x00    0x01    0x8a    0x8a
      2228    0x01    0x01    0x01    0x8a    0x8a
      2232    0x00    0x01    0x01    0x8a    0x8a
      2236    0x01    0x00    0x01    0x8b    0x8b
      2240    0x00    0x00    0x01    0x8b    0x8b
      2244    0x01    0x01    0x01    0x8b    0x8b
      2248    0x00    0x01    0x01    0x8b    0x8b
      2252    0x01    0x00    0x01    0x8c    0x8c
      2256    0x00    0x00    0x01    0x8c    0x8c
      2260    0x01    0x01    0x01    0x8c    0x8c
      2264    0x00    0x01    0x01    0x8c    0x8c
      2268    0x01    0x00    0x01    0x8d    0x8d
      2272    0x00    0x00    0x01    0x8d    0x8d
      2276    0x01    0x01    0x01    0x8d    0x8d
      2280    0x00    0x01    0x01    0x8d    0x8d
      2284    0x01    0x00    0x01    0x8e    0x8e
      2288    0x00    0x00    0x01    0x8e    0x8e
      2292    0x01    0x01    0x01    0x8e    0x8e
      2296    0x00    0x01    0x01    0x8e    0x8e
      2300    0x01    0x00    0x01    0x8f    0x8f
      2304    0x00    0x00    0x01    0x8f    0x8f
      2308    0x01    0x01    0x01    0x8f    0x8f
      2312    0x00    0x01    0x01    0x8f    0x8f
      2316    0x01    0x00    0x01    0x90    0x90
      2320    0x00    0x00    0x01    0x90    0x90
      2324    0x01    0x01    0x01    0x90    0x90
      2328    0x00    0x01    0x01    0x90    0x90
      2332    0x01    0x00    0x01    0x91    0x91
      2336    0x00    0x00    0x01    0x91    0x91
      2340    0x01    0x01    0x01    0x91    0x91
      2344    0x00    0x01    0x01    0x91    0x91
      2348    0x01    0x00    0x01    0x92    0x92
      2352    0x00    0x00    0x01    0x92    0x92
      2356    0x01    0x01    0x01    0x92    0x92
      2360    0x00    0x01    0x01    0x92    0x92
      2364    0x01    0x00    0x01    0x93    0x93
      2368    0x00    0x00    0x01    0x93    0x93
      2372    0x01    0x01    0x01    0x93    0x93
      2376    0x00    0x01    0x01    0x93    0x93
      2380    0x01    0x00    0x01    0x94    0x94
      2384    0x00    0x00    0x01    0x94    0x94
      2388    0x01    0x01    0x01    0x94    0x94
      2392    0x00    0x01    0x01    0x94    0x94
      2396    0x01    0x00    0x01    0x95    0x95
      2400    0x00    0x00    0x01    0x95    0x95
      2404    0x01    0x01    0x01    0x95    0x95
      2408    0x00    0x01    0x01    0x95    0x95
      2412    0x01    0x00    0x01    0x96    0x96
      2416    0x00    0x00    0x01    0x96    0x96
      2420    0x01    0x01    0x01    0x96    0x96
      2424    0x00    0x01    0x01    0x96    0x96
      2428    0x01    0x00    0x01    0x97    0x97
      2432    0x00    0x00    0x01    0x97    0x97
      2436    0x01    0x01    0x01    0x97    0x97
      2440    0x00    0x01    0x01    0x97    0x97
      2444    0x01    0x00    0x01    0x98    0x98
      2448    0x00    0x00    0x01    0x98    0x98
