build/logs/ula.log
VCD info: dumpfile ula.vcd opened for output.

### Test: not
--------------------------------------------------------------------------------
      TIME   ULA_OP     A       B    RESULT EXPECTED
         0    0x00    0xff    0x00    0xff    0xff
         1    0x00    0xff    0xff    0x00    0x00
         2    0x00    0xff    0x55    0xaa    0xaa

### Test: and
--------------------------------------------------------------------------------
    TIME   ULA_OP     A       B    RESULT EXPECTED
         3    0x01    0x00    0xff    0x00    0x00
         4    0x01    0x00    0x00    0x00    0x00
         5    0x01    0xff    0x00    0x00    0x00
         6    0x01    0xff    0xff    0xff    0xff
         7    0x01    0x00    0xff    0x00    0x00

### Test: or
--------------------------------------------------------------------------------
    TIME   ULA_OP     A       B    RESULT EXPECTED
         8    0x02    0x00    0xff    0xff    0xff
         9    0x02    0x00    0x00    0x00    0x00
        10    0x02    0xff    0x00    0xff    0xff
        11    0x02    0xff    0xff    0xff    0xff

### Test: xor
--------------------------------------------------------------------------------
    TIME   ULA_OP     A       B    RESULT EXPECTED
        12    0x03    0x00    0x00    0x00    0x00
        13    0x03    0x00    0xff    0xff    0xff
        14    0x03    0xff    0xff    0x00    0x00
        15    0x03    0xff    0x00    0xff    0xff
        16    0x03    0x09    0x01    0x08    0x08

### Test: add
--------------------------------------------------------------------------------
    TIME   ULA_OP     A       B    RESULT EXPECTED
        17    0x04    0x00    0x00    0x00    0x00
        18    0x04    0x00    0xff    0xff    0xff
        19    0x04    0xff    0xff    0xfe    0xfe
        20    0x04    0xff    0x01    0x00    0x00

### Test: sub
--------------------------------------------------------------------------------
    TIME   ULA_OP     A       B    RESULT EXPECTED
        21    0x05    0x00    0x00    0x00    0x00
        22    0x05    0xff    0xff    0x00    0x00
        23    0x05    0xff    0xfe    0x01    0x01
        24    0x05    0xff    0x01    0xfe    0xfe
        25    0x05    0x00    0x01    0xff    0xff
        26    0x05    0xfe    0xff    0xff    0xff
        27    0x05    0xfd    0xff    0xfe    0xfe

### Test: left shift
--------------------------------------------------------------------------------
    TIME   ULA_OP     A       B    RESULT EXPECTED
        28    0x06    0x00    0x00    0x00    0x00
        29    0x06    0x00    0xff    0x00    0x00
        30    0x06    0x01    0xff    0x00    0x00
        31    0x06    0xff    0xff    0x00    0x00
        32    0x06    0xff    0x00    0xff    0xff
        33    0x06    0xff    0x02    0xfc    0xfc

### Test: right shift
--------------------------------------------------------------------------------
    TIME   ULA_OP     A       B    RESULT EXPECTED
        34    0x07    0x00    0x00    0x00    0x00
        35    0x07    0x00    0xff    0x00    0x00
        36    0x07    0x01    0xff    0x00    0x00
        37    0x07    0xff    0xff    0x00    0x00
        38    0x07    0xff    0x00    0xff    0xff
        39    0x07    0xff    0x02    0x3f    0x3f

