sp/sp.vcd
$date
	Sun Oct 20 00:32:50 2024
$end
$version
	Icarus Verilog
$end
$timescale
	1fs
$end
$scope module sp_TB $end
$var wire 8 ! sp [7:0] $end
$var reg 1 " clk $end
$var reg 8 # expected [7:0] $end
$var reg 1 $ op $end
$var reg 1 % write_enable $end
$scope module DUT $end
$var wire 1 " clk $end
$var wire 1 $ op $end
$var wire 1 % write_enable $end
$var reg 8 & reg_sp [7:0] $end
$var reg 8 ' sp [7:0] $end
$upscope $end
$upscope $end
$enddefinitions $end
#0
$dumpvars
bx '
b0 &
1%
1$
b0 #
0"
bx !
$end
#4
b0 !
b0 '
b1 &
1"
#8
0%
b1 #
0"
#12
b1 !
b1 '
1"
#16
1%
0"
#20
b10 &
1"
#24
0%
b10 #
0"
#28
b10 !
b10 '
1"
#32
1%
0"
#36
b11 &
1"
#40
0%
b11 #
0"
#44
b11 !
b11 '
1"
#48
1%
0"
#52
b100 &
1"
#56
0%
b100 #
0"
#60
b100 !
b100 '
1"
#64
1%
0"
#68
b101 &
1"
#72
0%
b101 #
0"
#76
b101 !
b101 '
1"
#80
1%
0"
#84
b110 &
1"
#88
0%
b110 #
0"
#92
b110 !
b110 '
1"
#96
1%
0"
#100
b111 &
1"
#104
0%
b111 #
0"
#108
b111 !
b111 '
1"
#112
1%
0"
#116
b1000 &
1"
#120
0%
b1000 #
0"
#124
b1000 !
b1000 '
1"
#128
1%
0"
#132
b1001 &
1"
#136
0%
b1001 #
0"
#140
b1001 !
b1001 '
1"
#144
1%
0"
#148
b1010 &
1"
#152
0%
b1010 #
0"
#156
b1010 !
b1010 '
1"
#160
1%
0"
#164
b1011 &
1"
#168
0%
b1011 #
0"
#172
b1011 !
b1011 '
1"
#176
1%
0"
#180
b1100 &
1"
#184
0%
b1100 #
0"
#188
b1100 !
b1100 '
1"
#192
1%
0"
#196
b1101 &
1"
#200
0%
b1101 #
0"
#204
b1101 !
b1101 '
1"
#208
1%
0"
#212
b1110 &
1"
#216
0%
b1110 #
0"
#220
b1110 !
b1110 '
1"
#224
1%
0"
#228
b1111 &
1"
#232
0%
b1111 #
0"
#236
b1111 !
b1111 '
1"
#240
1%
0"
#244
b10000 &
1"
#248
0%
b10000 #
0"
#252
b10000 !
b10000 '
1"
#256
1%
0"
#260
b10001 &
1"
#264
0%
b10001 #
0"
#268
b10001 !
b10001 '
1"
#272
1%
0"
#276
b10010 &
1"
#280
0%
b10010 #
0"
#284
b10010 !
b10010 '
1"
#288
1%
0"
#292
b10011 &
1"
#296
0%
b10011 #
0"
#300
b10011 !
b10011 '
1"
#304
1%
0"
#308
b10100 &
1"
#312
0%
b10100 #
0"
#316
b10100 !
b10100 '
1"
#320
1%
0"
#324
b10101 &
1"
#328
0%
b10101 #
0"
#332
b10101 !
b10101 '
1"
#336
1%
0"
#340
b10110 &
1"
#344
0%
b10110 #
0"
#348
b10110 !
b10110 '
1"
#352
1%
0"
#356
b10111 &
1"
#360
0%
b10111 #
0"
#364
b10111 !
b10111 '
1"
#368
1%
0"
#372
b11000 &
1"
#376
0%
b11000 #
0"
#380
b11000 !
b11000 '
1"
#384
1%
0"
#388
b11001 &
1"
#392
0%
b11001 #
0"
#396
b11001 !
b11001 '
1"
#400
1%
0"
#404
b11010 &
1"
#408
0%
b11010 #
0"
#412
b11010 !
b11010 '
1"
#416
1%
0"
#420
b11011 &
1"
#424
0%
b11011 #
0"
#428
b11011 !
b11011 '
1"
#432
1%
0"
#436
b11100 &
1"
#440
0%
b11100 #
0"
#444
b11100 !
b11100 '
1"
#448
1%
0"
#452
b11101 &
1"
#456
0%
b11101 #
0"
#460
b11101 !
b11101 '
1"
#464
1%
0"
#468
b11110 &
1"
#472
0%
b11110 #
0"
#476
b11110 !
b11110 '
1"
#480
1%
0"
#484
b11111 &
1"
#488
0%
b11111 #
0"
#492
b11111 !
b11111 '
1"
#496
1%
0"
#500
b100000 &
1"
#504
0%
b100000 #
0"
#508
b100000 !
b100000 '
1"
#512
1%
0"
#516
b100001 &
1"
#520
0%
b100001 #
0"
#524
b100001 !
b100001 '
1"
#528
1%
0"
#532
b100010 &
1"
#536
0%
b100010 #
0"
#540
b100010 !
b100010 '
1"
#544
1%
0"
#548
b100011 &
1"
#552
0%
b100011 #
0"
#556
b100011 !
b100011 '
1"
#560
1%
0"
#564
b100100 &
1"
#568
0%
b100100 #
0"
#572
b100100 !
b100100 '
1"
#576
1%
0"
#580
b100101 &
1"
#584
0%
b100101 #
0"
#588
b100101 !
b100101 '
1"
#592
1%
0"
#596
b100110 &
1"
#600
0%
b100110 #
0"
#604
b100110 !
b100110 '
1"
#608
1%
0"
#612
b100111 &
1"
#616
0%
b100111 #
0"
#620
b100111 !
b100111 '
1"
#624
1%
0"
#628
b101000 &
1"
#632
0%
b101000 #
0"
#636
b101000 !
b101000 '
1"
#640
1%
0"
#644
b101001 &
1"
#648
0%
b101001 #
0"
#652
b101001 !
b101001 '
1"
#656
1%
0"
#660
b101010 &
1"
#664
0%
b101010 #
0"
#668
b101010 !
b101010 '
1"
#672
1%
0"
#676
b101011 &
1"
#680
0%
b101011 #
0"
#684
b101011 !
b101011 '
1"
#688
1%
0"
#692
b101100 &
1"
#696
0%
b101100 #
0"
#700
b101100 !
b101100 '
1"
#704
1%
0"
#708
b101101 &
1"
#712
0%
b101101 #
0"
#716
b101101 !
b101101 '
1"
#720
1%
0"
#724
b101110 &
1"
#728
0%
b101110 #
0"
#732
b101110 !
b101110 '
1"
#736
1%
0"
#740
b101111 &
1"
#744
0%
b101111 #
0"
#748
b101111 !
b101111 '
1"
#752
1%
0"
#756
b110000 &
1"
#760
0%
b110000 #
0"
#764
b110000 !
b110000 '
1"
#768
1%
0"
#772
b110001 &
1"
#776
0%
b110001 #
0"
#780
b110001 !
b110001 '
1"
#784
1%
0"
#788
b110010 &
1"
#792
0%
b110010 #
0"
#796
b110010 !
b110010 '
1"
#800
1%
0"
#804
b110011 &
1"
#808
0%
b110011 #
0"
#812
b110011 !
b110011 '
1"
#816
1%
0"
#820
b110100 &
1"
#824
0%
b110100 #
0"
#828
b110100 !
b110100 '
1"
#832
1%
0"
#836
b110101 &
1"
#840
0%
b110101 #
0"
#844
b110101 !
b110101 '
1"
#848
1%
0"
#852
b110110 &
1"
#856
0%
b110110 #
0"
#860
b110110 !
b110110 '
1"
#864
1%
0"
#868
b110111 &
1"
#872
0%
b110111 #
0"
#876
b110111 !
b110111 '
1"
#880
1%
0"
#884
b111000 &
1"
#888
0%
b111000 #
0"
#892
b111000 !
b111000 '
1"
#896
1%
0"
#900
b111001 &
1"
#904
0%
b111001 #
0"
#908
b111001 !
b111001 '
1"
#912
1%
0"
#916
b111010 &
1"
#920
0%
b111010 #
0"
#924
b111010 !
b111010 '
1"
#928
1%
0"
#932
b111011 &
1"
#936
0%
b111011 #
0"
#940
b111011 !
b111011 '
1"
#944
1%
0"
#948
b111100 &
1"
#952
0%
b111100 #
0"
#956
b111100 !
b111100 '
1"
#960
1%
0"
#964
b111101 &
1"
#968
0%
b111101 #
0"
#972
b111101 !
b111101 '
1"
#976
1%
0"
#980
b111110 &
1"
#984
0%
b111110 #
0"
#988
b111110 !
b111110 '
1"
#992
1%
0"
#996
b111111 &
1"
#1000
0%
b111111 #
0"
#1004
b111111 !
b111111 '
1"
#1008
1%
0"
#1012
b1000000 &
1"
#1016
0%
b1000000 #
0"
#1020
b1000000 !
b1000000 '
1"
#1024
1%
0"
#1028
b1000001 &
1"
#1032
0%
b1000001 #
0"
#1036
b1000001 !
b1000001 '
1"
#1040
1%
0"
#1044
b1000010 &
1"
#1048
0%
b1000010 #
0"
#1052
b1000010 !
b1000010 '
1"
#1056
1%
0"
#1060
b1000011 &
1"
#1064
0%
b1000011 #
0"
#1068
b1000011 !
b1000011 '
1"
#1072
1%
0"
#1076
b1000100 &
1"
#1080
0%
b1000100 #
0"
#1084
b1000100 !
b1000100 '
1"
#1088
1%
0"
#1092
b1000101 &
1"
#1096
0%
b1000101 #
0"
#1100
b1000101 !
b1000101 '
1"
#1104
1%
0"
#1108
b1000110 &
1"
#1112
0%
b1000110 #
0"
#1116
b1000110 !
b1000110 '
1"
#1120
1%
0"
#1124
b1000111 &
1"
#1128
0%
b1000111 #
0"
#1132
b1000111 !
b1000111 '
1"
#1136
1%
0"
#1140
b1001000 &
1"
#1144
0%
b1001000 #
0"
#1148
b1001000 !
b1001000 '
1"
#1152
1%
0"
#1156
b1001001 &
1"
#1160
0%
b1001001 #
0"
#1164
b1001001 !
b1001001 '
1"
#1168
1%
0"
#1172
b1001010 &
1"
#1176
0%
b1001010 #
0"
#1180
b1001010 !
b1001010 '
1"
#1184
1%
0"
#1188
b1001011 &
1"
#1192
0%
b1001011 #
0"
#1196
b1001011 !
b1001011 '
1"
#1200
1%
0"
#1204
b1001100 &
1"
#1208
0%
b1001100 #
0"
#1212
b1001100 !
b1001100 '
1"
#1216
1%
0"
#1220
b1001101 &
1"
#1224
0%
b1001101 #
0"
#1228
b1001101 !
b1001101 '
1"
#1232
1%
0"
#1236
b1001110 &
1"
#1240
0%
b1001110 #
0"
#1244
b1001110 !
b1001110 '
1"
#1248
1%
0"
#1252
b1001111 &
1"
#1256
0%
b1001111 #
0"
#1260
b1001111 !
b1001111 '
1"
#1264
1%
0"
#1268
b1010000 &
1"
#1272
0%
b1010000 #
0"
#1276
b1010000 !
b1010000 '
1"
#1280
1%
0"
#1284
b1010001 &
1"
#1288
0%
b1010001 #
0"
#1292
b1010001 !
b1010001 '
1"
#1296
1%
0"
#1300
b1010010 &
1"
#1304
0%
b1010010 #
0"
#1308
b1010010 !
b1010010 '
1"
#1312
1%
0"
#1316
b1010011 &
1"
#1320
0%
b1010011 #
0"
#1324
b1010011 !
b1010011 '
1"
#1328
1%
0"
#1332
b1010100 &
1"
#1336
0%
b1010100 #
0"
#1340
b1010100 !
b1010100 '
1"
#1344
1%
0"
#1348
b1010101 &
1"
#1352
0%
b1010101 #
0"
#1356
b1010101 !
b1010101 '
1"
#1360
1%
0"
#1364
b1010110 &
1"
#1368
0%
b1010110 #
0"
#1372
b1010110 !
b1010110 '
1"
#1376
1%
0"
#1380
b1010111 &
1"
#1384
0%
b1010111 #
0"
#1388
b1010111 !
b1010111 '
1"
#1392
1%
0"
#1396
b1011000 &
1"
#1400
0%
b1011000 #
0"
#1404
b1011000 !
b1011000 '
1"
#1408
1%
0"
#1412
b1011001 &
1"
#1416
0%
b1011001 #
0"
#1420
b1011001 !
b1011001 '
1"
#1424
1%
0"
#1428
b1011010 &
1"
#1432
0%
b1011010 #
0"
#1436
b1011010 !
b1011010 '
1"
#1440
1%
0"
#1444
b1011011 &
1"
#1448
0%
b1011011 #
0"
#1452
b1011011 !
b1011011 '
1"
#1456
1%
0"
#1460
b1011100 &
1"
#1464
0%
b1011100 #
0"
#1468
b1011100 !
b1011100 '
1"
#1472
1%
0"
#1476
b1011101 &
1"
#1480
0%
b1011101 #
0"
#1484
b1011101 !
b1011101 '
1"
#1488
1%
0"
#1492
b1011110 &
1"
#1496
0%
b1011110 #
0"
#1500
b1011110 !
b1011110 '
1"
#1504
1%
0"
#1508
b1011111 &
1"
#1512
0%
b1011111 #
0"
#1516
b1011111 !
b1011111 '
1"
#1520
1%
0"
#1524
b1100000 &
1"
#1528
0%
b1100000 #
0"
#1532
b1100000 !
b1100000 '
1"
#1536
1%
0"
#1540
b1100001 &
1"
#1544
0%
b1100001 #
0"
#1548
b1100001 !
b1100001 '
1"
#1552
1%
0"
#1556
b1100010 &
1"
#1560
0%
b1100010 #
0"
#1564
b1100010 !
b1100010 '
1"
#1568
1%
0"
#1572
b1100011 &
1"
#1576
0%
b1100011 #
0"
#1580
b1100011 !
b1100011 '
1"
#1584
1%
0"
#1588
b1100100 &
1"
#1592
0%
b1100100 #
0"
#1596
b1100100 !
b1100100 '
1"
#1600
1%
0"
#1604
b1100101 &
1"
#1608
0%
b1100101 #
0"
#1612
b1100101 !
b1100101 '
1"
#1616
1%
0"
#1620
b1100110 &
1"
#1624
0%
b1100110 #
0"
#1628
b1100110 !
b1100110 '
1"
#1632
1%
0"
#1636
b1100111 &
1"
#1640
0%
b1100111 #
0"
#1644
b1100111 !
b1100111 '
1"
#1648
1%
0"
#1652
b1101000 &
1"
#1656
0%
b1101000 #
0"
#1660
b1101000 !
b1101000 '
1"
#1664
1%
0"
#1668
b1101001 &
1"
#1672
0%
b1101001 #
0"
#1676
b1101001 !
b1101001 '
1"
#1680
1%
0"
#1684
b1101010 &
1"
#1688
0%
b1101010 #
0"
#1692
b1101010 !
b1101010 '
1"
#1696
1%
0"
#1700
b1101011 &
1"
#1704
0%
b1101011 #
0"
#1708
b1101011 !
b1101011 '
1"
#1712
1%
0"
#1716
b1101100 &
1"
#1720
0%
b1101100 #
0"
#1724
b1101100 !
b1101100 '
1"
#1728
1%
0"
#1732
b1101101 &
1"
#1736
0%
b1101101 #
0"
#1740
b1101101 !
b1101101 '
1"
#1744
1%
0"
#1748
b1101110 &
1"
#1752
0%
b1101110 #
0"
#1756
b1101110 !
b1101110 '
1"
#1760
1%
0"
#1764
b1101111 &
1"
#1768
0%
b1101111 #
0"
#1772
b1101111 !
b1101111 '
1"
#1776
1%
0"
#1780
b1110000 &
1"
#1784
0%
b1110000 #
0"
#1788
b1110000 !
b1110000 '
1"
#1792
1%
0"
#1796
b1110001 &
1"
#1800
0%
b1110001 #
0"
#1804
b1110001 !
b1110001 '
1"
#1808
1%
0"
#1812
b1110010 &
1"
#1816
0%
b1110010 #
0"
#1820
b1110010 !
b1110010 '
1"
#1824
1%
0"
#1828
b1110011 &
1"
#1832
0%
b1110011 #
0"
#1836
b1110011 !
b1110011 '
1"
#1840
1%
0"
#1844
b1110100 &
1"
#1848
0%
b1110100 #
0"
#1852
b1110100 !
b1110100 '
1"
#1856
1%
0"
#1860
b1110101 &
1"
#1864
0%
b1110101 #
0"
#1868
b1110101 !
b1110101 '
1"
#1872
1%
0"
#1876
b1110110 &
1"
#1880
0%
b1110110 #
0"
#1884
b1110110 !
b1110110 '
1"
#1888
1%
0"
#1892
b1110111 &
1"
#1896
0%
b1110111 #
0"
#1900
b1110111 !
b1110111 '
1"
#1904
1%
0"
#1908
b1111000 &
1"
#1912
0%
b1111000 #
0"
#1916
b1111000 !
b1111000 '
1"
#1920
1%
0"
#1924
b1111001 &
1"
#1928
0%
b1111001 #
0"
#1932
b1111001 !
b1111001 '
1"
#1936
1%
0"
#1940
b1111010 &
1"
#1944
0%
b1111010 #
0"
#1948
b1111010 !
b1111010 '
1"
#1952
1%
0"
#1956
b1111011 &
1"
#1960
0%
b1111011 #
0"
#1964
b1111011 !
b1111011 '
1"
#1968
1%
0"
#1972
b1111100 &
1"
#1976
0%
b1111100 #
0"
#1980
b1111100 !
b1111100 '
1"
#1984
1%
0"
#1988
b1111101 &
1"
#1992
0%
b1111101 #
0"
#1996
b1111101 !
b1111101 '
1"
#2000
1%
0"
#2004
b1111110 &
1"
#2008
0%
b1111110 #
0"
#2012
b1111110 !
b1111110 '
1"
#2016
1%
0"
#2020
b1111111 &
1"
#2024
0%
b1111111 #
0"
#2028
b1111111 !
b1111111 '
1"
#2032
1%
0"
#2036
b10000000 &
1"
#2040
0%
b10000000 #
0"
#2044
b10000000 !
b10000000 '
1"
#2048
1%
0"
#2052
b10000001 &
1"
#2056
0%
b10000001 #
0"
#2060
b10000001 !
b10000001 '
1"
#2064
1%
0"
#2068
b10000010 &
1"
#2072
0%
b10000010 #
0"
#2076
b10000010 !
b10000010 '
1"
#2080
1%
0"
#2084
b10000011 &
1"
#2088
0%
b10000011 #
0"
#2092
b10000011 !
b10000011 '
1"
#2096
1%
0"
#2100
b10000100 &
1"
#2104
0%
b10000100 #
0"
#2108
b10000100 !
b10000100 '
1"
#2112
1%
0"
#2116
b10000101 &
1"
#2120
0%
b10000101 #
0"
#2124
b10000101 !
b10000101 '
1"
#2128
1%
0"
#2132
b10000110 &
1"
#2136
0%
b10000110 #
0"
#2140
b10000110 !
b10000110 '
1"
#2144
1%
0"
#2148
b10000111 &
1"
#2152
0%
b10000111 #
0"
#2156
b10000111 !
b10000111 '
1"
#2160
1%
0"
#2164
b10001000 &
1"
#2168
0%
b10001000 #
0"
#2172
b10001000 !
b10001000 '
1"
#2176
1%
0"
#2180
b10001001 &
1"
#2184
0%
b10001001 #
0"
#2188
b10001001 !
b10001001 '
1"
#2192
1%
0"
#2196
b10001010 &
1"
#2200
0%
b10001010 #
0"
#2204
b10001010 !
b10001010 '
1"
#2208
1%
0"
#2212
b10001011 &
1"
#2216
0%
b10001011 #
0"
#2220
b10001011 !
b10001011 '
1"
#2224
1%
0"
#2228
b10001100 &
1"
#2232
0%
b10001100 #
0"
#2236
b10001100 !
b10001100 '
1"
#2240
1%
0"
#2244
b10001101 &
1"
#2248
0%
b10001101 #
0"
#2252
b10001101 !
b10001101 '
1"
#2256
1%
0"
#2260
b10001110 &
1"
#2264
0%
b10001110 #
0"
#2268
b10001110 !
b10001110 '
1"
#2272
1%
0"
#2276
b10001111 &
1"
#2280
0%
b10001111 #
0"
#2284
b10001111 !
b10001111 '
1"
#2288
1%
0"
#2292
b10010000 &
1"
#2296
0%
b10010000 #
0"
#2300
b10010000 !
b10010000 '
1"
#2304
1%
0"
#2308
b10010001 &
1"
#2312
0%
b10010001 #
0"
#2316
b10010001 !
b10010001 '
1"
#2320
1%
0"
#2324
b10010010 &
1"
#2328
0%
b10010010 #
0"
#2332
b10010010 !
b10010010 '
1"
#2336
1%
0"
#2340
b10010011 &
1"
#2344
0%
b10010011 #
0"
#2348
b10010011 !
b10010011 '
1"
#2352
1%
0"
#2356
b10010100 &
1"
#2360
0%
b10010100 #
0"
#2364
b10010100 !
b10010100 '
1"
#2368
1%
0"
#2372
b10010101 &
1"
#2376
0%
b10010101 #
0"
#2380
b10010101 !
b10010101 '
1"
#2384
1%
0"
#2388
b10010110 &
1"
#2392
0%
b10010110 #
0"
#2396
b10010110 !
b10010110 '
1"
#2400
1%
0"
#2404
b10010111 &
1"
#2408
0%
b10010111 #
0"
#2412
b10010111 !
b10010111 '
1"
#2416
1%
0"
#2420
b10011000 &
1"
#2424
0%
b10011000 #
0"
#2428
b10011000 !
b10011000 '
1"
#2432
1%
0"
#2436
b10011001 &
1"
#2440
0%
b10011001 #
0"
#2444
b10011001 !
b10011001 '
1"
#2448
1%
0"
#2452
b10011010 &
1"
#2456
0%
b10011010 #
0"
#2460
b10011010 !
b10011010 '
1"
#2464
1%
0"
#2468
b10011011 &
1"
#2472
0%
b10011011 #
0"
#2476
b10011011 !
b10011011 '
1"
#2480
1%
0"
#2484
b10011100 &
1"
#2488
0%
b10011100 #
0"
#2492
b10011100 !
b10011100 '
1"
#2496
1%
0"
#2500
b10011101 &
1"
#2504
0%
b10011101 #
0"
#2508
b10011101 !
b10011101 '
1"
#2512
1%
0"
#2516
b10011110 &
1"
#2520
0%
b10011110 #
0"
#2524
b10011110 !
b10011110 '
1"
#2528
1%
0"
#2532
b10011111 &
1"
#2536
0%
b10011111 #
0"
#2540
b10011111 !
b10011111 '
1"
#2544
1%
0"
#2548
b10100000 &
1"
#2552
0%
b10100000 #
0"
#2556
b10100000 !
b10100000 '
1"
#2560
1%
0"
#2564
b10100001 &
1"
#2568
0%
b10100001 #
0"
#2572
b10100001 !
b10100001 '
1"
#2576
1%
0"
#2580
b10100010 &
1"
#2584
0%
b10100010 #
0"
#2588
b10100010 !
b10100010 '
1"
#2592
1%
0"
#2596
b10100011 &
1"
#2600
0%
b10100011 #
0"
#2604
b10100011 !
b10100011 '
1"
#2608
1%
0"
#2612
b10100100 &
1"
#2616
0%
b10100100 #
0"
#2620
b10100100 !
b10100100 '
1"
#2624
1%
0"
#2628
b10100101 &
1"
#2632
0%
b10100101 #
0"
#2636
b10100101 !
b10100101 '
1"
#2640
1%
0"
#2644
b10100110 &
1"
#2648
0%
b10100110 #
0"
#2652
b10100110 !
b10100110 '
1"
#2656
1%
0"
#2660
b10100111 &
1"
#2664
0%
b10100111 #
0"
#2668
b10100111 !
b10100111 '
1"
#2672
1%
0"
#2676
b10101000 &
1"
#2680
0%
b10101000 #
0"
#2684
b10101000 !
b10101000 '
1"
#2688
1%
0"
#2692
b10101001 &
1"
#2696
0%
b10101001 #
0"
#2700
b10101001 !
b10101001 '
1"
#2704
1%
0"
#2708
b10101010 &
1"
#2712
0%
b10101010 #
0"
#2716
b10101010 !
b10101010 '
1"
#2720
1%
0"
#2724
b10101011 &
1"
#2728
0%
b10101011 #
0"
#2732
b10101011 !
b10101011 '
1"
#2736
1%
0"
#2740
b10101100 &
1"
#2744
0%
b10101100 #
0"
#2748
b10101100 !
b10101100 '
1"
#2752
1%
0"
#2756
b10101101 &
1"
#2760
0%
b10101101 #
0"
#2764
b10101101 !
b10101101 '
1"
#2768
1%
0"
#2772
b10101110 &
1"
#2776
0%
b10101110 #
0"
#2780
b10101110 !
b10101110 '
1"
#2784
1%
0"
#2788
b10101111 &
1"
#2792
0%
b10101111 #
0"
#2796
b10101111 !
b10101111 '
1"
#2800
1%
0"
#2804
b10110000 &
1"
#2808
0%
b10110000 #
0"
#2812
b10110000 !
b10110000 '
1"
#2816
1%
0"
#2820
b10110001 &
1"
#2824
0%
b10110001 #
0"
#2828
b10110001 !
b10110001 '
1"
#2832
1%
0"
#2836
b10110010 &
1"
#2840
0%
b10110010 #
0"
#2844
b10110010 !
b10110010 '
1"
#2848
1%
0"
#2852
b10110011 &
1"
#2856
0%
b10110011 #
0"
#2860
b10110011 !
b10110011 '
1"
#2864
1%
0"
#2868
b10110100 &
1"
#2872
0%
b10110100 #
0"
#2876
b10110100 !
b10110100 '
1"
#2880
1%
0"
#2884
b10110101 &
1"
#2888
0%
b10110101 #
0"
#2892
b10110101 !
b10110101 '
1"
#2896
1%
0"
#2900
b10110110 &
1"
#2904
0%
b10110110 #
0"
#2908
b10110110 !
b10110110 '
1"
#2912
1%
0"
#2916
b10110111 &
1"
#2920
0%
b10110111 #
0"
#2924
b10110111 !
b10110111 '
1"
#2928
1%
0"
#2932
b10111000 &
1"
#2936
0%
b10111000 #
0"
#2940
b10111000 !
b10111000 '
1"
#2944
1%
0"
#2948
b10111001 &
1"
#2952
0%
b10111001 #
0"
#2956
b10111001 !
b10111001 '
1"
#2960
1%
0"
#2964
b10111010 &
1"
#2968
0%
b10111010 #
0"
#2972
b10111010 !
b10111010 '
1"
#2976
1%
0"
#2980
b10111011 &
1"
#2984
0%
b10111011 #
0"
#2988
b10111011 !
b10111011 '
1"
#2992
1%
0"
#2996
b10111100 &
1"
#3000
0%
b10111100 #
0"
#3004
b10111100 !
b10111100 '
1"
#3008
1%
0"
#3012
b10111101 &
1"
#3016
0%
b10111101 #
0"
#3020
b10111101 !
b10111101 '
1"
#3024
1%
0"
#3028
b10111110 &
1"
#3032
0%
b10111110 #
0"
#3036
b10111110 !
b10111110 '
1"
#3040
1%
0"
#3044
b10111111 &
1"
#3048
0%
b10111111 #
0"
#3052
b10111111 !
b10111111 '
1"
#3056
1%
0"
#3060
b11000000 &
1"
#3064
0%
b11000000 #
0"
#3068
b11000000 !
b11000000 '
1"
#3072
1%
0"
#3076
b11000001 &
1"
#3080
0%
b11000001 #
0"
#3084
b11000001 !
b11000001 '
1"
#3088
1%
0"
#3092
b11000010 &
1"
#3096
0%
b11000010 #
0"
#3100
b11000010 !
b11000010 '
1"
#3104
1%
0"
#3108
b11000011 &
1"
#3112
0%
b11000011 #
0"
#3116
b11000011 !
b11000011 '
1"
#3120
1%
0"
#3124
b11000100 &
1"
#3128
0%
b11000100 #
0"
#3132
b11000100 !
b11000100 '
1"
#3136
1%
0"
#3140
b11000101 &
1"
#3144
0%
b11000101 #
0"
#3148
b11000101 !
b11000101 '
1"
#3152
1%
0"
#3156
b11000110 &
1"
#3160
0%
b11000110 #
0"
#3164
b11000110 !
b11000110 '
1"
#3168
1%
0"
#3172
b11000111 &
1"
#3176
0%
b11000111 #
0"
#3180
b11000111 !
b11000111 '
1"
#3184
1%
0"
#3188
b11001000 &
1"
#3192
0%
b11001000 #
0"
#3196
b11001000 !
b11001000 '
1"
#3200
1%
0"
#3204
b11001001 &
1"
#3208
0%
b11001001 #
0"
#3212
b11001001 !
b11001001 '
1"
#3216
1%
0"
#3220
b11001010 &
1"
#3224
0%
b11001010 #
0"
#3228
b11001010 !
b11001010 '
1"
#3232
1%
0"
#3236
b11001011 &
1"
#3240
0%
b11001011 #
0"
#3244
b11001011 !
b11001011 '
1"
#3248
1%
0"
#3252
b11001100 &
1"
#3256
0%
b11001100 #
0"
#3260
b11001100 !
b11001100 '
1"
#3264
1%
0"
#3268
b11001101 &
1"
#3272
0%
b11001101 #
0"
#3276
b11001101 !
b11001101 '
1"
#3280
1%
0"
#3284
b11001110 &
1"
#3288
0%
b11001110 #
0"
#3292
b11001110 !
b11001110 '
1"
#3296
1%
0"
#3300
b11001111 &
1"
#3304
0%
b11001111 #
0"
#3308
b11001111 !
b11001111 '
1"
#3312
1%
0"
#3316
b11010000 &
1"
#3320
0%
b11010000 #
0"
#3324
b11010000 !
b11010000 '
1"
#3328
1%
0"
#3332
b11010001 &
1"
#3336
0%
b11010001 #
0"
#3340
b11010001 !
b11010001 '
1"
#3344
1%
0"
#3348
b11010010 &
1"
#3352
0%
b11010010 #
0"
#3356
b11010010 !
b11010010 '
1"
#3360
1%
0"
#3364
b11010011 &
1"
#3368
0%
b11010011 #
0"
#3372
b11010011 !
b11010011 '
1"
#3376
1%
0"
#3380
b11010100 &
1"
#3384
0%
b11010100 #
0"
#3388
b11010100 !
b11010100 '
1"
#3392
1%
0"
#3396
b11010101 &
1"
#3400
0%
b11010101 #
0"
#3404
b11010101 !
b11010101 '
1"
#3408
1%
0"
#3412
b11010110 &
1"
#3416
0%
b11010110 #
0"
#3420
b11010110 !
b11010110 '
1"
#3424
1%
0"
#3428
b11010111 &
1"
#3432
0%
b11010111 #
0"
#3436
b11010111 !
b11010111 '
1"
#3440
1%
0"
#3444
b11011000 &
1"
#3448
0%
b11011000 #
0"
#3452
b11011000 !
b11011000 '
1"
#3456
1%
0"
#3460
b11011001 &
1"
#3464
0%
b11011001 #
0"
#3468
b11011001 !
b11011001 '
1"
#3472
1%
0"
#3476
b11011010 &
1"
#3480
0%
b11011010 #
0"
#3484
b11011010 !
b11011010 '
1"
#3488
1%
0"
#3492
b11011011 &
1"
#3496
0%
b11011011 #
0"
#3500
b11011011 !
b11011011 '
1"
#3504
1%
0"
#3508
b11011100 &
1"
#3512
0%
b11011100 #
0"
#3516
b11011100 !
b11011100 '
1"
#3520
1%
0"
#3524
b11011101 &
1"
#3528
0%
b11011101 #
0"
#3532
b11011101 !
b11011101 '
1"
#3536
1%
0"
#3540
b11011110 &
1"
#3544
0%
b11011110 #
0"
#3548
b11011110 !
b11011110 '
1"
#3552
1%
0"
#3556
b11011111 &
1"
#3560
0%
b11011111 #
0"
#3564
b11011111 !
b11011111 '
1"
#3568
1%
0"
#3572
b11100000 &
1"
#3576
0%
b11100000 #
0"
#3580
b11100000 !
b11100000 '
1"
#3584
1%
0"
#3588
b11100001 &
1"
#3592
0%
b11100001 #
0"
#3596
b11100001 !
b11100001 '
1"
#3600
1%
0"
#3604
b11100010 &
1"
#3608
0%
b11100010 #
0"
#3612
b11100010 !
b11100010 '
1"
#3616
1%
0"
#3620
b11100011 &
1"
#3624
0%
b11100011 #
0"
#3628
b11100011 !
b11100011 '
1"
#3632
1%
0"
#3636
b11100100 &
1"
#3640
0%
b11100100 #
0"
#3644
b11100100 !
b11100100 '
1"
#3648
1%
0"
#3652
b11100101 &
1"
#3656
0%
b11100101 #
0"
#3660
b11100101 !
b11100101 '
1"
#3664
1%
0"
#3668
b11100110 &
1"
#3672
0%
b11100110 #
0"
#3676
b11100110 !
b11100110 '
1"
#3680
1%
0"
#3684
b11100111 &
1"
#3688
0%
b11100111 #
0"
#3692
b11100111 !
b11100111 '
1"
#3696
1%
0"
#3700
b11101000 &
1"
#3704
0%
b11101000 #
0"
#3708
b11101000 !
b11101000 '
1"
#3712
1%
0"
#3716
b11101001 &
1"
#3720
0%
b11101001 #
0"
#3724
b11101001 !
b11101001 '
1"
#3728
1%
0"
#3732
b11101010 &
1"
#3736
0%
b11101010 #
0"
#3740
b11101010 !
b11101010 '
1"
#3744
1%
0"
#3748
b11101011 &
1"
#3752
0%
b11101011 #
0"
#3756
b11101011 !
b11101011 '
1"
#3760
1%
0"
#3764
b11101100 &
1"
#3768
0%
b11101100 #
0"
#3772
b11101100 !
b11101100 '
1"
#3776
1%
0"
#3780
b11101101 &
1"
#3784
0%
b11101101 #
0"
#3788
b11101101 !
b11101101 '
1"
#3792
1%
0"
#3796
b11101110 &
1"
#3800
0%
b11101110 #
0"
#3804
b11101110 !
b11101110 '
1"
#3808
1%
0"
#3812
b11101111 &
1"
#3816
0%
b11101111 #
0"
#3820
b11101111 !
b11101111 '
1"
#3824
1%
0"
#3828
b11110000 &
1"
#3832
0%
b11110000 #
0"
#3836
b11110000 !
b11110000 '
1"
#3840
1%
0"
#3844
b11110001 &
1"
#3848
0%
b11110001 #
0"
#3852
b11110001 !
b11110001 '
1"
#3856
1%
0"
#3860
b11110010 &
1"
#3864
0%
b11110010 #
0"
#3868
b11110010 !
b11110010 '
1"
#3872
1%
0"
#3876
b11110011 &
1"
#3880
0%
b11110011 #
0"
#3884
b11110011 !
b11110011 '
1"
#3888
1%
0"
#3892
b11110100 &
1"
#3896
0%
b11110100 #
0"
#3900
b11110100 !
b11110100 '
1"
#3904
1%
0"
#3908
b11110101 &
1"
#3912
0%
b11110101 #
0"
#3916
b11110101 !
b11110101 '
1"
#3920
1%
0"
#3924
b11110110 &
1"
