instruction_memory/instruction_memory_TB.vcd
$date
	Sun Oct 20 01:35:48 2024
$end
$version
	Icarus Verilog
$end
$timescale
	1fs
$end
$scope module instruction_memory_TB $end
$var wire 8 ! instruction [7:0] $end
$var reg 1 " clk $end
$var reg 8 # data [7:0] $end
$var reg 8 $ pc [7:0] $end
$var integer 32 % memory_file [31:0] $end
$scope module DUT $end
$var wire 1 " clk $end
$var wire 8 & pc [7:0] $end
$var reg 8 ' instruction [7:0] $end
$upscope $end
$scope begin $ivl_for_loop0 $end
$var reg 9 ( i [8:0] $end
$upscope $end
$upscope $end
$enddefinitions $end
#0
$dumpvars
bx (
bx '
b0 &
b10000000000000000000000000000011 %
b0 $
b0 #
0"
bx !
$end
#4
b0 !
b0 '
1"
#8
b1 #
b1 $
b1 &
0"
#12
b1 !
b1 '
1"
#16
b10 #
b10 $
b10 &
0"
#20
b10 !
b10 '
1"
#24
b11 #
b11 $
b11 &
0"
#28
b11 !
b11 '
1"
#32
b100 #
b100 $
b100 &
0"
#36
b100 !
b100 '
1"
#40
b101 #
b101 $
b101 &
0"
#44
b101 !
b101 '
1"
#48
b110 #
b110 $
b110 &
0"
#52
b110 !
b110 '
1"
#56
b111 #
b111 $
b111 &
0"
#60
b111 !
b111 '
1"
#64
b1000 #
b1000 $
b1000 &
0"
#68
b1000 !
b1000 '
1"
#72
b1001 #
b1001 $
b1001 &
0"
#76
b1001 !
b1001 '
1"
#80
b1010 #
b1010 $
b1010 &
0"
#84
b1010 !
b1010 '
1"
#88
b1011 #
b1011 $
b1011 &
0"
#92
b1011 !
b1011 '
1"
#96
b1100 #
b1100 $
b1100 &
0"
#100
b1100 !
b1100 '
1"
#104
b1101 #
b1101 $
b1101 &
0"
#108
b1101 !
b1101 '
1"
#112
b1110 #
b1110 $
b1110 &
0"
#116
b1110 !
b1110 '
1"
#120
b1111 #
b1111 $
b1111 &
0"
#124
b1111 !
b1111 '
1"
#128
b10000 #
b10000 $
b10000 &
0"
#132
b10000 !
b10000 '
1"
#136
b10001 #
b10001 $
b10001 &
0"
#140
b10001 !
b10001 '
1"
#144
b10010 #
b10010 $
b10010 &
0"
#148
b10010 !
b10010 '
1"
#152
b10011 #
b10011 $
b10011 &
0"
#156
b10011 !
b10011 '
1"
#160
b10100 #
b10100 $
b10100 &
0"
#164
b10100 !
b10100 '
1"
#168
b10101 #
b10101 $
b10101 &
0"
#172
b10101 !
b10101 '
1"
#176
b10110 #
b10110 $
b10110 &
0"
#180
b10110 !
b10110 '
1"
#184
b10111 #
b10111 $
b10111 &
0"
#188
b10111 !
b10111 '
1"
#192
b11000 #
b11000 $
b11000 &
0"
#196
b11000 !
b11000 '
1"
#200
b11001 #
b11001 $
b11001 &
0"
#204
b11001 !
b11001 '
1"
#208
b11010 #
b11010 $
b11010 &
0"
#212
b11010 !
b11010 '
1"
#216
b11011 #
b11011 $
b11011 &
0"
#220
b11011 !
b11011 '
1"
#224
b11100 #
b11100 $
b11100 &
0"
#228
b11100 !
b11100 '
1"
#232
b11101 #
b11101 $
b11101 &
0"
#236
b11101 !
b11101 '
1"
#240
b11110 #
b11110 $
b11110 &
0"
#244
b11110 !
b11110 '
1"
#248
b11111 #
b11111 $
b11111 &
0"
#252
b11111 !
b11111 '
1"
#256
b100000 #
b100000 $
b100000 &
0"
#260
b100000 !
b100000 '
1"
#264
b100001 #
b100001 $
b100001 &
0"
#268
b100001 !
b100001 '
1"
#272
b100010 #
b100010 $
b100010 &
0"
#276
b100010 !
b100010 '
1"
#280
b100011 #
b100011 $
b100011 &
0"
#284
b100011 !
b100011 '
1"
#288
b100100 #
b100100 $
b100100 &
0"
#292
b100100 !
b100100 '
1"
#296
b100101 #
b100101 $
b100101 &
0"
#300
b100101 !
b100101 '
1"
#304
b100110 #
b100110 $
b100110 &
0"
#308
b100110 !
b100110 '
1"
#312
b100111 #
b100111 $
b100111 &
0"
#316
b100111 !
b100111 '
1"
#320
b101000 #
b101000 $
b101000 &
0"
#324
b101000 !
b101000 '
1"
#328
b101001 #
b101001 $
b101001 &
0"
#332
b101001 !
b101001 '
1"
#336
b101010 #
b101010 $
b101010 &
0"
#340
b101010 !
b101010 '
1"
#344
b101011 #
b101011 $
b101011 &
0"
#348
b101011 !
b101011 '
1"
#352
b101100 #
b101100 $
b101100 &
0"
#356
b101100 !
b101100 '
1"
#360
b101101 #
b101101 $
b101101 &
0"
#364
b101101 !
b101101 '
1"
#368
b101110 #
b101110 $
b101110 &
0"
#372
b101110 !
b101110 '
1"
#376
b101111 #
b101111 $
b101111 &
0"
#380
b101111 !
b101111 '
1"
#384
b110000 #
b110000 $
b110000 &
0"
#388
b110000 !
b110000 '
1"
#392
b110001 #
b110001 $
b110001 &
0"
#396
b110001 !
b110001 '
1"
#400
b110010 #
b110010 $
b110010 &
0"
#404
b110010 !
b110010 '
1"
#408
b110011 #
b110011 $
b110011 &
0"
#412
b110011 !
b110011 '
1"
#416
b110100 #
b110100 $
b110100 &
0"
#420
b110100 !
b110100 '
1"
#424
b110101 #
b110101 $
b110101 &
0"
#428
b110101 !
b110101 '
1"
#432
b110110 #
b110110 $
b110110 &
0"
#436
b110110 !
b110110 '
1"
#440
b110111 #
b110111 $
b110111 &
0"
#444
b110111 !
b110111 '
1"
#448
b111000 #
b111000 $
b111000 &
0"
#452
b111000 !
b111000 '
1"
#456
b111001 #
b111001 $
b111001 &
0"
#460
b111001 !
b111001 '
1"
#464
b111010 #
b111010 $
b111010 &
0"
#468
b111010 !
b111010 '
1"
#472
b111011 #
b111011 $
b111011 &
0"
#476
b111011 !
b111011 '
1"
#480
b111100 #
b111100 $
b111100 &
0"
#484
b111100 !
b111100 '
1"
#488
b111101 #
b111101 $
b111101 &
0"
#492
b111101 !
b111101 '
1"
#496
b111110 #
b111110 $
b111110 &
0"
#500
b111110 !
b111110 '
1"
#504
b111111 #
b111111 $
b111111 &
0"
#508
b111111 !
b111111 '
1"
#512
b1000000 #
b1000000 $
b1000000 &
0"
#516
b1000000 !
b1000000 '
1"
#520
b1000001 #
b1000001 $
b1000001 &
0"
#524
b1000001 !
b1000001 '
1"
#528
b1000010 #
b1000010 $
b1000010 &
0"
#532
b1000010 !
b1000010 '
1"
#536
b1000011 #
b1000011 $
b1000011 &
0"
#540
b1000011 !
b1000011 '
1"
#544
b1000100 #
b1000100 $
b1000100 &
0"
#548
b1000100 !
b1000100 '
1"
#552
b1000101 #
b1000101 $
b1000101 &
0"
#556
b1000101 !
b1000101 '
1"
#560
b1000110 #
b1000110 $
b1000110 &
0"
#564
b1000110 !
b1000110 '
1"
#568
b1000111 #
b1000111 $
b1000111 &
0"
#572
b1000111 !
b1000111 '
1"
#576
b1001000 #
b1001000 $
b1001000 &
0"
#580
b1001000 !
b1001000 '
1"
#584
b1001001 #
b1001001 $
b1001001 &
0"
#588
b1001001 !
b1001001 '
1"
#592
b1001010 #
b1001010 $
b1001010 &
0"
#596
b1001010 !
b1001010 '
1"
#600
b1001011 #
b1001011 $
b1001011 &
0"
#604
b1001011 !
b1001011 '
1"
#608
b1001100 #
b1001100 $
b1001100 &
0"
#612
b1001100 !
b1001100 '
1"
#616
b1001101 #
b1001101 $
b1001101 &
0"
#620
b1001101 !
b1001101 '
1"
#624
b1001110 #
b1001110 $
b1001110 &
0"
#628
b1001110 !
b1001110 '
1"
#632
b1001111 #
b1001111 $
b1001111 &
0"
#636
b1001111 !
b1001111 '
1"
#640
b1010000 #
b1010000 $
b1010000 &
0"
#644
b1010000 !
b1010000 '
1"
#648
b1010001 #
b1010001 $
b1010001 &
0"
#652
b1010001 !
b1010001 '
1"
#656
b1010010 #
b1010010 $
b1010010 &
0"
#660
b1010010 !
b1010010 '
1"
#664
b1010011 #
b1010011 $
b1010011 &
0"
#668
b1010011 !
b1010011 '
1"
#672
b1010100 #
b1010100 $
b1010100 &
0"
#676
b1010100 !
b1010100 '
1"
#680
b1010101 #
b1010101 $
b1010101 &
0"
#684
b1010101 !
b1010101 '
1"
#688
b1010110 #
b1010110 $
b1010110 &
0"
#692
b1010110 !
b1010110 '
1"
#696
b1010111 #
b1010111 $
b1010111 &
0"
#700
b1010111 !
b1010111 '
1"
#704
b1011000 #
b1011000 $
b1011000 &
0"
#708
b1011000 !
b1011000 '
1"
#712
b1011001 #
b1011001 $
b1011001 &
0"
#716
b1011001 !
b1011001 '
1"
#720
b1011010 #
b1011010 $
b1011010 &
0"
#724
b1011010 !
b1011010 '
1"
#728
b1011011 #
b1011011 $
b1011011 &
0"
#732
b1011011 !
b1011011 '
1"
#736
b1011100 #
b1011100 $
b1011100 &
0"
#740
b1011100 !
b1011100 '
1"
#744
b1011101 #
b1011101 $
b1011101 &
0"
#748
b1011101 !
b1011101 '
1"
#752
b1011110 #
b1011110 $
b1011110 &
0"
#756
b1011110 !
b1011110 '
1"
#760
b1011111 #
b1011111 $
b1011111 &
0"
#764
b1011111 !
b1011111 '
1"
#768
b1100000 #
b1100000 $
b1100000 &
0"
#772
b1100000 !
b1100000 '
1"
#776
b1100001 #
b1100001 $
b1100001 &
0"
#780
b1100001 !
b1100001 '
1"
#784
b1100010 #
b1100010 $
b1100010 &
0"
#788
b1100010 !
b1100010 '
1"
#792
b1100011 #
b1100011 $
b1100011 &
0"
#796
b1100011 !
b1100011 '
1"
#800
b1100100 #
b1100100 $
b1100100 &
0"
#804
b1100100 !
b1100100 '
1"
#808
b1100101 #
b1100101 $
b1100101 &
0"
#812
b1100101 !
b1100101 '
1"
#816
b1100110 #
b1100110 $
b1100110 &
0"
#820
b1100110 !
b1100110 '
1"
#824
b1100111 #
b1100111 $
b1100111 &
0"
#828
b1100111 !
b1100111 '
1"
#832
b1101000 #
b1101000 $
b1101000 &
0"
#836
b1101000 !
b1101000 '
1"
#840
b1101001 #
b1101001 $
b1101001 &
0"
#844
b1101001 !
b1101001 '
1"
#848
b1101010 #
b1101010 $
b1101010 &
0"
#852
b1101010 !
b1101010 '
1"
#856
b1101011 #
b1101011 $
b1101011 &
0"
#860
b1101011 !
b1101011 '
1"
#864
b1101100 #
b1101100 $
b1101100 &
0"
#868
b1101100 !
b1101100 '
1"
#872
b1101101 #
b1101101 $
b1101101 &
0"
#876
b1101101 !
b1101101 '
1"
#880
b1101110 #
b1101110 $
b1101110 &
0"
#884
b1101110 !
b1101110 '
1"
#888
b1101111 #
b1101111 $
b1101111 &
0"
#892
b1101111 !
b1101111 '
1"
#896
b1110000 #
b1110000 $
b1110000 &
0"
#900
b1110000 !
b1110000 '
1"
#904
b1110001 #
b1110001 $
b1110001 &
0"
#908
b1110001 !
b1110001 '
1"
#912
b1110010 #
b1110010 $
b1110010 &
0"
#916
b1110010 !
b1110010 '
1"
#920
b1110011 #
b1110011 $
b1110011 &
0"
#924
b1110011 !
b1110011 '
1"
#928
b1110100 #
b1110100 $
b1110100 &
0"
#932
b1110100 !
b1110100 '
1"
#936
b1110101 #
b1110101 $
b1110101 &
0"
#940
b1110101 !
b1110101 '
1"
#944
b1110110 #
b1110110 $
b1110110 &
0"
#948
b1110110 !
b1110110 '
1"
#952
b1110111 #
b1110111 $
b1110111 &
0"
#956
b1110111 !
b1110111 '
1"
#960
b1111000 #
b1111000 $
b1111000 &
0"
#964
b1111000 !
b1111000 '
1"
#968
b1111001 #
b1111001 $
b1111001 &
0"
#972
b1111001 !
b1111001 '
1"
#976
b1111010 #
b1111010 $
b1111010 &
0"
#980
b1111010 !
b1111010 '
1"
#984
b1111011 #
b1111011 $
b1111011 &
0"
#988
b1111011 !
b1111011 '
1"
#992
b1111100 #
b1111100 $
b1111100 &
0"
#996
b1111100 !
b1111100 '
1"
#1000
b1111101 #
b1111101 $
b1111101 &
0"
#1004
b1111101 !
b1111101 '
1"
#1008
b1111110 #
b1111110 $
b1111110 &
0"
#1012
b1111110 !
b1111110 '
1"
#1016
b1111111 #
b1111111 $
b1111111 &
0"
#1020
b1111111 !
b1111111 '
1"
#1024
b10000000 #
b10000000 $
b10000000 &
0"
#1028
b10000000 !
b10000000 '
1"
#1032
b10000001 #
b10000001 $
b10000001 &
0"
#1036
b10000001 !
b10000001 '
1"
#1040
b10000010 #
b10000010 $
b10000010 &
0"
#1044
b10000010 !
b10000010 '
1"
#1048
b10000011 #
b10000011 $
b10000011 &
0"
#1052
b10000011 !
b10000011 '
1"
#1056
b10000100 #
b10000100 $
b10000100 &
0"
#1060
b10000100 !
b10000100 '
1"
#1064
b10000101 #
b10000101 $
b10000101 &
0"
#1068
b10000101 !
b10000101 '
1"
#1072
b10000110 #
b10000110 $
b10000110 &
0"
#1076
b10000110 !
b10000110 '
1"
#1080
b10000111 #
b10000111 $
b10000111 &
0"
#1084
b10000111 !
b10000111 '
1"
#1088
b10001000 #
b10001000 $
b10001000 &
0"
#1092
b10001000 !
b10001000 '
1"
#1096
b10001001 #
b10001001 $
b10001001 &
0"
#1100
b10001001 !
b10001001 '
1"
#1104
b10001010 #
b10001010 $
b10001010 &
0"
#1108
b10001010 !
b10001010 '
1"
#1112
b10001011 #
b10001011 $
b10001011 &
0"
#1116
b10001011 !
b10001011 '
1"
#1120
b10001100 #
b10001100 $
b10001100 &
0"
#1124
b10001100 !
b10001100 '
1"
#1128
b10001101 #
b10001101 $
b10001101 &
0"
#1132
b10001101 !
b10001101 '
1"
#1136
b10001110 #
b10001110 $
b10001110 &
0"
#1140
b10001110 !
b10001110 '
1"
#1144
b10001111 #
b10001111 $
b10001111 &
0"
#1148
b10001111 !
b10001111 '
1"
#1152
b10010000 #
b10010000 $
b10010000 &
0"
#1156
b10010000 !
b10010000 '
1"
#1160
b10010001 #
b10010001 $
b10010001 &
0"
#1164
b10010001 !
b10010001 '
1"
#1168
b10010010 #
b10010010 $
b10010010 &
0"
#1172
b10010010 !
b10010010 '
1"
#1176
b10010011 #
b10010011 $
b10010011 &
0"
#1180
b10010011 !
b10010011 '
1"
#1184
b10010100 #
b10010100 $
b10010100 &
0"
#1188
b10010100 !
b10010100 '
1"
#1192
b10010101 #
b10010101 $
b10010101 &
0"
#1196
b10010101 !
b10010101 '
1"
#1200
b10010110 #
b10010110 $
b10010110 &
0"
#1204
b10010110 !
b10010110 '
1"
#1208
b10010111 #
b10010111 $
b10010111 &
0"
#1212
b10010111 !
b10010111 '
1"
#1216
b10011000 #
b10011000 $
b10011000 &
0"
#1220
b10011000 !
b10011000 '
1"
#1224
b10011001 #
b10011001 $
b10011001 &
0"
#1228
b10011001 !
b10011001 '
1"
#1232
b10011010 #
b10011010 $
b10011010 &
0"
#1236
b10011010 !
b10011010 '
1"
#1240
b10011011 #
b10011011 $
b10011011 &
0"
#1244
b10011011 !
b10011011 '
1"
#1248
b10011100 #
b10011100 $
b10011100 &
0"
#1252
b10011100 !
b10011100 '
1"
#1256
b10011101 #
b10011101 $
b10011101 &
0"
#1260
b10011101 !
b10011101 '
1"
#1264
b10011110 #
b10011110 $
b10011110 &
0"
#1268
b10011110 !
b10011110 '
1"
#1272
b10011111 #
b10011111 $
b10011111 &
0"
#1276
b10011111 !
b10011111 '
1"
#1280
b10100000 #
b10100000 $
b10100000 &
0"
#1284
b10100000 !
b10100000 '
1"
#1288
b10100001 #
b10100001 $
b10100001 &
0"
#1292
b10100001 !
b10100001 '
1"
#1296
b10100010 #
b10100010 $
b10100010 &
0"
#1300
b10100010 !
b10100010 '
1"
#1304
b10100011 #
b10100011 $
b10100011 &
0"
#1308
b10100011 !
b10100011 '
1"
#1312
b10100100 #
b10100100 $
b10100100 &
0"
#1316
b10100100 !
b10100100 '
1"
#1320
b10100101 #
b10100101 $
b10100101 &
0"
#1324
b10100101 !
b10100101 '
1"
#1328
b10100110 #
b10100110 $
b10100110 &
0"
#1332
b10100110 !
b10100110 '
1"
#1336
b10100111 #
b10100111 $
b10100111 &
0"
#1340
b10100111 !
b10100111 '
1"
#1344
b10101000 #
b10101000 $
b10101000 &
0"
#1348
b10101000 !
b10101000 '
1"
#1352
b10101001 #
b10101001 $
b10101001 &
0"
#1356
b10101001 !
b10101001 '
1"
#1360
b10101010 #
b10101010 $
b10101010 &
0"
#1364
b10101010 !
b10101010 '
1"
#1368
b10101011 #
b10101011 $
b10101011 &
0"
#1372
b10101011 !
b10101011 '
1"
#1376
b10101100 #
b10101100 $
b10101100 &
0"
#1380
b10101100 !
b10101100 '
1"
#1384
b10101101 #
b10101101 $
b10101101 &
0"
#1388
b10101101 !
b10101101 '
1"
#1392
b10101110 #
b10101110 $
b10101110 &
0"
#1396
b10101110 !
b10101110 '
1"
#1400
b10101111 #
b10101111 $
b10101111 &
0"
#1404
b10101111 !
b10101111 '
1"
#1408
b10110000 #
b10110000 $
b10110000 &
0"
#1412
b10110000 !
b10110000 '
1"
#1416
b10110001 #
b10110001 $
b10110001 &
0"
#1420
b10110001 !
b10110001 '
1"
#1424
b10110010 #
b10110010 $
b10110010 &
0"
#1428
b10110010 !
b10110010 '
1"
#1432
b10110011 #
b10110011 $
b10110011 &
0"
#1436
b10110011 !
b10110011 '
1"
#1440
b10110100 #
b10110100 $
b10110100 &
0"
#1444
b10110100 !
b10110100 '
1"
#1448
b10110101 #
b10110101 $
b10110101 &
0"
#1452
b10110101 !
b10110101 '
1"
#1456
b10110110 #
b10110110 $
b10110110 &
0"
#1460
b10110110 !
b10110110 '
1"
#1464
b10110111 #
b10110111 $
b10110111 &
0"
#1468
b10110111 !
b10110111 '
1"
#1472
b10111000 #
b10111000 $
b10111000 &
0"
#1476
b10111000 !
b10111000 '
1"
#1480
b10111001 #
b10111001 $
b10111001 &
0"
#1484
b10111001 !
b10111001 '
1"
#1488
b10111010 #
b10111010 $
b10111010 &
0"
#1492
b10111010 !
b10111010 '
1"
#1496
b10111011 #
b10111011 $
b10111011 &
0"
#1500
b10111011 !
b10111011 '
1"
#1504
b10111100 #
b10111100 $
b10111100 &
0"
#1508
b10111100 !
b10111100 '
1"
#1512
b10111101 #
b10111101 $
b10111101 &
0"
#1516
b10111101 !
b10111101 '
1"
#1520
b10111110 #
b10111110 $
b10111110 &
0"
#1524
b10111110 !
b10111110 '
1"
#1528
b10111111 #
b10111111 $
b10111111 &
0"
#1532
b10111111 !
b10111111 '
1"
#1536
b11000000 #
b11000000 $
b11000000 &
0"
#1540
b11000000 !
b11000000 '
1"
#1544
b11000001 #
b11000001 $
b11000001 &
0"
#1548
b11000001 !
b11000001 '
1"
#1552
b11000010 #
b11000010 $
b11000010 &
0"
#1556
b11000010 !
b11000010 '
1"
#1560
b11000011 #
b11000011 $
b11000011 &
0"
#1564
b11000011 !
b11000011 '
1"
#1568
b11000100 #
b11000100 $
b11000100 &
0"
#1572
b11000100 !
b11000100 '
1"
#1576
b11000101 #
b11000101 $
b11000101 &
0"
#1580
b11000101 !
b11000101 '
1"
#1584
b11000110 #
b11000110 $
b11000110 &
0"
#1588
b11000110 !
b11000110 '
1"
#1592
b11000111 #
b11000111 $
b11000111 &
0"
#1596
b11000111 !
b11000111 '
1"
#1600
b11001000 #
b11001000 $
b11001000 &
0"
#1604
b11001000 !
b11001000 '
1"
#1608
b11001001 #
b11001001 $
b11001001 &
0"
#1612
b11001001 !
b11001001 '
1"
#1616
b11001010 #
b11001010 $
b11001010 &
0"
#1620
b11001010 !
b11001010 '
1"
#1624
b11001011 #
b11001011 $
b11001011 &
0"
#1628
b11001011 !
b11001011 '
1"
#1632
b11001100 #
b11001100 $
b11001100 &
0"
#1636
b11001100 !
b11001100 '
1"
#1640
b11001101 #
b11001101 $
b11001101 &
0"
#1644
b11001101 !
b11001101 '
1"
#1648
b11001110 #
b11001110 $
b11001110 &
0"
#1652
b11001110 !
b11001110 '
1"
#1656
b11001111 #
b11001111 $
b11001111 &
0"
#1660
b11001111 !
b11001111 '
1"
#1664
b11010000 #
b11010000 $
b11010000 &
0"
#1668
b11010000 !
b11010000 '
1"
#1672
b11010001 #
b11010001 $
b11010001 &
0"
#1676
b11010001 !
b11010001 '
1"
#1680
b11010010 #
b11010010 $
b11010010 &
0"
#1684
b11010010 !
b11010010 '
1"
#1688
b11010011 #
b11010011 $
b11010011 &
0"
#1692
b11010011 !
b11010011 '
1"
#1696
b11010100 #
b11010100 $
b11010100 &
0"
#1700
b11010100 !
b11010100 '
1"
#1704
b11010101 #
b11010101 $
b11010101 &
0"
#1708
b11010101 !
b11010101 '
1"
#1712
b11010110 #
b11010110 $
b11010110 &
0"
#1716
b11010110 !
b11010110 '
1"
#1720
b11010111 #
b11010111 $
b11010111 &
0"
#1724
b11010111 !
b11010111 '
1"
#1728
b11011000 #
b11011000 $
b11011000 &
0"
#1732
b11011000 !
b11011000 '
1"
#1736
b11011001 #
b11011001 $
b11011001 &
0"
#1740
b11011001 !
b11011001 '
1"
#1744
b11011010 #
b11011010 $
b11011010 &
0"
#1748
b11011010 !
b11011010 '
1"
#1752
b11011011 #
b11011011 $
b11011011 &
0"
#1756
b11011011 !
b11011011 '
1"
#1760
b11011100 #
b11011100 $
b11011100 &
0"
#1764
b11011100 !
b11011100 '
1"
#1768
b11011101 #
b11011101 $
b11011101 &
0"
#1772
b11011101 !
b11011101 '
1"
#1776
b11011110 #
b11011110 $
b11011110 &
0"
#1780
b11011110 !
b11011110 '
1"
#1784
b11011111 #
b11011111 $
b11011111 &
0"
#1788
b11011111 !
b11011111 '
1"
#1792
b11100000 #
b11100000 $
b11100000 &
0"
#1796
b11100000 !
b11100000 '
1"
#1800
b11100001 #
b11100001 $
b11100001 &
0"
#1804
b11100001 !
b11100001 '
1"
#1808
b11100010 #
b11100010 $
b11100010 &
0"
#1812
b11100010 !
b11100010 '
1"
#1816
b11100011 #
b11100011 $
b11100011 &
0"
#1820
b11100011 !
b11100011 '
1"
#1824
b11100100 #
b11100100 $
b11100100 &
0"
#1828
b11100100 !
b11100100 '
1"
#1832
b11100101 #
b11100101 $
b11100101 &
0"
#1836
b11100101 !
b11100101 '
1"
#1840
b11100110 #
b11100110 $
b11100110 &
0"
#1844
b11100110 !
b11100110 '
1"
#1848
b11100111 #
b11100111 $
b11100111 &
0"
#1852
b11100111 !
b11100111 '
1"
#1856
b11101000 #
b11101000 $
b11101000 &
0"
#1860
b11101000 !
b11101000 '
1"
#1864
b11101001 #
b11101001 $
b11101001 &
0"
#1868
b11101001 !
b11101001 '
1"
#1872
b11101010 #
b11101010 $
b11101010 &
0"
#1876
b11101010 !
b11101010 '
1"
#1880
b11101011 #
b11101011 $
b11101011 &
0"
#1884
b11101011 !
b11101011 '
1"
#1888
b11101100 #
b11101100 $
b11101100 &
0"
#1892
b11101100 !
b11101100 '
1"
#1896
b11101101 #
b11101101 $
b11101101 &
0"
#1900
b11101101 !
b11101101 '
1"
#1904
b11101110 #
b11101110 $
b11101110 &
0"
#1908
b11101110 !
b11101110 '
1"
#1912
b11101111 #
b11101111 $
b11101111 &
0"
#1916
b11101111 !
b11101111 '
1"
#1920
b11110000 #
b11110000 $
b11110000 &
0"
#1924
b11110000 !
b11110000 '
1"
#1928
b11110001 #
b11110001 $
b11110001 &
0"
#1932
b11110001 !
b11110001 '
1"
#1936
b11110010 #
b11110010 $
b11110010 &
0"
#1940
b11110010 !
b11110010 '
1"
#1944
b11110011 #
b11110011 $
b11110011 &
0"
#1948
b11110011 !
b11110011 '
1"
#1952
b11110100 #
b11110100 $
b11110100 &
0"
#1956
b11110100 !
b11110100 '
1"
#1960
b11110101 #
b11110101 $
b11110101 &
0"
#1964
b11110101 !
b11110101 '
1"
#1968
b11110110 #
b11110110 $
b11110110 &
0"
#1972
b11110110 !
b11110110 '
1"
#1976
b11110111 #
b11110111 $
b11110111 &
0"
#1980
b11110111 !
b11110111 '
1"
#1984
b11111000 #
b11111000 $
b11111000 &
0"
#1988
b11111000 !
b11111000 '
1"
#1992
b11111001 #
b11111001 $
b11111001 &
0"
#1996
b11111001 !
b11111001 '
1"
#2000
b11111010 #
b11111010 $
b11111010 &
0"
#2004
b11111010 !
b11111010 '
1"
#2008
b11111011 #
b11111011 $
b11111011 &
0"
#2012
b11111011 !
b11111011 '
1"
#2016
b11111100 #
b11111100 $
b11111100 &
0"
#2020
b11111100 !
b11111100 '
1"
#2024
b11111101 #
b11111101 $
b11111101 &
0"
#2028
b11111101 !
b11111101 '
1"
#2032
b11111110 #
b11111110 $
b11111110 &
0"
#2036
b11111110 !
b11111110 '
1"
#2040
b11111111 #
b11111111 $
b11111111 &
0"
#2044
b11111111 !
b11111111 '
1"
